(module SMA_DO123 (layer F.Cu) (tedit 0)
  (fp_text reference D4 (at 1.405 0) (layer F.SilkS)
    (effects (font (size 0.77216 0.77216) (thickness 0.077216)) (justify right top))
  )
  (fp_text value PMEG6020AELRX (at -1.405 0 90) (layer F.Fab) hide
    (effects (font (size 0.77216 0.77216) (thickness 0.065024)) (justify right top))
  )
  (fp_line (start 0.85 -2) (end 0.85 -1.11) (layer F.SilkS) (width 0.127))
  (fp_line (start 0.85 -1.11) (end 0.85 -0.99) (layer F.SilkS) (width 0.127))
  (fp_line (start 0.85 -0.99) (end 0.85 2) (layer F.SilkS) (width 0.127))
  (fp_line (start -0.85 -2) (end -0.85 -1.11) (layer F.SilkS) (width 0.127))
  (fp_line (start -0.85 -1.11) (end -0.85 -0.99) (layer F.SilkS) (width 0.127))
  (fp_line (start -0.85 -0.99) (end -0.85 2) (layer F.SilkS) (width 0.127))
  (fp_line (start 0.85 -2) (end -0.85 -2) (layer F.SilkS) (width 0.127))
  (fp_line (start 0.85 2) (end -0.85 2) (layer F.SilkS) (width 0.127))
  (fp_line (start 0.85 -1.11) (end -0.85 -1.11) (layer F.SilkS) (width 0.127))
  (fp_line (start 0.85 -0.99) (end -0.85 -0.99) (layer F.SilkS) (width 0.127))
  (fp_line (start 0.6 0.627) (end 0 -0.373) (layer F.SilkS) (width 0.127))
  (fp_line (start 0 -0.373) (end -0.6 0.627) (layer F.SilkS) (width 0.127))
  (fp_line (start -0.6 0.627) (end 0.6 0.627) (layer F.SilkS) (width 0.127))
  (fp_poly (pts (xy -0.7874 -0.8636) (xy -0.7874 -0.254) (xy 0.7874 -0.254) (xy 0.7874 -0.8636)) (layer F.SilkS) (width 0))
  (pad C smd roundrect (at 0 -1.4) (size 1.2 1.2) (layers F.Cu F.Paste F.Mask) (roundrect_rratio 0.1)
    (solder_mask_margin 0.0508))
  (pad A smd roundrect (at 0 1.4) (size 1.2 1.2) (layers F.Cu F.Paste F.Mask) (roundrect_rratio 0.1)
    (solder_mask_margin 0.0508))
)
