(module SOTFL50P160X78-3 (layer F.Cu) (tedit 0)
  (descr "Small Outline Transistor Flat Lead (SOTFL), 0.50 mm pitch; 3 pin, 1.60 mm L X 0.88 mm W X 0.78 mm H body<p>")
  (fp_text reference Q4 (at 0 0 -180) (layer F.SilkS)
    (effects (font (size 0.28956 0.28956) (thickness 0.028956)) (justify left bottom))
  )
  (fp_text value 2N7002T (at 0 0) (layer F.Fab) hide
    (effects (font (size 1.14 1.14) (thickness 0.12)) (justify right top))
  )
  (fp_poly (pts (xy -0.75 0.24) (xy -0.25 0.24) (xy -0.25 0.9) (xy -0.75 0.9)) (layer F.Mask) (width 0))
  (fp_poly (pts (xy -0.75 0.57) (xy -0.75 0.25) (xy -0.7499 0.2484) (xy -0.7495 0.2469)
    (xy -0.7489 0.2455) (xy -0.7481 0.2441) (xy -0.7471 0.2429) (xy -0.7459 0.2419)
    (xy -0.7445 0.2411) (xy -0.7431 0.2405) (xy -0.7416 0.2401) (xy -0.26 0.24)
    (xy -0.2584 0.2401) (xy -0.2569 0.2405) (xy -0.2555 0.2411) (xy -0.2541 0.2419)
    (xy -0.2529 0.2429) (xy -0.2519 0.2441) (xy -0.2511 0.2455) (xy -0.2505 0.2469)
    (xy -0.2501 0.2484) (xy -0.25 0.25) (xy -0.25 0.89) (xy -0.2501 0.8916)
    (xy -0.2505 0.8931) (xy -0.2511 0.8945) (xy -0.2519 0.8959) (xy -0.2529 0.8971)
    (xy -0.2541 0.8981) (xy -0.2555 0.8989) (xy -0.2569 0.8995) (xy -0.2584 0.8999)
    (xy -0.74 0.9) (xy -0.7416 0.8999) (xy -0.7431 0.8995) (xy -0.7445 0.8989)
    (xy -0.7459 0.8981) (xy -0.7471 0.8971) (xy -0.7481 0.8959) (xy -0.7489 0.8945)
    (xy -0.7495 0.8931) (xy -0.7499 0.8916) (xy -0.75 0.89)) (layer F.Paste) (width 0))
  (fp_poly (pts (xy 0.25 0.24) (xy 0.75 0.24) (xy 0.75 0.9) (xy 0.25 0.9)) (layer F.Mask) (width 0))
  (fp_poly (pts (xy 0.25 0.57) (xy 0.25 0.25) (xy 0.2501 0.2484) (xy 0.2505 0.2469)
    (xy 0.2511 0.2455) (xy 0.2519 0.2441) (xy 0.2529 0.2429) (xy 0.2541 0.2419)
    (xy 0.2555 0.2411) (xy 0.2569 0.2405) (xy 0.2584 0.2401) (xy 0.74 0.24)
    (xy 0.7416 0.2401) (xy 0.7431 0.2405) (xy 0.7445 0.2411) (xy 0.7459 0.2419)
    (xy 0.7471 0.2429) (xy 0.7481 0.2441) (xy 0.7489 0.2455) (xy 0.7495 0.2469)
    (xy 0.7499 0.2484) (xy 0.75 0.25) (xy 0.75 0.89) (xy 0.7499 0.8916)
    (xy 0.7495 0.8931) (xy 0.7489 0.8945) (xy 0.7481 0.8959) (xy 0.7471 0.8971)
    (xy 0.7459 0.8981) (xy 0.7445 0.8989) (xy 0.7431 0.8995) (xy 0.7416 0.8999)
    (xy 0.26 0.9) (xy 0.2584 0.8999) (xy 0.2569 0.8995) (xy 0.2555 0.8989)
    (xy 0.2541 0.8981) (xy 0.2529 0.8971) (xy 0.2519 0.8959) (xy 0.2511 0.8945)
    (xy 0.2505 0.8931) (xy 0.2501 0.8916) (xy 0.25 0.89)) (layer F.Paste) (width 0))
  (fp_poly (pts (xy 0.25 -0.24) (xy -0.25 -0.24) (xy -0.25 -0.9) (xy 0.25 -0.9)) (layer F.Mask) (width 0))
  (fp_poly (pts (xy 0.25 -0.57) (xy 0.25 -0.25) (xy 0.2499 -0.2484) (xy 0.2495 -0.2469)
    (xy 0.2489 -0.2455) (xy 0.2481 -0.2441) (xy 0.2471 -0.2429) (xy 0.2459 -0.2419)
    (xy 0.2445 -0.2411) (xy 0.2431 -0.2405) (xy 0.2416 -0.2401) (xy -0.24 -0.24)
    (xy -0.2416 -0.2401) (xy -0.2431 -0.2405) (xy -0.2445 -0.2411) (xy -0.2459 -0.2419)
    (xy -0.2471 -0.2429) (xy -0.2481 -0.2441) (xy -0.2489 -0.2455) (xy -0.2495 -0.2469)
    (xy -0.2499 -0.2484) (xy -0.25 -0.25) (xy -0.25 -0.89) (xy -0.2499 -0.8916)
    (xy -0.2495 -0.8931) (xy -0.2489 -0.8945) (xy -0.2481 -0.8959) (xy -0.2471 -0.8971)
    (xy -0.2459 -0.8981) (xy -0.2445 -0.8989) (xy -0.2431 -0.8995) (xy -0.2416 -0.8999)
    (xy 0.24 -0.9) (xy 0.2416 -0.8999) (xy 0.2431 -0.8995) (xy 0.2445 -0.8989)
    (xy 0.2459 -0.8981) (xy 0.2471 -0.8971) (xy 0.2481 -0.8959) (xy 0.2489 -0.8945)
    (xy 0.2495 -0.8931) (xy 0.2499 -0.8916) (xy 0.25 -0.89)) (layer F.Paste) (width 0))
  (fp_circle (center 0 0) (end 0.25 0) (layer Dwgs.User) (width 0.05))
  (fp_line (start 0 -0.35) (end 0 0.35) (layer Dwgs.User) (width 0.05))
  (fp_line (start -0.35 0) (end 0.35 0) (layer Dwgs.User) (width 0.05))
  (fp_line (start -0.85 0.49) (end -0.85 -0.49) (layer F.Fab) (width 0.12))
  (fp_line (start -0.85 -0.49) (end 0.85 -0.49) (layer F.Fab) (width 0.12))
  (fp_line (start 0.85 -0.49) (end 0.85 0.49) (layer F.Fab) (width 0.12))
  (fp_line (start 0.85 0.49) (end -0.85 0.49) (layer F.Fab) (width 0.12))
  (fp_line (start -1 0.64) (end -0.9 0.64) (layer Dwgs.User) (width 0.05))
  (fp_line (start -0.9 0.64) (end -0.9 1.05) (layer Dwgs.User) (width 0.05))
  (fp_line (start -0.9 1.05) (end 0.9 1.05) (layer Dwgs.User) (width 0.05))
  (fp_line (start 0.9 1.05) (end 0.9 0.64) (layer Dwgs.User) (width 0.05))
  (fp_line (start 0.9 0.64) (end 1 0.64) (layer Dwgs.User) (width 0.05))
  (fp_line (start 1 0.64) (end 1 -0.64) (layer Dwgs.User) (width 0.05))
  (fp_line (start 1 -0.64) (end 0.9 -0.64) (layer Dwgs.User) (width 0.05))
  (fp_line (start 0.9 -0.64) (end 0.9 -1.05) (layer Dwgs.User) (width 0.05))
  (fp_line (start 0.9 -1.05) (end -0.9 -1.05) (layer Dwgs.User) (width 0.05))
  (fp_line (start -0.9 -1.05) (end -0.9 -0.64) (layer Dwgs.User) (width 0.05))
  (fp_line (start -0.9 -0.64) (end -1 -0.64) (layer Dwgs.User) (width 0.05))
  (fp_line (start -1 -0.64) (end -1 0.64) (layer Dwgs.User) (width 0.05))
  (fp_line (start -0.93 0.24) (end -0.93 -0.24) (layer F.SilkS) (width 0.12))
  (fp_line (start 0.93 0.24) (end 0.93 -0.24) (layer F.SilkS) (width 0.12))
  (pad G smd roundrect (at -0.5 0.57 270) (size 0.66 0.5) (layers F.Cu F.Mask) (roundrect_rratio 0.02)
    (solder_mask_margin 0.0508))
  (pad S smd roundrect (at 0.5 0.57 270) (size 0.66 0.5) (layers F.Cu F.Mask) (roundrect_rratio 0.02)
    (solder_mask_margin 0.0508))
  (pad D smd roundrect (at 0 -0.57 90) (size 0.66 0.5) (layers F.Cu F.Mask) (roundrect_rratio 0.02)
    (solder_mask_margin 0.0508))
)
