(module STRIP-14-MODULI-A11 (layer F.Cu) (tedit 0)
  (fp_text reference J4 (at 0 0) (layer F.Fab)
    (effects (font (size 0.77216 0.77216) (thickness 0.077216)) (justify left bottom))
  )
  (fp_text value DNP (at 0 0) (layer F.Fab) hide
    (effects (font (size 1.14 1.14) (thickness 0.12)) (justify left bottom))
  )
  (fp_line (start 34.29 1.27) (end 34.29 -1.27) (layer F.Fab) (width 0.203))
  (fp_line (start 34.29 -1.27) (end -1.27 -1.27) (layer F.Fab) (width 0.203))
  (fp_line (start -1.27 -1.27) (end -1.27 1.27) (layer F.Fab) (width 0.203))
  (fp_line (start -1.27 1.27) (end 34.29 1.27) (layer F.Fab) (width 0.203))
  (fp_line (start 0 1.27) (end -1.27 0) (layer F.Fab) (width 0.203))
  (fp_circle (center 0 0) (end 0.25 0) (layer Dwgs.User) (width 0.05))
  (fp_line (start 0 0.35) (end 0 -0.35) (layer Dwgs.User) (width 0.05))
  (fp_line (start 0.35 0) (end -0.35 0) (layer Dwgs.User) (width 0.05))
  (fp_poly (pts (xy -0.8763 -1.0287) (xy 0.8763 -1.0287) (xy 0.8763 1.0287) (xy -0.8763 1.0287)) (layer F.Mask) (width 0))
  (fp_poly (pts (xy -0.8763 -1.0287) (xy -0.8763 0.7747) (xy -0.3556 0.7747) (xy -0.3302 0.7747)
    (xy -0.2286 0.8763) (xy -0.7493 0.8763) (xy -0.8763 1.0033) (xy -0.8763 1.8542)
    (xy -0.7493 1.9812) (xy 0.7493 1.9812) (xy 0.8763 1.8542) (xy 0.8763 1.0033)
    (xy 0.7493 0.8763) (xy 0.2286 0.8763) (xy 0.3302 0.7747) (xy 0.3556 0.7747)
    (xy 0.8763 0.7747) (xy 0.8763 -1.0287)) (layer B.Mask) (width 0))
  (fp_poly (pts (xy 1.6637 -0.1524) (xy 1.6637 -0.152399) (xy 1.693126 -0.375915) (xy 1.7794 -0.584199)
    (xy 1.916643 -0.763056) (xy 2.0955 -0.900299) (xy 2.5273 -1.016) (xy 2.54 -1.016)
    (xy 2.5527 -1.016) (xy 2.552699 -1.016) (xy 2.776215 -0.986574) (xy 2.9845 -0.9003)
    (xy 3.163357 -0.763058) (xy 3.3006 -0.5842) (xy 3.386874 -0.375916) (xy 3.4163 -0.1524)
    (xy 3.4163 0.1524) (xy 3.3909 0.3429) (xy 3.3274 0.5334) (xy 3.175 0.7493)
    (xy 3.1242 0.7747) (xy 2.8956 0.7747) (xy 2.8702 0.7747) (xy 2.7686 0.8763)
    (xy 3.2893 0.8763) (xy 3.4163 1.0033) (xy 3.4163 1.8542) (xy 3.2893 1.9812)
    (xy 1.7907 1.9812) (xy 1.6637 1.8542) (xy 1.6637 1.0033) (xy 1.7907 0.8763)
    (xy 2.3114 0.8763) (xy 2.2098 0.7747) (xy 2.1844 0.7747) (xy 1.9558 0.7747)
    (xy 1.905 0.7493) (xy 1.7526 0.5334) (xy 1.6637 0.1524)) (layer B.Mask) (width 0))
  (fp_poly (pts (xy 1.6637 -0.1524) (xy 1.6637 -0.152399) (xy 1.693126 -0.375915) (xy 1.7794 -0.584199)
    (xy 1.916643 -0.763056) (xy 2.0955 -0.900299) (xy 2.5273 -1.016) (xy 2.54 -1.016)
    (xy 2.5527 -1.016) (xy 2.552699 -1.016) (xy 2.776215 -0.986574) (xy 2.9845 -0.9003)
    (xy 3.163357 -0.763058) (xy 3.3006 -0.5842) (xy 3.386874 -0.375916) (xy 3.4163 -0.1524)
    (xy 3.4163 0.1524) (xy 3.3909 0.3429) (xy 3.3274 0.5334) (xy 3.175 0.7493)
    (xy 3.1242 0.7747) (xy 2.8956 0.7747) (xy 2.8702 0.7747) (xy 2.7686 0.8763)
    (xy 3.2893 0.8763) (xy 3.4163 1.0033) (xy 3.4163 1.8542) (xy 3.2893 1.9812)
    (xy 1.7907 1.9812) (xy 1.6637 1.8542) (xy 1.6637 1.0033) (xy 1.7907 0.8763)
    (xy 2.3114 0.8763) (xy 2.2098 0.7747) (xy 2.1844 0.7747) (xy 1.9558 0.7747)
    (xy 1.905 0.7493) (xy 1.7526 0.5334) (xy 1.6637 0.1524)) (layer B.Mask) (width 0))
  (fp_poly (pts (xy 4.2037 -0.1524) (xy 4.2037 -0.152399) (xy 4.233126 -0.375915) (xy 4.3194 -0.584199)
    (xy 4.456643 -0.763056) (xy 4.6355 -0.900299) (xy 5.0673 -1.016) (xy 5.08 -1.016)
    (xy 5.0927 -1.016) (xy 5.092699 -1.016) (xy 5.316215 -0.986574) (xy 5.5245 -0.9003)
    (xy 5.703357 -0.763058) (xy 5.8406 -0.5842) (xy 5.926874 -0.375916) (xy 5.9563 -0.1524)
    (xy 5.9563 0.1524) (xy 5.9309 0.3429) (xy 5.8674 0.5334) (xy 5.715 0.7493)
    (xy 5.6642 0.7747) (xy 5.4356 0.7747) (xy 5.4102 0.7747) (xy 5.3086 0.8763)
    (xy 5.8293 0.8763) (xy 5.9563 1.0033) (xy 5.9563 1.8542) (xy 5.8293 1.9812)
    (xy 4.3307 1.9812) (xy 4.2037 1.8542) (xy 4.2037 1.0033) (xy 4.3307 0.8763)
    (xy 4.8514 0.8763) (xy 4.7498 0.7747) (xy 4.7244 0.7747) (xy 4.4958 0.7747)
    (xy 4.445 0.7493) (xy 4.2926 0.5334) (xy 4.2037 0.1524)) (layer B.Mask) (width 0))
  (fp_poly (pts (xy 4.2037 -0.1524) (xy 4.2037 -0.152399) (xy 4.233126 -0.375915) (xy 4.3194 -0.584199)
    (xy 4.456643 -0.763056) (xy 4.6355 -0.900299) (xy 5.0673 -1.016) (xy 5.08 -1.016)
    (xy 5.0927 -1.016) (xy 5.092699 -1.016) (xy 5.316215 -0.986574) (xy 5.5245 -0.9003)
    (xy 5.703357 -0.763058) (xy 5.8406 -0.5842) (xy 5.926874 -0.375916) (xy 5.9563 -0.1524)
    (xy 5.9563 0.1524) (xy 5.9309 0.3429) (xy 5.8674 0.5334) (xy 5.715 0.7493)
    (xy 5.6642 0.7747) (xy 5.4356 0.7747) (xy 5.4102 0.7747) (xy 5.3086 0.8763)
    (xy 5.8293 0.8763) (xy 5.9563 1.0033) (xy 5.9563 1.8542) (xy 5.8293 1.9812)
    (xy 4.3307 1.9812) (xy 4.2037 1.8542) (xy 4.2037 1.0033) (xy 4.3307 0.8763)
    (xy 4.8514 0.8763) (xy 4.7498 0.7747) (xy 4.7244 0.7747) (xy 4.4958 0.7747)
    (xy 4.445 0.7493) (xy 4.2926 0.5334) (xy 4.2037 0.1524)) (layer B.Mask) (width 0))
  (fp_poly (pts (xy 6.7437 -0.1524) (xy 6.7437 -0.152399) (xy 6.773126 -0.375915) (xy 6.8594 -0.584199)
    (xy 6.996643 -0.763056) (xy 7.1755 -0.900299) (xy 7.6073 -1.016) (xy 7.62 -1.016)
    (xy 7.6327 -1.016) (xy 7.632699 -1.016) (xy 7.856215 -0.986574) (xy 8.0645 -0.9003)
    (xy 8.243357 -0.763058) (xy 8.3806 -0.5842) (xy 8.466874 -0.375916) (xy 8.4963 -0.1524)
    (xy 8.4963 0.1524) (xy 8.4709 0.3429) (xy 8.4074 0.5334) (xy 8.255 0.7493)
    (xy 8.2042 0.7747) (xy 7.9756 0.7747) (xy 7.9502 0.7747) (xy 7.8486 0.8763)
    (xy 8.3693 0.8763) (xy 8.4963 1.0033) (xy 8.4963 1.8542) (xy 8.3693 1.9812)
    (xy 6.8707 1.9812) (xy 6.7437 1.8542) (xy 6.7437 1.0033) (xy 6.8707 0.8763)
    (xy 7.3914 0.8763) (xy 7.2898 0.7747) (xy 7.2644 0.7747) (xy 7.0358 0.7747)
    (xy 6.985 0.7493) (xy 6.8326 0.5334) (xy 6.7437 0.1524)) (layer B.Mask) (width 0))
  (fp_poly (pts (xy 6.7437 -0.1524) (xy 6.7437 -0.152399) (xy 6.773126 -0.375915) (xy 6.8594 -0.584199)
    (xy 6.996643 -0.763056) (xy 7.1755 -0.900299) (xy 7.6073 -1.016) (xy 7.62 -1.016)
    (xy 7.6327 -1.016) (xy 7.632699 -1.016) (xy 7.856215 -0.986574) (xy 8.0645 -0.9003)
    (xy 8.243357 -0.763058) (xy 8.3806 -0.5842) (xy 8.466874 -0.375916) (xy 8.4963 -0.1524)
    (xy 8.4963 0.1524) (xy 8.4709 0.3429) (xy 8.4074 0.5334) (xy 8.255 0.7493)
    (xy 8.2042 0.7747) (xy 7.9756 0.7747) (xy 7.9502 0.7747) (xy 7.8486 0.8763)
    (xy 8.3693 0.8763) (xy 8.4963 1.0033) (xy 8.4963 1.8542) (xy 8.3693 1.9812)
    (xy 6.8707 1.9812) (xy 6.7437 1.8542) (xy 6.7437 1.0033) (xy 6.8707 0.8763)
    (xy 7.3914 0.8763) (xy 7.2898 0.7747) (xy 7.2644 0.7747) (xy 7.0358 0.7747)
    (xy 6.985 0.7493) (xy 6.8326 0.5334) (xy 6.7437 0.1524)) (layer B.Mask) (width 0))
  (fp_poly (pts (xy 9.2837 -0.1524) (xy 9.2837 -0.152399) (xy 9.313126 -0.375915) (xy 9.3994 -0.584199)
    (xy 9.536643 -0.763056) (xy 9.7155 -0.900299) (xy 10.1473 -1.016) (xy 10.16 -1.016)
    (xy 10.1727 -1.016) (xy 10.172699 -1.016) (xy 10.396215 -0.986574) (xy 10.6045 -0.9003)
    (xy 10.783357 -0.763058) (xy 10.9206 -0.5842) (xy 11.006874 -0.375916) (xy 11.0363 -0.1524)
    (xy 11.0363 0.1524) (xy 11.0109 0.3429) (xy 10.9474 0.5334) (xy 10.795 0.7493)
    (xy 10.7442 0.7747) (xy 10.5156 0.7747) (xy 10.4902 0.7747) (xy 10.3886 0.8763)
    (xy 10.9093 0.8763) (xy 11.0363 1.0033) (xy 11.0363 1.8542) (xy 10.9093 1.9812)
    (xy 9.4107 1.9812) (xy 9.2837 1.8542) (xy 9.2837 1.0033) (xy 9.4107 0.8763)
    (xy 9.9314 0.8763) (xy 9.8298 0.7747) (xy 9.8044 0.7747) (xy 9.5758 0.7747)
    (xy 9.525 0.7493) (xy 9.3726 0.5334) (xy 9.2837 0.1524)) (layer B.Mask) (width 0))
  (fp_poly (pts (xy 9.2837 -0.1524) (xy 9.2837 -0.152399) (xy 9.313126 -0.375915) (xy 9.3994 -0.584199)
    (xy 9.536643 -0.763056) (xy 9.7155 -0.900299) (xy 10.1473 -1.016) (xy 10.16 -1.016)
    (xy 10.1727 -1.016) (xy 10.172699 -1.016) (xy 10.396215 -0.986574) (xy 10.6045 -0.9003)
    (xy 10.783357 -0.763058) (xy 10.9206 -0.5842) (xy 11.006874 -0.375916) (xy 11.0363 -0.1524)
    (xy 11.0363 0.1524) (xy 11.0109 0.3429) (xy 10.9474 0.5334) (xy 10.795 0.7493)
    (xy 10.7442 0.7747) (xy 10.5156 0.7747) (xy 10.4902 0.7747) (xy 10.3886 0.8763)
    (xy 10.9093 0.8763) (xy 11.0363 1.0033) (xy 11.0363 1.8542) (xy 10.9093 1.9812)
    (xy 9.4107 1.9812) (xy 9.2837 1.8542) (xy 9.2837 1.0033) (xy 9.4107 0.8763)
    (xy 9.9314 0.8763) (xy 9.8298 0.7747) (xy 9.8044 0.7747) (xy 9.5758 0.7747)
    (xy 9.525 0.7493) (xy 9.3726 0.5334) (xy 9.2837 0.1524)) (layer B.Mask) (width 0))
  (fp_poly (pts (xy 11.8237 -0.1524) (xy 11.8237 -0.152399) (xy 11.853126 -0.375915) (xy 11.9394 -0.584199)
    (xy 12.076643 -0.763056) (xy 12.2555 -0.900299) (xy 12.6873 -1.016) (xy 12.7 -1.016)
    (xy 12.7127 -1.016) (xy 12.712699 -1.016) (xy 12.936215 -0.986574) (xy 13.1445 -0.9003)
    (xy 13.323357 -0.763058) (xy 13.4606 -0.5842) (xy 13.546874 -0.375916) (xy 13.5763 -0.1524)
    (xy 13.5763 0.1524) (xy 13.5509 0.3429) (xy 13.4874 0.5334) (xy 13.335 0.7493)
    (xy 13.2842 0.7747) (xy 13.0556 0.7747) (xy 13.0302 0.7747) (xy 12.9286 0.8763)
    (xy 13.4493 0.8763) (xy 13.5763 1.0033) (xy 13.5763 1.8542) (xy 13.4493 1.9812)
    (xy 11.9507 1.9812) (xy 11.8237 1.8542) (xy 11.8237 1.0033) (xy 11.9507 0.8763)
    (xy 12.4714 0.8763) (xy 12.3698 0.7747) (xy 12.3444 0.7747) (xy 12.1158 0.7747)
    (xy 12.065 0.7493) (xy 11.9126 0.5334) (xy 11.8237 0.1524)) (layer B.Mask) (width 0))
  (fp_poly (pts (xy 11.8237 -0.1524) (xy 11.8237 -0.152399) (xy 11.853126 -0.375915) (xy 11.9394 -0.584199)
    (xy 12.076643 -0.763056) (xy 12.2555 -0.900299) (xy 12.6873 -1.016) (xy 12.7 -1.016)
    (xy 12.7127 -1.016) (xy 12.712699 -1.016) (xy 12.936215 -0.986574) (xy 13.1445 -0.9003)
    (xy 13.323357 -0.763058) (xy 13.4606 -0.5842) (xy 13.546874 -0.375916) (xy 13.5763 -0.1524)
    (xy 13.5763 0.1524) (xy 13.5509 0.3429) (xy 13.4874 0.5334) (xy 13.335 0.7493)
    (xy 13.2842 0.7747) (xy 13.0556 0.7747) (xy 13.0302 0.7747) (xy 12.9286 0.8763)
    (xy 13.4493 0.8763) (xy 13.5763 1.0033) (xy 13.5763 1.8542) (xy 13.4493 1.9812)
    (xy 11.9507 1.9812) (xy 11.8237 1.8542) (xy 11.8237 1.0033) (xy 11.9507 0.8763)
    (xy 12.4714 0.8763) (xy 12.3698 0.7747) (xy 12.3444 0.7747) (xy 12.1158 0.7747)
    (xy 12.065 0.7493) (xy 11.9126 0.5334) (xy 11.8237 0.1524)) (layer B.Mask) (width 0))
  (fp_poly (pts (xy 14.3637 -0.1524) (xy 14.3637 -0.152399) (xy 14.393126 -0.375915) (xy 14.4794 -0.584199)
    (xy 14.616643 -0.763056) (xy 14.7955 -0.900299) (xy 15.2273 -1.016) (xy 15.24 -1.016)
    (xy 15.2527 -1.016) (xy 15.252699 -1.016) (xy 15.476215 -0.986574) (xy 15.6845 -0.9003)
    (xy 15.863357 -0.763058) (xy 16.0006 -0.5842) (xy 16.086874 -0.375916) (xy 16.1163 -0.1524)
    (xy 16.1163 0.1524) (xy 16.0909 0.3429) (xy 16.0274 0.5334) (xy 15.875 0.7493)
    (xy 15.8242 0.7747) (xy 15.5956 0.7747) (xy 15.5702 0.7747) (xy 15.4686 0.8763)
    (xy 15.9893 0.8763) (xy 16.1163 1.0033) (xy 16.1163 1.8542) (xy 15.9893 1.9812)
    (xy 14.4907 1.9812) (xy 14.3637 1.8542) (xy 14.3637 1.0033) (xy 14.4907 0.8763)
    (xy 15.0114 0.8763) (xy 14.9098 0.7747) (xy 14.8844 0.7747) (xy 14.6558 0.7747)
    (xy 14.605 0.7493) (xy 14.4526 0.5334) (xy 14.3637 0.1524)) (layer B.Mask) (width 0))
  (fp_poly (pts (xy 14.3637 -0.1524) (xy 14.3637 -0.152399) (xy 14.393126 -0.375915) (xy 14.4794 -0.584199)
    (xy 14.616643 -0.763056) (xy 14.7955 -0.900299) (xy 15.2273 -1.016) (xy 15.24 -1.016)
    (xy 15.2527 -1.016) (xy 15.252699 -1.016) (xy 15.476215 -0.986574) (xy 15.6845 -0.9003)
    (xy 15.863357 -0.763058) (xy 16.0006 -0.5842) (xy 16.086874 -0.375916) (xy 16.1163 -0.1524)
    (xy 16.1163 0.1524) (xy 16.0909 0.3429) (xy 16.0274 0.5334) (xy 15.875 0.7493)
    (xy 15.8242 0.7747) (xy 15.5956 0.7747) (xy 15.5702 0.7747) (xy 15.4686 0.8763)
    (xy 15.9893 0.8763) (xy 16.1163 1.0033) (xy 16.1163 1.8542) (xy 15.9893 1.9812)
    (xy 14.4907 1.9812) (xy 14.3637 1.8542) (xy 14.3637 1.0033) (xy 14.4907 0.8763)
    (xy 15.0114 0.8763) (xy 14.9098 0.7747) (xy 14.8844 0.7747) (xy 14.6558 0.7747)
    (xy 14.605 0.7493) (xy 14.4526 0.5334) (xy 14.3637 0.1524)) (layer B.Mask) (width 0))
  (fp_poly (pts (xy 16.9037 -0.1524) (xy 16.9037 -0.152399) (xy 16.933126 -0.375915) (xy 17.0194 -0.584199)
    (xy 17.156643 -0.763056) (xy 17.3355 -0.900299) (xy 17.7673 -1.016) (xy 17.78 -1.016)
    (xy 17.7927 -1.016) (xy 17.792699 -1.016) (xy 18.016215 -0.986574) (xy 18.2245 -0.9003)
    (xy 18.403357 -0.763058) (xy 18.5406 -0.5842) (xy 18.626874 -0.375916) (xy 18.6563 -0.1524)
    (xy 18.6563 0.1524) (xy 18.6309 0.3429) (xy 18.5674 0.5334) (xy 18.415 0.7493)
    (xy 18.3642 0.7747) (xy 18.1356 0.7747) (xy 18.1102 0.7747) (xy 18.0086 0.8763)
    (xy 18.5293 0.8763) (xy 18.6563 1.0033) (xy 18.6563 1.8542) (xy 18.5293 1.9812)
    (xy 17.0307 1.9812) (xy 16.9037 1.8542) (xy 16.9037 1.0033) (xy 17.0307 0.8763)
    (xy 17.5514 0.8763) (xy 17.4498 0.7747) (xy 17.4244 0.7747) (xy 17.1958 0.7747)
    (xy 17.145 0.7493) (xy 16.9926 0.5334) (xy 16.9037 0.1524)) (layer B.Mask) (width 0))
  (fp_poly (pts (xy 16.9037 -0.1524) (xy 16.9037 -0.152399) (xy 16.933126 -0.375915) (xy 17.0194 -0.584199)
    (xy 17.156643 -0.763056) (xy 17.3355 -0.900299) (xy 17.7673 -1.016) (xy 17.78 -1.016)
    (xy 17.7927 -1.016) (xy 17.792699 -1.016) (xy 18.016215 -0.986574) (xy 18.2245 -0.9003)
    (xy 18.403357 -0.763058) (xy 18.5406 -0.5842) (xy 18.626874 -0.375916) (xy 18.6563 -0.1524)
    (xy 18.6563 0.1524) (xy 18.6309 0.3429) (xy 18.5674 0.5334) (xy 18.415 0.7493)
    (xy 18.3642 0.7747) (xy 18.1356 0.7747) (xy 18.1102 0.7747) (xy 18.0086 0.8763)
    (xy 18.5293 0.8763) (xy 18.6563 1.0033) (xy 18.6563 1.8542) (xy 18.5293 1.9812)
    (xy 17.0307 1.9812) (xy 16.9037 1.8542) (xy 16.9037 1.0033) (xy 17.0307 0.8763)
    (xy 17.5514 0.8763) (xy 17.4498 0.7747) (xy 17.4244 0.7747) (xy 17.1958 0.7747)
    (xy 17.145 0.7493) (xy 16.9926 0.5334) (xy 16.9037 0.1524)) (layer B.Mask) (width 0))
  (fp_poly (pts (xy 19.4437 -0.1524) (xy 19.4437 -0.152399) (xy 19.473126 -0.375915) (xy 19.5594 -0.584199)
    (xy 19.696643 -0.763056) (xy 19.8755 -0.900299) (xy 20.3073 -1.016) (xy 20.32 -1.016)
    (xy 20.3327 -1.016) (xy 20.332699 -1.016) (xy 20.556215 -0.986574) (xy 20.7645 -0.9003)
    (xy 20.943357 -0.763058) (xy 21.0806 -0.5842) (xy 21.166874 -0.375916) (xy 21.1963 -0.1524)
    (xy 21.1963 0.1524) (xy 21.1709 0.3429) (xy 21.1074 0.5334) (xy 20.955 0.7493)
    (xy 20.9042 0.7747) (xy 20.6756 0.7747) (xy 20.6502 0.7747) (xy 20.5486 0.8763)
    (xy 21.0693 0.8763) (xy 21.1963 1.0033) (xy 21.1963 1.8542) (xy 21.0693 1.9812)
    (xy 19.5707 1.9812) (xy 19.4437 1.8542) (xy 19.4437 1.0033) (xy 19.5707 0.8763)
    (xy 20.0914 0.8763) (xy 19.9898 0.7747) (xy 19.9644 0.7747) (xy 19.7358 0.7747)
    (xy 19.685 0.7493) (xy 19.5326 0.5334) (xy 19.4437 0.1524)) (layer B.Mask) (width 0))
  (fp_poly (pts (xy 19.4437 -0.1524) (xy 19.4437 -0.152399) (xy 19.473126 -0.375915) (xy 19.5594 -0.584199)
    (xy 19.696643 -0.763056) (xy 19.8755 -0.900299) (xy 20.3073 -1.016) (xy 20.32 -1.016)
    (xy 20.3327 -1.016) (xy 20.332699 -1.016) (xy 20.556215 -0.986574) (xy 20.7645 -0.9003)
    (xy 20.943357 -0.763058) (xy 21.0806 -0.5842) (xy 21.166874 -0.375916) (xy 21.1963 -0.1524)
    (xy 21.1963 0.1524) (xy 21.1709 0.3429) (xy 21.1074 0.5334) (xy 20.955 0.7493)
    (xy 20.9042 0.7747) (xy 20.6756 0.7747) (xy 20.6502 0.7747) (xy 20.5486 0.8763)
    (xy 21.0693 0.8763) (xy 21.1963 1.0033) (xy 21.1963 1.8542) (xy 21.0693 1.9812)
    (xy 19.5707 1.9812) (xy 19.4437 1.8542) (xy 19.4437 1.0033) (xy 19.5707 0.8763)
    (xy 20.0914 0.8763) (xy 19.9898 0.7747) (xy 19.9644 0.7747) (xy 19.7358 0.7747)
    (xy 19.685 0.7493) (xy 19.5326 0.5334) (xy 19.4437 0.1524)) (layer B.Mask) (width 0))
  (fp_poly (pts (xy 21.9837 -0.1524) (xy 21.9837 -0.152399) (xy 22.013126 -0.375915) (xy 22.0994 -0.584199)
    (xy 22.236643 -0.763056) (xy 22.4155 -0.900299) (xy 22.8473 -1.016) (xy 22.86 -1.016)
    (xy 22.8727 -1.016) (xy 22.872699 -1.016) (xy 23.096215 -0.986574) (xy 23.3045 -0.9003)
    (xy 23.483357 -0.763058) (xy 23.6206 -0.5842) (xy 23.706874 -0.375916) (xy 23.7363 -0.1524)
    (xy 23.7363 0.1524) (xy 23.7109 0.3429) (xy 23.6474 0.5334) (xy 23.495 0.7493)
    (xy 23.4442 0.7747) (xy 23.2156 0.7747) (xy 23.1902 0.7747) (xy 23.0886 0.8763)
    (xy 23.6093 0.8763) (xy 23.7363 1.0033) (xy 23.7363 1.8542) (xy 23.6093 1.9812)
    (xy 22.1107 1.9812) (xy 21.9837 1.8542) (xy 21.9837 1.0033) (xy 22.1107 0.8763)
    (xy 22.6314 0.8763) (xy 22.5298 0.7747) (xy 22.5044 0.7747) (xy 22.2758 0.7747)
    (xy 22.225 0.7493) (xy 22.0726 0.5334) (xy 21.9837 0.1524)) (layer B.Mask) (width 0))
  (fp_poly (pts (xy 21.9837 -0.1524) (xy 21.9837 -0.152399) (xy 22.013126 -0.375915) (xy 22.0994 -0.584199)
    (xy 22.236643 -0.763056) (xy 22.4155 -0.900299) (xy 22.8473 -1.016) (xy 22.86 -1.016)
    (xy 22.8727 -1.016) (xy 22.872699 -1.016) (xy 23.096215 -0.986574) (xy 23.3045 -0.9003)
    (xy 23.483357 -0.763058) (xy 23.6206 -0.5842) (xy 23.706874 -0.375916) (xy 23.7363 -0.1524)
    (xy 23.7363 0.1524) (xy 23.7109 0.3429) (xy 23.6474 0.5334) (xy 23.495 0.7493)
    (xy 23.4442 0.7747) (xy 23.2156 0.7747) (xy 23.1902 0.7747) (xy 23.0886 0.8763)
    (xy 23.6093 0.8763) (xy 23.7363 1.0033) (xy 23.7363 1.8542) (xy 23.6093 1.9812)
    (xy 22.1107 1.9812) (xy 21.9837 1.8542) (xy 21.9837 1.0033) (xy 22.1107 0.8763)
    (xy 22.6314 0.8763) (xy 22.5298 0.7747) (xy 22.5044 0.7747) (xy 22.2758 0.7747)
    (xy 22.225 0.7493) (xy 22.0726 0.5334) (xy 21.9837 0.1524)) (layer B.Mask) (width 0))
  (fp_poly (pts (xy 24.5237 -0.1524) (xy 24.5237 -0.152399) (xy 24.553126 -0.375915) (xy 24.6394 -0.584199)
    (xy 24.776643 -0.763056) (xy 24.9555 -0.900299) (xy 25.3873 -1.016) (xy 25.4 -1.016)
    (xy 25.4127 -1.016) (xy 25.412699 -1.016) (xy 25.636215 -0.986574) (xy 25.8445 -0.9003)
    (xy 26.023357 -0.763058) (xy 26.1606 -0.5842) (xy 26.246874 -0.375916) (xy 26.2763 -0.1524)
    (xy 26.2763 0.1524) (xy 26.2509 0.3429) (xy 26.1874 0.5334) (xy 26.035 0.7493)
    (xy 25.9842 0.7747) (xy 25.7556 0.7747) (xy 25.7302 0.7747) (xy 25.6286 0.8763)
    (xy 26.1493 0.8763) (xy 26.2763 1.0033) (xy 26.2763 1.8542) (xy 26.1493 1.9812)
    (xy 24.6507 1.9812) (xy 24.5237 1.8542) (xy 24.5237 1.0033) (xy 24.6507 0.8763)
    (xy 25.1714 0.8763) (xy 25.0698 0.7747) (xy 25.0444 0.7747) (xy 24.8158 0.7747)
    (xy 24.765 0.7493) (xy 24.6126 0.5334) (xy 24.5237 0.1524)) (layer B.Mask) (width 0))
  (fp_poly (pts (xy 24.5237 -0.1524) (xy 24.5237 -0.152399) (xy 24.553126 -0.375915) (xy 24.6394 -0.584199)
    (xy 24.776643 -0.763056) (xy 24.9555 -0.900299) (xy 25.3873 -1.016) (xy 25.4 -1.016)
    (xy 25.4127 -1.016) (xy 25.412699 -1.016) (xy 25.636215 -0.986574) (xy 25.8445 -0.9003)
    (xy 26.023357 -0.763058) (xy 26.1606 -0.5842) (xy 26.246874 -0.375916) (xy 26.2763 -0.1524)
    (xy 26.2763 0.1524) (xy 26.2509 0.3429) (xy 26.1874 0.5334) (xy 26.035 0.7493)
    (xy 25.9842 0.7747) (xy 25.7556 0.7747) (xy 25.7302 0.7747) (xy 25.6286 0.8763)
    (xy 26.1493 0.8763) (xy 26.2763 1.0033) (xy 26.2763 1.8542) (xy 26.1493 1.9812)
    (xy 24.6507 1.9812) (xy 24.5237 1.8542) (xy 24.5237 1.0033) (xy 24.6507 0.8763)
    (xy 25.1714 0.8763) (xy 25.0698 0.7747) (xy 25.0444 0.7747) (xy 24.8158 0.7747)
    (xy 24.765 0.7493) (xy 24.6126 0.5334) (xy 24.5237 0.1524)) (layer B.Mask) (width 0))
  (fp_poly (pts (xy 27.0637 -0.1524) (xy 27.0637 -0.152399) (xy 27.093126 -0.375915) (xy 27.1794 -0.584199)
    (xy 27.316643 -0.763056) (xy 27.4955 -0.900299) (xy 27.9273 -1.016) (xy 27.94 -1.016)
    (xy 27.9527 -1.016) (xy 27.952699 -1.016) (xy 28.176215 -0.986574) (xy 28.3845 -0.9003)
    (xy 28.563357 -0.763058) (xy 28.7006 -0.5842) (xy 28.786874 -0.375916) (xy 28.8163 -0.1524)
    (xy 28.8163 0.1524) (xy 28.7909 0.3429) (xy 28.7274 0.5334) (xy 28.575 0.7493)
    (xy 28.5242 0.7747) (xy 28.2956 0.7747) (xy 28.2702 0.7747) (xy 28.1686 0.8763)
    (xy 28.6893 0.8763) (xy 28.8163 1.0033) (xy 28.8163 1.8542) (xy 28.6893 1.9812)
    (xy 27.1907 1.9812) (xy 27.0637 1.8542) (xy 27.0637 1.0033) (xy 27.1907 0.8763)
    (xy 27.7114 0.8763) (xy 27.6098 0.7747) (xy 27.5844 0.7747) (xy 27.3558 0.7747)
    (xy 27.305 0.7493) (xy 27.1526 0.5334) (xy 27.0637 0.1524)) (layer B.Mask) (width 0))
  (fp_poly (pts (xy 27.0637 -0.1524) (xy 27.0637 -0.152399) (xy 27.093126 -0.375915) (xy 27.1794 -0.584199)
    (xy 27.316643 -0.763056) (xy 27.4955 -0.900299) (xy 27.9273 -1.016) (xy 27.94 -1.016)
    (xy 27.9527 -1.016) (xy 27.952699 -1.016) (xy 28.176215 -0.986574) (xy 28.3845 -0.9003)
    (xy 28.563357 -0.763058) (xy 28.7006 -0.5842) (xy 28.786874 -0.375916) (xy 28.8163 -0.1524)
    (xy 28.8163 0.1524) (xy 28.7909 0.3429) (xy 28.7274 0.5334) (xy 28.575 0.7493)
    (xy 28.5242 0.7747) (xy 28.2956 0.7747) (xy 28.2702 0.7747) (xy 28.1686 0.8763)
    (xy 28.6893 0.8763) (xy 28.8163 1.0033) (xy 28.8163 1.8542) (xy 28.6893 1.9812)
    (xy 27.1907 1.9812) (xy 27.0637 1.8542) (xy 27.0637 1.0033) (xy 27.1907 0.8763)
    (xy 27.7114 0.8763) (xy 27.6098 0.7747) (xy 27.5844 0.7747) (xy 27.3558 0.7747)
    (xy 27.305 0.7493) (xy 27.1526 0.5334) (xy 27.0637 0.1524)) (layer B.Mask) (width 0))
  (fp_poly (pts (xy 29.6037 -0.1524) (xy 29.6037 -0.152399) (xy 29.633126 -0.375915) (xy 29.7194 -0.584199)
    (xy 29.856643 -0.763056) (xy 30.0355 -0.900299) (xy 30.4673 -1.016) (xy 30.48 -1.016)
    (xy 30.4927 -1.016) (xy 30.492699 -1.016) (xy 30.716215 -0.986574) (xy 30.9245 -0.9003)
    (xy 31.103357 -0.763058) (xy 31.2406 -0.5842) (xy 31.326874 -0.375916) (xy 31.3563 -0.1524)
    (xy 31.3563 0.1524) (xy 31.3309 0.3429) (xy 31.2674 0.5334) (xy 31.115 0.7493)
    (xy 31.0642 0.7747) (xy 30.8356 0.7747) (xy 30.8102 0.7747) (xy 30.7086 0.8763)
    (xy 31.2293 0.8763) (xy 31.3563 1.0033) (xy 31.3563 1.8542) (xy 31.2293 1.9812)
    (xy 29.7307 1.9812) (xy 29.6037 1.8542) (xy 29.6037 1.0033) (xy 29.7307 0.8763)
    (xy 30.2514 0.8763) (xy 30.1498 0.7747) (xy 30.1244 0.7747) (xy 29.8958 0.7747)
    (xy 29.845 0.7493) (xy 29.6926 0.5334) (xy 29.6037 0.1524)) (layer B.Mask) (width 0))
  (fp_poly (pts (xy 29.6037 -0.1524) (xy 29.6037 -0.152399) (xy 29.633126 -0.375915) (xy 29.7194 -0.584199)
    (xy 29.856643 -0.763056) (xy 30.0355 -0.900299) (xy 30.4673 -1.016) (xy 30.48 -1.016)
    (xy 30.4927 -1.016) (xy 30.492699 -1.016) (xy 30.716215 -0.986574) (xy 30.9245 -0.9003)
    (xy 31.103357 -0.763058) (xy 31.2406 -0.5842) (xy 31.326874 -0.375916) (xy 31.3563 -0.1524)
    (xy 31.3563 0.1524) (xy 31.3309 0.3429) (xy 31.2674 0.5334) (xy 31.115 0.7493)
    (xy 31.0642 0.7747) (xy 30.8356 0.7747) (xy 30.8102 0.7747) (xy 30.7086 0.8763)
    (xy 31.2293 0.8763) (xy 31.3563 1.0033) (xy 31.3563 1.8542) (xy 31.2293 1.9812)
    (xy 29.7307 1.9812) (xy 29.6037 1.8542) (xy 29.6037 1.0033) (xy 29.7307 0.8763)
    (xy 30.2514 0.8763) (xy 30.1498 0.7747) (xy 30.1244 0.7747) (xy 29.8958 0.7747)
    (xy 29.845 0.7493) (xy 29.6926 0.5334) (xy 29.6037 0.1524)) (layer B.Mask) (width 0))
  (fp_poly (pts (xy 32.1437 -0.1524) (xy 32.1437 -0.152399) (xy 32.173126 -0.375915) (xy 32.2594 -0.584199)
    (xy 32.396643 -0.763056) (xy 32.5755 -0.900299) (xy 33.0073 -1.016) (xy 33.02 -1.016)
    (xy 33.0327 -1.016) (xy 33.032699 -1.016) (xy 33.256215 -0.986574) (xy 33.4645 -0.9003)
    (xy 33.643357 -0.763058) (xy 33.7806 -0.5842) (xy 33.866874 -0.375916) (xy 33.8963 -0.1524)
    (xy 33.8963 0.1524) (xy 33.8709 0.3429) (xy 33.8074 0.5334) (xy 33.655 0.7493)
    (xy 33.6042 0.7747) (xy 33.3756 0.7747) (xy 33.3502 0.7747) (xy 33.2486 0.8763)
    (xy 33.7693 0.8763) (xy 33.8963 1.0033) (xy 33.8963 1.8542) (xy 33.7693 1.9812)
    (xy 32.2707 1.9812) (xy 32.1437 1.8542) (xy 32.1437 1.0033) (xy 32.2707 0.8763)
    (xy 32.7914 0.8763) (xy 32.6898 0.7747) (xy 32.6644 0.7747) (xy 32.4358 0.7747)
    (xy 32.385 0.7493) (xy 32.2326 0.5334) (xy 32.1437 0.1524)) (layer B.Mask) (width 0))
  (fp_poly (pts (xy 32.1437 -0.1524) (xy 32.1437 -0.152399) (xy 32.173126 -0.375915) (xy 32.2594 -0.584199)
    (xy 32.396643 -0.763056) (xy 32.5755 -0.900299) (xy 33.0073 -1.016) (xy 33.02 -1.016)
    (xy 33.0327 -1.016) (xy 33.032699 -1.016) (xy 33.256215 -0.986574) (xy 33.4645 -0.9003)
    (xy 33.643357 -0.763058) (xy 33.7806 -0.5842) (xy 33.866874 -0.375916) (xy 33.8963 -0.1524)
    (xy 33.8963 0.1524) (xy 33.8709 0.3429) (xy 33.8074 0.5334) (xy 33.655 0.7493)
    (xy 33.6042 0.7747) (xy 33.3756 0.7747) (xy 33.3502 0.7747) (xy 33.2486 0.8763)
    (xy 33.7693 0.8763) (xy 33.8963 1.0033) (xy 33.8963 1.8542) (xy 33.7693 1.9812)
    (xy 32.2707 1.9812) (xy 32.1437 1.8542) (xy 32.1437 1.0033) (xy 32.2707 0.8763)
    (xy 32.7914 0.8763) (xy 32.6898 0.7747) (xy 32.6644 0.7747) (xy 32.4358 0.7747)
    (xy 32.385 0.7493) (xy 32.2326 0.5334) (xy 32.1437 0.1524)) (layer B.Mask) (width 0))
  (fp_poly (pts (xy 1.6637 0.1397) (xy 1.6637 -0.127) (xy 1.6637 -0.126999) (xy 1.692132 -0.355662)
    (xy 1.778778 -0.569175) (xy 1.917732 -0.752987) (xy 2.099526 -0.894571) (xy 2.54 -1.016)
    (xy 2.539999 -1.016) (xy 2.76823 -0.984281) (xy 2.980474 -0.894573) (xy 3.162268 -0.752988)
    (xy 3.301223 -0.569176) (xy 3.387869 -0.355663) (xy 3.4163 -0.127) (xy 3.4163 0.1397)
    (xy 3.4163 0.139699) (xy 3.386441 0.366502) (xy 3.298898 0.577849) (xy 3.159638 0.759337)
    (xy 2.97815 0.898597) (xy 2.766803 0.98614) (xy 2.54 1.016) (xy 2.540001 1.016)
    (xy 2.313198 0.986141) (xy 2.10185 0.898598) (xy 1.920362 0.759338) (xy 1.781102 0.57785)) (layer F.Mask) (width 0))
  (fp_poly (pts (xy 4.2037 0.1397) (xy 4.2037 -0.127) (xy 4.2037 -0.126999) (xy 4.232132 -0.355662)
    (xy 4.318778 -0.569175) (xy 4.457732 -0.752987) (xy 4.639526 -0.894571) (xy 5.08 -1.016)
    (xy 5.079999 -1.016) (xy 5.30823 -0.984281) (xy 5.520474 -0.894573) (xy 5.702268 -0.752988)
    (xy 5.841223 -0.569176) (xy 5.927869 -0.355663) (xy 5.9563 -0.127) (xy 5.9563 0.1397)
    (xy 5.9563 0.139699) (xy 5.926441 0.366502) (xy 5.838898 0.577849) (xy 5.699638 0.759337)
    (xy 5.51815 0.898597) (xy 5.306803 0.98614) (xy 5.08 1.016) (xy 5.080001 1.016)
    (xy 4.853198 0.986141) (xy 4.64185 0.898598) (xy 4.460362 0.759338) (xy 4.321102 0.57785)) (layer F.Mask) (width 0))
  (fp_poly (pts (xy 6.7437 0.1397) (xy 6.7437 -0.127) (xy 6.7437 -0.126999) (xy 6.772132 -0.355662)
    (xy 6.858778 -0.569175) (xy 6.997732 -0.752987) (xy 7.179526 -0.894571) (xy 7.62 -1.016)
    (xy 7.619999 -1.016) (xy 7.84823 -0.984281) (xy 8.060474 -0.894573) (xy 8.242268 -0.752988)
    (xy 8.381223 -0.569176) (xy 8.467869 -0.355663) (xy 8.4963 -0.127) (xy 8.4963 0.1397)
    (xy 8.4963 0.139699) (xy 8.466441 0.366502) (xy 8.378898 0.577849) (xy 8.239638 0.759337)
    (xy 8.05815 0.898597) (xy 7.846803 0.98614) (xy 7.62 1.016) (xy 7.620001 1.016)
    (xy 7.393198 0.986141) (xy 7.18185 0.898598) (xy 7.000362 0.759338) (xy 6.861102 0.57785)) (layer F.Mask) (width 0))
  (fp_poly (pts (xy 9.2837 0.1397) (xy 9.2837 -0.127) (xy 9.2837 -0.126999) (xy 9.312132 -0.355662)
    (xy 9.398778 -0.569175) (xy 9.537732 -0.752987) (xy 9.719526 -0.894571) (xy 10.16 -1.016)
    (xy 10.159999 -1.016) (xy 10.38823 -0.984281) (xy 10.600474 -0.894573) (xy 10.782268 -0.752988)
    (xy 10.921223 -0.569176) (xy 11.007869 -0.355663) (xy 11.0363 -0.127) (xy 11.0363 0.1397)
    (xy 11.0363 0.139699) (xy 11.006441 0.366502) (xy 10.918898 0.577849) (xy 10.779638 0.759337)
    (xy 10.59815 0.898597) (xy 10.386803 0.98614) (xy 10.16 1.016) (xy 10.160001 1.016)
    (xy 9.933198 0.986141) (xy 9.72185 0.898598) (xy 9.540362 0.759338) (xy 9.401102 0.57785)) (layer F.Mask) (width 0))
  (fp_poly (pts (xy 11.8237 0.1397) (xy 11.8237 -0.127) (xy 11.8237 -0.126999) (xy 11.852132 -0.355662)
    (xy 11.938778 -0.569175) (xy 12.077732 -0.752987) (xy 12.259526 -0.894571) (xy 12.7 -1.016)
    (xy 12.699999 -1.016) (xy 12.92823 -0.984281) (xy 13.140474 -0.894573) (xy 13.322268 -0.752988)
    (xy 13.461223 -0.569176) (xy 13.547869 -0.355663) (xy 13.5763 -0.127) (xy 13.5763 0.1397)
    (xy 13.5763 0.139699) (xy 13.546441 0.366502) (xy 13.458898 0.577849) (xy 13.319638 0.759337)
    (xy 13.13815 0.898597) (xy 12.926803 0.98614) (xy 12.7 1.016) (xy 12.700001 1.016)
    (xy 12.473198 0.986141) (xy 12.26185 0.898598) (xy 12.080362 0.759338) (xy 11.941102 0.57785)) (layer F.Mask) (width 0))
  (fp_poly (pts (xy 14.3637 0.1397) (xy 14.3637 -0.127) (xy 14.3637 -0.126999) (xy 14.392132 -0.355662)
    (xy 14.478778 -0.569175) (xy 14.617732 -0.752987) (xy 14.799526 -0.894571) (xy 15.24 -1.016)
    (xy 15.239999 -1.016) (xy 15.46823 -0.984281) (xy 15.680474 -0.894573) (xy 15.862268 -0.752988)
    (xy 16.001223 -0.569176) (xy 16.087869 -0.355663) (xy 16.1163 -0.127) (xy 16.1163 0.1397)
    (xy 16.1163 0.139699) (xy 16.086441 0.366502) (xy 15.998898 0.577849) (xy 15.859638 0.759337)
    (xy 15.67815 0.898597) (xy 15.466803 0.98614) (xy 15.24 1.016) (xy 15.240001 1.016)
    (xy 15.013198 0.986141) (xy 14.80185 0.898598) (xy 14.620362 0.759338) (xy 14.481102 0.57785)) (layer F.Mask) (width 0))
  (fp_poly (pts (xy 16.9037 0.1397) (xy 16.9037 -0.127) (xy 16.9037 -0.126999) (xy 16.932132 -0.355662)
    (xy 17.018778 -0.569175) (xy 17.157732 -0.752987) (xy 17.339526 -0.894571) (xy 17.78 -1.016)
    (xy 17.779999 -1.016) (xy 18.00823 -0.984281) (xy 18.220474 -0.894573) (xy 18.402268 -0.752988)
    (xy 18.541223 -0.569176) (xy 18.627869 -0.355663) (xy 18.6563 -0.127) (xy 18.6563 0.1397)
    (xy 18.6563 0.139699) (xy 18.626441 0.366502) (xy 18.538898 0.577849) (xy 18.399638 0.759337)
    (xy 18.21815 0.898597) (xy 18.006803 0.98614) (xy 17.78 1.016) (xy 17.780001 1.016)
    (xy 17.553198 0.986141) (xy 17.34185 0.898598) (xy 17.160362 0.759338) (xy 17.021102 0.57785)) (layer F.Mask) (width 0))
  (fp_poly (pts (xy 19.4437 0.1397) (xy 19.4437 -0.127) (xy 19.4437 -0.126999) (xy 19.472132 -0.355662)
    (xy 19.558778 -0.569175) (xy 19.697732 -0.752987) (xy 19.879526 -0.894571) (xy 20.32 -1.016)
    (xy 20.319999 -1.016) (xy 20.54823 -0.984281) (xy 20.760474 -0.894573) (xy 20.942268 -0.752988)
    (xy 21.081223 -0.569176) (xy 21.167869 -0.355663) (xy 21.1963 -0.127) (xy 21.1963 0.1397)
    (xy 21.1963 0.139699) (xy 21.166441 0.366502) (xy 21.078898 0.577849) (xy 20.939638 0.759337)
    (xy 20.75815 0.898597) (xy 20.546803 0.98614) (xy 20.32 1.016) (xy 20.320001 1.016)
    (xy 20.093198 0.986141) (xy 19.88185 0.898598) (xy 19.700362 0.759338) (xy 19.561102 0.57785)) (layer F.Mask) (width 0))
  (fp_poly (pts (xy 21.9837 0.1397) (xy 21.9837 -0.127) (xy 21.9837 -0.126999) (xy 22.012132 -0.355662)
    (xy 22.098778 -0.569175) (xy 22.237732 -0.752987) (xy 22.419526 -0.894571) (xy 22.86 -1.016)
    (xy 22.859999 -1.016) (xy 23.08823 -0.984281) (xy 23.300474 -0.894573) (xy 23.482268 -0.752988)
    (xy 23.621223 -0.569176) (xy 23.707869 -0.355663) (xy 23.7363 -0.127) (xy 23.7363 0.1397)
    (xy 23.7363 0.139699) (xy 23.706441 0.366502) (xy 23.618898 0.577849) (xy 23.479638 0.759337)
    (xy 23.29815 0.898597) (xy 23.086803 0.98614) (xy 22.86 1.016) (xy 22.860001 1.016)
    (xy 22.633198 0.986141) (xy 22.42185 0.898598) (xy 22.240362 0.759338) (xy 22.101102 0.57785)) (layer F.Mask) (width 0))
  (fp_poly (pts (xy 24.5237 0.1397) (xy 24.5237 -0.127) (xy 24.5237 -0.126999) (xy 24.552132 -0.355662)
    (xy 24.638778 -0.569175) (xy 24.777732 -0.752987) (xy 24.959526 -0.894571) (xy 25.4 -1.016)
    (xy 25.399999 -1.016) (xy 25.62823 -0.984281) (xy 25.840474 -0.894573) (xy 26.022268 -0.752988)
    (xy 26.161223 -0.569176) (xy 26.247869 -0.355663) (xy 26.2763 -0.127) (xy 26.2763 0.1397)
    (xy 26.2763 0.139699) (xy 26.246441 0.366502) (xy 26.158898 0.577849) (xy 26.019638 0.759337)
    (xy 25.83815 0.898597) (xy 25.626803 0.98614) (xy 25.4 1.016) (xy 25.400001 1.016)
    (xy 25.173198 0.986141) (xy 24.96185 0.898598) (xy 24.780362 0.759338) (xy 24.641102 0.57785)) (layer F.Mask) (width 0))
  (fp_poly (pts (xy 27.0637 0.1397) (xy 27.0637 -0.127) (xy 27.0637 -0.126999) (xy 27.092132 -0.355662)
    (xy 27.178778 -0.569175) (xy 27.317732 -0.752987) (xy 27.499526 -0.894571) (xy 27.94 -1.016)
    (xy 27.939999 -1.016) (xy 28.16823 -0.984281) (xy 28.380474 -0.894573) (xy 28.562268 -0.752988)
    (xy 28.701223 -0.569176) (xy 28.787869 -0.355663) (xy 28.8163 -0.127) (xy 28.8163 0.1397)
    (xy 28.8163 0.139699) (xy 28.786441 0.366502) (xy 28.698898 0.577849) (xy 28.559638 0.759337)
    (xy 28.37815 0.898597) (xy 28.166803 0.98614) (xy 27.94 1.016) (xy 27.940001 1.016)
    (xy 27.713198 0.986141) (xy 27.50185 0.898598) (xy 27.320362 0.759338) (xy 27.181102 0.57785)) (layer F.Mask) (width 0))
  (fp_poly (pts (xy 29.6037 0.1397) (xy 29.6037 -0.127) (xy 29.6037 -0.126999) (xy 29.632132 -0.355662)
    (xy 29.718778 -0.569175) (xy 29.857732 -0.752987) (xy 30.039526 -0.894571) (xy 30.48 -1.016)
    (xy 30.479999 -1.016) (xy 30.70823 -0.984281) (xy 30.920474 -0.894573) (xy 31.102268 -0.752988)
    (xy 31.241223 -0.569176) (xy 31.327869 -0.355663) (xy 31.3563 -0.127) (xy 31.3563 0.1397)
    (xy 31.3563 0.139699) (xy 31.326441 0.366502) (xy 31.238898 0.577849) (xy 31.099638 0.759337)
    (xy 30.91815 0.898597) (xy 30.706803 0.98614) (xy 30.48 1.016) (xy 30.480001 1.016)
    (xy 30.253198 0.986141) (xy 30.04185 0.898598) (xy 29.860362 0.759338) (xy 29.721102 0.57785)) (layer F.Mask) (width 0))
  (fp_poly (pts (xy 32.1437 0.1397) (xy 32.1437 -0.127) (xy 32.1437 -0.126999) (xy 32.172132 -0.355662)
    (xy 32.258778 -0.569175) (xy 32.397732 -0.752987) (xy 32.579526 -0.894571) (xy 33.02 -1.016)
    (xy 33.019999 -1.016) (xy 33.24823 -0.984281) (xy 33.460474 -0.894573) (xy 33.642268 -0.752988)
    (xy 33.781223 -0.569176) (xy 33.867869 -0.355663) (xy 33.8963 -0.127) (xy 33.8963 0.1397)
    (xy 33.8963 0.139699) (xy 33.866441 0.366502) (xy 33.778898 0.577849) (xy 33.639638 0.759337)
    (xy 33.45815 0.898597) (xy 33.246803 0.98614) (xy 33.02 1.016) (xy 33.020001 1.016)
    (xy 32.793198 0.986141) (xy 32.58185 0.898598) (xy 32.400362 0.759338) (xy 32.261102 0.57785)) (layer F.Mask) (width 0))
  (fp_poly (pts (xy 2.54 -0.889) (xy 2.540001 -0.889) (xy 2.346068 -0.863468) (xy 2.16535 -0.788613)
    (xy 2.010165 -0.669536) (xy 1.891087 -0.51435) (xy 1.7907 -0.1397) (xy 1.7907 0.1651)
    (xy 1.8161 0.3175) (xy 1.8669 0.4826) (xy 1.9812 0.6477) (xy 2.2225 0.6477)
    (xy 2.33045 0.676625) (xy 2.409475 0.75565) (xy 2.4384 0.8636) (xy 2.4384 0.9906)
    (xy 2.4257 1.0033) (xy 1.7907 1.0033) (xy 1.7907 1.8542) (xy 3.2893 1.8542)
    (xy 3.2893 1.0033) (xy 2.6416 1.0033) (xy 2.6416 0.8636) (xy 2.670525 0.75565)
    (xy 2.74955 0.676625) (xy 2.8575 0.6477) (xy 3.0988 0.6477) (xy 3.2131 0.4826)
    (xy 3.2639 0.3175) (xy 3.2893 0.1651) (xy 3.2893 0) (xy 3.2893 -0.1397)
    (xy 3.2893 -0.139699) (xy 3.263768 -0.333632) (xy 3.188913 -0.514349) (xy 3.069835 -0.669534)
    (xy 2.91465 -0.788612) (xy 2.733933 -0.863467)) (layer B.Cu) (width 0))
  (fp_poly (pts (xy 33.02 -0.889) (xy 33.020001 -0.889) (xy 32.826068 -0.863468) (xy 32.64535 -0.788613)
    (xy 32.490165 -0.669536) (xy 32.371087 -0.51435) (xy 32.2707 -0.1397) (xy 32.2707 0.1651)
    (xy 32.2961 0.3175) (xy 32.3469 0.4826) (xy 32.4612 0.6477) (xy 32.7025 0.6477)
    (xy 32.81045 0.676625) (xy 32.889475 0.75565) (xy 32.9184 0.8636) (xy 32.9184 0.9906)
    (xy 32.9057 1.0033) (xy 32.2707 1.0033) (xy 32.2707 1.8542) (xy 33.7693 1.8542)
    (xy 33.7693 1.0033) (xy 33.1216 1.0033) (xy 33.1216 0.8636) (xy 33.150525 0.75565)
    (xy 33.22955 0.676625) (xy 33.3375 0.6477) (xy 33.5788 0.6477) (xy 33.6931 0.4826)
    (xy 33.7439 0.3175) (xy 33.7693 0.1651) (xy 33.7693 0) (xy 33.7693 -0.1397)
    (xy 33.7693 -0.139699) (xy 33.743768 -0.333632) (xy 33.668913 -0.514349) (xy 33.549835 -0.669534)
    (xy 33.39465 -0.788612) (xy 33.213933 -0.863467)) (layer B.Cu) (width 0))
  (fp_poly (pts (xy 5.08 -0.889) (xy 5.080001 -0.889) (xy 4.886068 -0.863468) (xy 4.70535 -0.788613)
    (xy 4.550165 -0.669536) (xy 4.431087 -0.51435) (xy 4.3307 -0.1397) (xy 4.3307 0.1651)
    (xy 4.3561 0.3175) (xy 4.4069 0.4826) (xy 4.5212 0.6477) (xy 4.7625 0.6477)
    (xy 4.87045 0.676625) (xy 4.949475 0.75565) (xy 4.9784 0.8636) (xy 4.9784 0.9906)
    (xy 4.9657 1.0033) (xy 4.3307 1.0033) (xy 4.3307 1.8542) (xy 5.8293 1.8542)
    (xy 5.8293 1.0033) (xy 5.1816 1.0033) (xy 5.1816 0.8636) (xy 5.210525 0.75565)
    (xy 5.28955 0.676625) (xy 5.3975 0.6477) (xy 5.6388 0.6477) (xy 5.7531 0.4826)
    (xy 5.8039 0.3175) (xy 5.8293 0.1651) (xy 5.8293 0) (xy 5.8293 -0.1397)
    (xy 5.8293 -0.139699) (xy 5.803768 -0.333632) (xy 5.728913 -0.514349) (xy 5.609835 -0.669534)
    (xy 5.45465 -0.788612) (xy 5.273933 -0.863467)) (layer B.Cu) (width 0))
  (fp_poly (pts (xy 7.62 -0.889) (xy 7.620001 -0.889) (xy 7.426068 -0.863468) (xy 7.24535 -0.788613)
    (xy 7.090165 -0.669536) (xy 6.971087 -0.51435) (xy 6.8707 -0.1397) (xy 6.8707 0.1651)
    (xy 6.8961 0.3175) (xy 6.9469 0.4826) (xy 7.0612 0.6477) (xy 7.3025 0.6477)
    (xy 7.41045 0.676625) (xy 7.489475 0.75565) (xy 7.5184 0.8636) (xy 7.5184 0.9906)
    (xy 7.5057 1.0033) (xy 6.8707 1.0033) (xy 6.8707 1.8542) (xy 8.3693 1.8542)
    (xy 8.3693 1.0033) (xy 7.7216 1.0033) (xy 7.7216 0.8636) (xy 7.750525 0.75565)
    (xy 7.82955 0.676625) (xy 7.9375 0.6477) (xy 8.1788 0.6477) (xy 8.2931 0.4826)
    (xy 8.3439 0.3175) (xy 8.3693 0.1651) (xy 8.3693 0) (xy 8.3693 -0.1397)
    (xy 8.3693 -0.139699) (xy 8.343768 -0.333632) (xy 8.268913 -0.514349) (xy 8.149835 -0.669534)
    (xy 7.99465 -0.788612) (xy 7.813933 -0.863467)) (layer B.Cu) (width 0))
  (fp_poly (pts (xy 10.16 -0.889) (xy 10.160001 -0.889) (xy 9.966068 -0.863468) (xy 9.78535 -0.788613)
    (xy 9.630165 -0.669536) (xy 9.511087 -0.51435) (xy 9.4107 -0.1397) (xy 9.4107 0.1651)
    (xy 9.4361 0.3175) (xy 9.4869 0.4826) (xy 9.6012 0.6477) (xy 9.8425 0.6477)
    (xy 9.95045 0.676625) (xy 10.029475 0.75565) (xy 10.0584 0.8636) (xy 10.0584 0.9906)
    (xy 10.0457 1.0033) (xy 9.4107 1.0033) (xy 9.4107 1.8542) (xy 10.9093 1.8542)
    (xy 10.9093 1.0033) (xy 10.2616 1.0033) (xy 10.2616 0.8636) (xy 10.290525 0.75565)
    (xy 10.36955 0.676625) (xy 10.4775 0.6477) (xy 10.7188 0.6477) (xy 10.8331 0.4826)
    (xy 10.8839 0.3175) (xy 10.9093 0.1651) (xy 10.9093 0) (xy 10.9093 -0.1397)
    (xy 10.9093 -0.139699) (xy 10.883768 -0.333632) (xy 10.808913 -0.514349) (xy 10.689835 -0.669534)
    (xy 10.53465 -0.788612) (xy 10.353933 -0.863467)) (layer B.Cu) (width 0))
  (fp_poly (pts (xy 12.7 -0.889) (xy 12.700001 -0.889) (xy 12.506068 -0.863468) (xy 12.32535 -0.788613)
    (xy 12.170165 -0.669536) (xy 12.051087 -0.51435) (xy 11.9507 -0.1397) (xy 11.9507 0.1651)
    (xy 11.9761 0.3175) (xy 12.0269 0.4826) (xy 12.1412 0.6477) (xy 12.3825 0.6477)
    (xy 12.49045 0.676625) (xy 12.569475 0.75565) (xy 12.5984 0.8636) (xy 12.5984 0.9906)
    (xy 12.5857 1.0033) (xy 11.9507 1.0033) (xy 11.9507 1.8542) (xy 13.4493 1.8542)
    (xy 13.4493 1.0033) (xy 12.8016 1.0033) (xy 12.8016 0.8636) (xy 12.830525 0.75565)
    (xy 12.90955 0.676625) (xy 13.0175 0.6477) (xy 13.2588 0.6477) (xy 13.3731 0.4826)
    (xy 13.4239 0.3175) (xy 13.4493 0.1651) (xy 13.4493 0) (xy 13.4493 -0.1397)
    (xy 13.4493 -0.139699) (xy 13.423768 -0.333632) (xy 13.348913 -0.514349) (xy 13.229835 -0.669534)
    (xy 13.07465 -0.788612) (xy 12.893933 -0.863467)) (layer B.Cu) (width 0))
  (fp_poly (pts (xy 15.24 -0.889) (xy 15.240001 -0.889) (xy 15.046068 -0.863468) (xy 14.86535 -0.788613)
    (xy 14.710165 -0.669536) (xy 14.591087 -0.51435) (xy 14.4907 -0.1397) (xy 14.4907 0.1651)
    (xy 14.5161 0.3175) (xy 14.5669 0.4826) (xy 14.6812 0.6477) (xy 14.9225 0.6477)
    (xy 15.03045 0.676625) (xy 15.109475 0.75565) (xy 15.1384 0.8636) (xy 15.1384 0.9906)
    (xy 15.1257 1.0033) (xy 14.4907 1.0033) (xy 14.4907 1.8542) (xy 15.9893 1.8542)
    (xy 15.9893 1.0033) (xy 15.3416 1.0033) (xy 15.3416 0.8636) (xy 15.370525 0.75565)
    (xy 15.44955 0.676625) (xy 15.5575 0.6477) (xy 15.7988 0.6477) (xy 15.9131 0.4826)
    (xy 15.9639 0.3175) (xy 15.9893 0.1651) (xy 15.9893 0) (xy 15.9893 -0.1397)
    (xy 15.9893 -0.139699) (xy 15.963768 -0.333632) (xy 15.888913 -0.514349) (xy 15.769835 -0.669534)
    (xy 15.61465 -0.788612) (xy 15.433933 -0.863467)) (layer B.Cu) (width 0))
  (fp_poly (pts (xy 17.78 -0.889) (xy 17.780001 -0.889) (xy 17.586068 -0.863468) (xy 17.40535 -0.788613)
    (xy 17.250165 -0.669536) (xy 17.131087 -0.51435) (xy 17.0307 -0.1397) (xy 17.0307 0.1651)
    (xy 17.0561 0.3175) (xy 17.1069 0.4826) (xy 17.2212 0.6477) (xy 17.4625 0.6477)
    (xy 17.57045 0.676625) (xy 17.649475 0.75565) (xy 17.6784 0.8636) (xy 17.6784 0.9906)
    (xy 17.6657 1.0033) (xy 17.0307 1.0033) (xy 17.0307 1.8542) (xy 18.5293 1.8542)
    (xy 18.5293 1.0033) (xy 17.8816 1.0033) (xy 17.8816 0.8636) (xy 17.910525 0.75565)
    (xy 17.98955 0.676625) (xy 18.0975 0.6477) (xy 18.3388 0.6477) (xy 18.4531 0.4826)
    (xy 18.5039 0.3175) (xy 18.5293 0.1651) (xy 18.5293 0) (xy 18.5293 -0.1397)
    (xy 18.5293 -0.139699) (xy 18.503768 -0.333632) (xy 18.428913 -0.514349) (xy 18.309835 -0.669534)
    (xy 18.15465 -0.788612) (xy 17.973933 -0.863467)) (layer B.Cu) (width 0))
  (fp_poly (pts (xy 20.32 -0.889) (xy 20.320001 -0.889) (xy 20.126068 -0.863468) (xy 19.94535 -0.788613)
    (xy 19.790165 -0.669536) (xy 19.671087 -0.51435) (xy 19.5707 -0.1397) (xy 19.5707 0.1651)
    (xy 19.5961 0.3175) (xy 19.6469 0.4826) (xy 19.7612 0.6477) (xy 20.0025 0.6477)
    (xy 20.11045 0.676625) (xy 20.189475 0.75565) (xy 20.2184 0.8636) (xy 20.2184 0.9906)
    (xy 20.2057 1.0033) (xy 19.5707 1.0033) (xy 19.5707 1.8542) (xy 21.0693 1.8542)
    (xy 21.0693 1.0033) (xy 20.4216 1.0033) (xy 20.4216 0.8636) (xy 20.450525 0.75565)
    (xy 20.52955 0.676625) (xy 20.6375 0.6477) (xy 20.8788 0.6477) (xy 20.9931 0.4826)
    (xy 21.0439 0.3175) (xy 21.0693 0.1651) (xy 21.0693 0) (xy 21.0693 -0.1397)
    (xy 21.0693 -0.139699) (xy 21.043768 -0.333632) (xy 20.968913 -0.514349) (xy 20.849835 -0.669534)
    (xy 20.69465 -0.788612) (xy 20.513933 -0.863467)) (layer B.Cu) (width 0))
  (fp_poly (pts (xy 25.4 -0.889) (xy 25.400001 -0.889) (xy 25.206068 -0.863468) (xy 25.02535 -0.788613)
    (xy 24.870165 -0.669536) (xy 24.751087 -0.51435) (xy 24.6507 -0.1397) (xy 24.6507 0.1651)
    (xy 24.6761 0.3175) (xy 24.7269 0.4826) (xy 24.8412 0.6477) (xy 25.0825 0.6477)
    (xy 25.19045 0.676625) (xy 25.269475 0.75565) (xy 25.2984 0.8636) (xy 25.2984 0.9906)
    (xy 25.2857 1.0033) (xy 24.6507 1.0033) (xy 24.6507 1.8542) (xy 26.1493 1.8542)
    (xy 26.1493 1.0033) (xy 25.5016 1.0033) (xy 25.5016 0.8636) (xy 25.530525 0.75565)
    (xy 25.60955 0.676625) (xy 25.7175 0.6477) (xy 25.9588 0.6477) (xy 26.0731 0.4826)
    (xy 26.1239 0.3175) (xy 26.1493 0.1651) (xy 26.1493 0) (xy 26.1493 -0.1397)
    (xy 26.1493 -0.139699) (xy 26.123768 -0.333632) (xy 26.048913 -0.514349) (xy 25.929835 -0.669534)
    (xy 25.77465 -0.788612) (xy 25.593933 -0.863467)) (layer B.Cu) (width 0))
  (fp_poly (pts (xy 27.94 -0.889) (xy 27.940001 -0.889) (xy 27.746068 -0.863468) (xy 27.56535 -0.788613)
    (xy 27.410165 -0.669536) (xy 27.291087 -0.51435) (xy 27.1907 -0.1397) (xy 27.1907 0.1651)
    (xy 27.2161 0.3175) (xy 27.2669 0.4826) (xy 27.3812 0.6477) (xy 27.6225 0.6477)
    (xy 27.73045 0.676625) (xy 27.809475 0.75565) (xy 27.8384 0.8636) (xy 27.8384 0.9906)
    (xy 27.8257 1.0033) (xy 27.1907 1.0033) (xy 27.1907 1.8542) (xy 28.6893 1.8542)
    (xy 28.6893 1.0033) (xy 28.0416 1.0033) (xy 28.0416 0.8636) (xy 28.070525 0.75565)
    (xy 28.14955 0.676625) (xy 28.2575 0.6477) (xy 28.4988 0.6477) (xy 28.6131 0.4826)
    (xy 28.6639 0.3175) (xy 28.6893 0.1651) (xy 28.6893 0) (xy 28.6893 -0.1397)
    (xy 28.6893 -0.139699) (xy 28.663768 -0.333632) (xy 28.588913 -0.514349) (xy 28.469835 -0.669534)
    (xy 28.31465 -0.788612) (xy 28.133933 -0.863467)) (layer B.Cu) (width 0))
  (fp_poly (pts (xy 30.48 -0.889) (xy 30.480001 -0.889) (xy 30.286068 -0.863468) (xy 30.10535 -0.788613)
    (xy 29.950165 -0.669536) (xy 29.831087 -0.51435) (xy 29.7307 -0.1397) (xy 29.7307 0.1651)
    (xy 29.7561 0.3175) (xy 29.8069 0.4826) (xy 29.9212 0.6477) (xy 30.1625 0.6477)
    (xy 30.27045 0.676625) (xy 30.349475 0.75565) (xy 30.3784 0.8636) (xy 30.3784 0.9906)
    (xy 30.3657 1.0033) (xy 29.7307 1.0033) (xy 29.7307 1.8542) (xy 31.2293 1.8542)
    (xy 31.2293 1.0033) (xy 30.5816 1.0033) (xy 30.5816 0.8636) (xy 30.610525 0.75565)
    (xy 30.68955 0.676625) (xy 30.7975 0.6477) (xy 31.0388 0.6477) (xy 31.1531 0.4826)
    (xy 31.2039 0.3175) (xy 31.2293 0.1651) (xy 31.2293 0) (xy 31.2293 -0.1397)
    (xy 31.2293 -0.139699) (xy 31.203768 -0.333632) (xy 31.128913 -0.514349) (xy 31.009835 -0.669534)
    (xy 30.85465 -0.788612) (xy 30.673933 -0.863467)) (layer B.Cu) (width 0))
  (fp_poly (pts (xy 22.86 -0.889) (xy 22.860001 -0.889) (xy 22.666068 -0.863468) (xy 22.48535 -0.788613)
    (xy 22.330165 -0.669536) (xy 22.211087 -0.51435) (xy 22.1107 -0.1397) (xy 22.1107 0.1651)
    (xy 22.1361 0.3175) (xy 22.1869 0.4826) (xy 22.3012 0.6477) (xy 22.5425 0.6477)
    (xy 22.65045 0.676625) (xy 22.729475 0.75565) (xy 22.7584 0.8636) (xy 22.7584 0.9906)
    (xy 22.7457 1.0033) (xy 22.1107 1.0033) (xy 22.1107 1.8542) (xy 23.6093 1.8542)
    (xy 23.6093 1.0033) (xy 22.9616 1.0033) (xy 22.9616 0.8636) (xy 22.990525 0.75565)
    (xy 23.06955 0.676625) (xy 23.1775 0.6477) (xy 23.4188 0.6477) (xy 23.5331 0.4826)
    (xy 23.5839 0.3175) (xy 23.6093 0.1651) (xy 23.6093 0) (xy 23.6093 -0.1397)
    (xy 23.6093 -0.139699) (xy 23.583768 -0.333632) (xy 23.508913 -0.514349) (xy 23.389835 -0.669534)
    (xy 23.23465 -0.788612) (xy 23.053933 -0.863467)) (layer B.Cu) (width 0))
  (fp_poly (pts (xy -0.7493 -0.9017) (xy -0.7493 0.6477) (xy -0.3175 0.6477) (xy -0.20955 0.676625)
    (xy -0.130525 0.75565) (xy -0.1016 0.8636) (xy -0.1016 0.9906) (xy -0.1143 1.0033)
    (xy -0.7493 1.0033) (xy -0.7493 1.8542) (xy 0.7493 1.8542) (xy 0.7493 1.0033)
    (xy 0.1016 1.0033) (xy 0.1016 0.8636) (xy 0.130525 0.75565) (xy 0.20955 0.676625)
    (xy 0.3175 0.6477) (xy 0.7493 0.6477) (xy 0.7493 -0.9017)) (layer B.Cu) (width 0))
  (fp_poly (pts (xy 2.54 -0.889) (xy 2.540001 -0.889) (xy 2.346068 -0.863468) (xy 2.16535 -0.788613)
    (xy 2.010165 -0.669536) (xy 1.891087 -0.51435) (xy 1.7907 -0.1397) (xy 1.7907 0)
    (xy 1.7907 0.2032) (xy 1.7907 0.203199) (xy 1.816232 0.397132) (xy 1.891087 0.577849)
    (xy 2.010165 0.733034) (xy 2.16535 0.852112) (xy 2.54 0.9525) (xy 2.539999 0.9525)
    (xy 2.733932 0.926968) (xy 2.91465 0.852113) (xy 3.069835 0.733036) (xy 3.188913 0.57785)
    (xy 3.263769 0.397133) (xy 3.2893 0.2032) (xy 3.2893 0) (xy 3.2893 -0.1397)
    (xy 3.2893 -0.139699) (xy 3.263768 -0.333632) (xy 3.188913 -0.514349) (xy 3.069835 -0.669534)
    (xy 2.91465 -0.788612) (xy 2.733933 -0.863467)) (layer F.Cu) (width 0))
  (fp_poly (pts (xy 0 -0.889) (xy -0.7493 -0.889) (xy -0.7493 0.9017) (xy 0.7493 0.9017)
    (xy 0.7493 -0.889)) (layer F.Cu) (width 0))
  (fp_poly (pts (xy 5.08 -0.889) (xy 5.080001 -0.889) (xy 4.886068 -0.863468) (xy 4.70535 -0.788613)
    (xy 4.550165 -0.669536) (xy 4.431087 -0.51435) (xy 4.3307 -0.1397) (xy 4.3307 0)
    (xy 4.3307 0.2032) (xy 4.3307 0.203199) (xy 4.356232 0.397132) (xy 4.431087 0.577849)
    (xy 4.550165 0.733034) (xy 4.70535 0.852112) (xy 5.08 0.9525) (xy 5.079999 0.9525)
    (xy 5.273932 0.926968) (xy 5.45465 0.852113) (xy 5.609835 0.733036) (xy 5.728913 0.57785)
    (xy 5.803769 0.397133) (xy 5.8293 0.2032) (xy 5.8293 0) (xy 5.8293 -0.1397)
    (xy 5.8293 -0.139699) (xy 5.803768 -0.333632) (xy 5.728913 -0.514349) (xy 5.609835 -0.669534)
    (xy 5.45465 -0.788612) (xy 5.273933 -0.863467)) (layer F.Cu) (width 0))
  (fp_poly (pts (xy 7.62 -0.889) (xy 7.620001 -0.889) (xy 7.426068 -0.863468) (xy 7.24535 -0.788613)
    (xy 7.090165 -0.669536) (xy 6.971087 -0.51435) (xy 6.8707 -0.1397) (xy 6.8707 0)
    (xy 6.8707 0.2032) (xy 6.8707 0.203199) (xy 6.896232 0.397132) (xy 6.971087 0.577849)
    (xy 7.090165 0.733034) (xy 7.24535 0.852112) (xy 7.62 0.9525) (xy 7.619999 0.9525)
    (xy 7.813932 0.926968) (xy 7.99465 0.852113) (xy 8.149835 0.733036) (xy 8.268913 0.57785)
    (xy 8.343769 0.397133) (xy 8.3693 0.2032) (xy 8.3693 0) (xy 8.3693 -0.1397)
    (xy 8.3693 -0.139699) (xy 8.343768 -0.333632) (xy 8.268913 -0.514349) (xy 8.149835 -0.669534)
    (xy 7.99465 -0.788612) (xy 7.813933 -0.863467)) (layer F.Cu) (width 0))
  (fp_poly (pts (xy 10.16 -0.889) (xy 10.160001 -0.889) (xy 9.966068 -0.863468) (xy 9.78535 -0.788613)
    (xy 9.630165 -0.669536) (xy 9.511087 -0.51435) (xy 9.4107 -0.1397) (xy 9.4107 0)
    (xy 9.4107 0.2032) (xy 9.4107 0.203199) (xy 9.436232 0.397132) (xy 9.511087 0.577849)
    (xy 9.630165 0.733034) (xy 9.78535 0.852112) (xy 10.16 0.9525) (xy 10.159999 0.9525)
    (xy 10.353932 0.926968) (xy 10.53465 0.852113) (xy 10.689835 0.733036) (xy 10.808913 0.57785)
    (xy 10.883769 0.397133) (xy 10.9093 0.2032) (xy 10.9093 0) (xy 10.9093 -0.1397)
    (xy 10.9093 -0.139699) (xy 10.883768 -0.333632) (xy 10.808913 -0.514349) (xy 10.689835 -0.669534)
    (xy 10.53465 -0.788612) (xy 10.353933 -0.863467)) (layer F.Cu) (width 0))
  (fp_poly (pts (xy 12.7 -0.889) (xy 12.700001 -0.889) (xy 12.506068 -0.863468) (xy 12.32535 -0.788613)
    (xy 12.170165 -0.669536) (xy 12.051087 -0.51435) (xy 11.9507 -0.1397) (xy 11.9507 0)
    (xy 11.9507 0.2032) (xy 11.9507 0.203199) (xy 11.976232 0.397132) (xy 12.051087 0.577849)
    (xy 12.170165 0.733034) (xy 12.32535 0.852112) (xy 12.7 0.9525) (xy 12.699999 0.9525)
    (xy 12.893932 0.926968) (xy 13.07465 0.852113) (xy 13.229835 0.733036) (xy 13.348913 0.57785)
    (xy 13.423769 0.397133) (xy 13.4493 0.2032) (xy 13.4493 0) (xy 13.4493 -0.1397)
    (xy 13.4493 -0.139699) (xy 13.423768 -0.333632) (xy 13.348913 -0.514349) (xy 13.229835 -0.669534)
    (xy 13.07465 -0.788612) (xy 12.893933 -0.863467)) (layer F.Cu) (width 0))
  (fp_poly (pts (xy 15.24 -0.889) (xy 15.240001 -0.889) (xy 15.046068 -0.863468) (xy 14.86535 -0.788613)
    (xy 14.710165 -0.669536) (xy 14.591087 -0.51435) (xy 14.4907 -0.1397) (xy 14.4907 0)
    (xy 14.4907 0.2032) (xy 14.4907 0.203199) (xy 14.516232 0.397132) (xy 14.591087 0.577849)
    (xy 14.710165 0.733034) (xy 14.86535 0.852112) (xy 15.24 0.9525) (xy 15.239999 0.9525)
    (xy 15.433932 0.926968) (xy 15.61465 0.852113) (xy 15.769835 0.733036) (xy 15.888913 0.57785)
    (xy 15.963769 0.397133) (xy 15.9893 0.2032) (xy 15.9893 0) (xy 15.9893 -0.1397)
    (xy 15.9893 -0.139699) (xy 15.963768 -0.333632) (xy 15.888913 -0.514349) (xy 15.769835 -0.669534)
    (xy 15.61465 -0.788612) (xy 15.433933 -0.863467)) (layer F.Cu) (width 0))
  (fp_poly (pts (xy 17.78 -0.889) (xy 17.780001 -0.889) (xy 17.586068 -0.863468) (xy 17.40535 -0.788613)
    (xy 17.250165 -0.669536) (xy 17.131087 -0.51435) (xy 17.0307 -0.1397) (xy 17.0307 0)
    (xy 17.0307 0.2032) (xy 17.0307 0.203199) (xy 17.056232 0.397132) (xy 17.131087 0.577849)
    (xy 17.250165 0.733034) (xy 17.40535 0.852112) (xy 17.78 0.9525) (xy 17.779999 0.9525)
    (xy 17.973932 0.926968) (xy 18.15465 0.852113) (xy 18.309835 0.733036) (xy 18.428913 0.57785)
    (xy 18.503769 0.397133) (xy 18.5293 0.2032) (xy 18.5293 0) (xy 18.5293 -0.1397)
    (xy 18.5293 -0.139699) (xy 18.503768 -0.333632) (xy 18.428913 -0.514349) (xy 18.309835 -0.669534)
    (xy 18.15465 -0.788612) (xy 17.973933 -0.863467)) (layer F.Cu) (width 0))
  (fp_poly (pts (xy 20.32 -0.889) (xy 20.320001 -0.889) (xy 20.126068 -0.863468) (xy 19.94535 -0.788613)
    (xy 19.790165 -0.669536) (xy 19.671087 -0.51435) (xy 19.5707 -0.1397) (xy 19.5707 0)
    (xy 19.5707 0.2032) (xy 19.5707 0.203199) (xy 19.596232 0.397132) (xy 19.671087 0.577849)
    (xy 19.790165 0.733034) (xy 19.94535 0.852112) (xy 20.32 0.9525) (xy 20.319999 0.9525)
    (xy 20.513932 0.926968) (xy 20.69465 0.852113) (xy 20.849835 0.733036) (xy 20.968913 0.57785)
    (xy 21.043769 0.397133) (xy 21.0693 0.2032) (xy 21.0693 0) (xy 21.0693 -0.1397)
    (xy 21.0693 -0.139699) (xy 21.043768 -0.333632) (xy 20.968913 -0.514349) (xy 20.849835 -0.669534)
    (xy 20.69465 -0.788612) (xy 20.513933 -0.863467)) (layer F.Cu) (width 0))
  (fp_poly (pts (xy 22.86 -0.889) (xy 22.860001 -0.889) (xy 22.666068 -0.863468) (xy 22.48535 -0.788613)
    (xy 22.330165 -0.669536) (xy 22.211087 -0.51435) (xy 22.1107 -0.1397) (xy 22.1107 0)
    (xy 22.1107 0.2032) (xy 22.1107 0.203199) (xy 22.136232 0.397132) (xy 22.211087 0.577849)
    (xy 22.330165 0.733034) (xy 22.48535 0.852112) (xy 22.86 0.9525) (xy 22.859999 0.9525)
    (xy 23.053932 0.926968) (xy 23.23465 0.852113) (xy 23.389835 0.733036) (xy 23.508913 0.57785)
    (xy 23.583769 0.397133) (xy 23.6093 0.2032) (xy 23.6093 0) (xy 23.6093 -0.1397)
    (xy 23.6093 -0.139699) (xy 23.583768 -0.333632) (xy 23.508913 -0.514349) (xy 23.389835 -0.669534)
    (xy 23.23465 -0.788612) (xy 23.053933 -0.863467)) (layer F.Cu) (width 0))
  (fp_poly (pts (xy 25.4 -0.889) (xy 25.400001 -0.889) (xy 25.206068 -0.863468) (xy 25.02535 -0.788613)
    (xy 24.870165 -0.669536) (xy 24.751087 -0.51435) (xy 24.6507 -0.1397) (xy 24.6507 0)
    (xy 24.6507 0.2032) (xy 24.6507 0.203199) (xy 24.676232 0.397132) (xy 24.751087 0.577849)
    (xy 24.870165 0.733034) (xy 25.02535 0.852112) (xy 25.4 0.9525) (xy 25.399999 0.9525)
    (xy 25.593932 0.926968) (xy 25.77465 0.852113) (xy 25.929835 0.733036) (xy 26.048913 0.57785)
    (xy 26.123769 0.397133) (xy 26.1493 0.2032) (xy 26.1493 0) (xy 26.1493 -0.1397)
    (xy 26.1493 -0.139699) (xy 26.123768 -0.333632) (xy 26.048913 -0.514349) (xy 25.929835 -0.669534)
    (xy 25.77465 -0.788612) (xy 25.593933 -0.863467)) (layer F.Cu) (width 0))
  (fp_poly (pts (xy 27.94 -0.889) (xy 27.940001 -0.889) (xy 27.746068 -0.863468) (xy 27.56535 -0.788613)
    (xy 27.410165 -0.669536) (xy 27.291087 -0.51435) (xy 27.1907 -0.1397) (xy 27.1907 0)
    (xy 27.1907 0.2032) (xy 27.1907 0.203199) (xy 27.216232 0.397132) (xy 27.291087 0.577849)
    (xy 27.410165 0.733034) (xy 27.56535 0.852112) (xy 27.94 0.9525) (xy 27.939999 0.9525)
    (xy 28.133932 0.926968) (xy 28.31465 0.852113) (xy 28.469835 0.733036) (xy 28.588913 0.57785)
    (xy 28.663769 0.397133) (xy 28.6893 0.2032) (xy 28.6893 0) (xy 28.6893 -0.1397)
    (xy 28.6893 -0.139699) (xy 28.663768 -0.333632) (xy 28.588913 -0.514349) (xy 28.469835 -0.669534)
    (xy 28.31465 -0.788612) (xy 28.133933 -0.863467)) (layer F.Cu) (width 0))
  (fp_poly (pts (xy 30.48 -0.889) (xy 30.480001 -0.889) (xy 30.286068 -0.863468) (xy 30.10535 -0.788613)
    (xy 29.950165 -0.669536) (xy 29.831087 -0.51435) (xy 29.7307 -0.1397) (xy 29.7307 0)
    (xy 29.7307 0.2032) (xy 29.7307 0.203199) (xy 29.756232 0.397132) (xy 29.831087 0.577849)
    (xy 29.950165 0.733034) (xy 30.10535 0.852112) (xy 30.48 0.9525) (xy 30.479999 0.9525)
    (xy 30.673932 0.926968) (xy 30.85465 0.852113) (xy 31.009835 0.733036) (xy 31.128913 0.57785)
    (xy 31.203769 0.397133) (xy 31.2293 0.2032) (xy 31.2293 0) (xy 31.2293 -0.1397)
    (xy 31.2293 -0.139699) (xy 31.203768 -0.333632) (xy 31.128913 -0.514349) (xy 31.009835 -0.669534)
    (xy 30.85465 -0.788612) (xy 30.673933 -0.863467)) (layer F.Cu) (width 0))
  (fp_poly (pts (xy 33.02 -0.889) (xy 33.020001 -0.889) (xy 32.826068 -0.863468) (xy 32.64535 -0.788613)
    (xy 32.490165 -0.669536) (xy 32.371087 -0.51435) (xy 32.2707 -0.1397) (xy 32.2707 0)
    (xy 32.2707 0.2032) (xy 32.2707 0.203199) (xy 32.296232 0.397132) (xy 32.371087 0.577849)
    (xy 32.490165 0.733034) (xy 32.64535 0.852112) (xy 33.02 0.9525) (xy 33.019999 0.9525)
    (xy 33.213932 0.926968) (xy 33.39465 0.852113) (xy 33.549835 0.733036) (xy 33.668913 0.57785)
    (xy 33.743769 0.397133) (xy 33.7693 0.2032) (xy 33.7693 0) (xy 33.7693 -0.1397)
    (xy 33.7693 -0.139699) (xy 33.743768 -0.333632) (xy 33.668913 -0.514349) (xy 33.549835 -0.669534)
    (xy 33.39465 -0.788612) (xy 33.213933 -0.863467)) (layer F.Cu) (width 0))
  (pad 1 thru_hole rect (at 0 0) (size 1.508 1.508) (drill 1) (layers *.Cu *.Mask)
    (solder_mask_margin 0.0508))
  (pad 2 thru_hole circle (at 2.54 0) (size 1.508 1.508) (drill 1) (layers *.Cu *.Mask)
    (solder_mask_margin 0.0508))
  (pad 3 thru_hole circle (at 5.08 0) (size 1.508 1.508) (drill 1) (layers *.Cu *.Mask)
    (solder_mask_margin 0.0508))
  (pad 4 thru_hole circle (at 7.62 0) (size 1.508 1.508) (drill 1) (layers *.Cu *.Mask)
    (solder_mask_margin 0.0508))
  (pad 5 thru_hole circle (at 10.16 0) (size 1.508 1.508) (drill 1) (layers *.Cu *.Mask)
    (solder_mask_margin 0.0508))
  (pad 6 thru_hole circle (at 12.7 0) (size 1.508 1.508) (drill 1) (layers *.Cu *.Mask)
    (solder_mask_margin 0.0508))
  (pad 7 thru_hole circle (at 15.24 0) (size 1.508 1.508) (drill 1) (layers *.Cu *.Mask)
    (solder_mask_margin 0.0508))
  (pad 8 thru_hole circle (at 17.78 0) (size 1.508 1.508) (drill 1) (layers *.Cu *.Mask)
    (solder_mask_margin 0.0508))
  (pad 9 thru_hole circle (at 20.32 0) (size 1.508 1.508) (drill 1) (layers *.Cu *.Mask)
    (solder_mask_margin 0.0508))
  (pad 10 thru_hole circle (at 22.86 0) (size 1.508 1.508) (drill 1) (layers *.Cu *.Mask)
    (solder_mask_margin 0.0508))
  (pad 11 thru_hole circle (at 25.4 0) (size 1.508 1.508) (drill 1) (layers *.Cu *.Mask)
    (solder_mask_margin 0.0508))
  (pad 12 thru_hole circle (at 27.94 0) (size 1.508 1.508) (drill 1) (layers *.Cu *.Mask)
    (solder_mask_margin 0.0508))
  (pad 13 thru_hole circle (at 30.48 0) (size 1.508 1.508) (drill 1) (layers *.Cu *.Mask)
    (solder_mask_margin 0.0508))
  (pad 14 thru_hole circle (at 33.02 0) (size 1.508 1.508) (drill 1) (layers *.Cu *.Mask)
    (solder_mask_margin 0.0508))
)
