EESchema Schematic File Version 4
EELAYER 30 0
EELAYER END
$Descr A3 16535 11693
encoding utf-8
Sheet 1 1
Title ""
Date "2019-10-05"
Rev ""
Comp ""
Comment1 ""
Comment2 ""
Comment3 ""
Comment4 ""
$EndDescr
Wire Wire Line
	6350 3300 7450 3300
Wire Wire Line
	7450 3300 7550 3300
Wire Wire Line
	7350 3200 7450 3200
Wire Wire Line
	7450 3200 7450 3300
Connection ~ 7450 3300
Text Label 6350 3300 0    10   ~ 0
GND
Wire Wire Line
	6350 2400 7750 2400
Wire Wire Line
	7750 2400 7750 2700
Text Label 6350 2400 0    10   ~ 0
GND
Wire Wire Line
	8050 2700 8050 2600
Text Label 8050 2700 0    10   ~ 0
GND
Wire Wire Line
	8550 2600 8550 2700
Text Label 8550 2600 0    10   ~ 0
GND
Wire Wire Line
	1350 2800 1350 2900
Text Label 1350 2800 0    10   ~ 0
GND
Wire Wire Line
	2150 1100 2250 1100
Wire Wire Line
	2150 1400 2150 1100
Wire Wire Line
	1950 1400 2150 1400
Wire Wire Line
	2150 1700 2250 1700
Wire Wire Line
	2150 1700 2150 1400
Connection ~ 2150 1400
Text Label 2150 1100 0    10   ~ 0
GND
Wire Wire Line
	2850 2200 1950 2200
Text Label 2850 2200 0    10   ~ 0
GND
Wire Wire Line
	9850 1400 9950 1400
Wire Wire Line
	9950 1400 9950 1500
Wire Wire Line
	9950 1500 9850 1500
Wire Wire Line
	9850 1700 9950 1700
Wire Wire Line
	9950 1700 9950 1500
Connection ~ 9950 1700
Connection ~ 9950 1500
Text Label 9850 1400 0    10   ~ 0
GND
Wire Wire Line
	1350 4100 1350 4000
Wire Wire Line
	2850 3700 1550 3700
Wire Wire Line
	1550 3700 1550 4100
Wire Wire Line
	1550 4100 1550 4300
Wire Wire Line
	1350 4100 1550 4100
Connection ~ 1550 4100
Text Label 1350 4100 0    10   ~ 0
GND
Wire Wire Line
	750  2800 750  2900
Text Label 750  2800 0    10   ~ 0
GND
Wire Wire Line
	12250 2000 12650 2000
Connection ~ 12250 2000
Text Label 12250 2200 0    10   ~ 0
GND
Wire Wire Line
	14750 3300 14750 2900
Text Label 14750 3300 0    10   ~ 0
GND
Wire Wire Line
	1700 10650 1700 10450
Wire Wire Line
	1700 10450 1700 9850
Wire Wire Line
	1600 9850 1700 9850
Connection ~ 1700 10450
Text Label 1700 10650 0    10   ~ 0
GND
Wire Wire Line
	5750 9800 5750 9900
Text Label 5750 9800 0    10   ~ 0
GND
Wire Wire Line
	8650 7000 8150 7000
Wire Wire Line
	8150 7600 8150 7000
Text Label 8650 7000 0    10   ~ 0
GND
Wire Wire Line
	10250 7600 10250 7500
Text Label 10250 7600 0    10   ~ 0
GND
Wire Wire Line
	10350 10500 10050 10500
Text Label 10350 10500 0    10   ~ 0
GND
Wire Wire Line
	15250 3300 15250 3100
Text Label 15250 3300 0    10   ~ 0
GND
Wire Wire Line
	10050 6700 10850 6700
Wire Wire Line
	10850 6700 10850 7600
Text Label 10050 6700 0    10   ~ 0
GND
Wire Wire Line
	14350 9150 14450 9150
Wire Wire Line
	14450 9150 14450 9250
Wire Wire Line
	14450 9250 14450 9350
Wire Wire Line
	14450 9350 14450 9650
Wire Wire Line
	14350 9250 14450 9250
Wire Wire Line
	14350 9350 14450 9350
Connection ~ 14450 9250
Connection ~ 14450 9350
Text Label 14350 9150 0    10   ~ 0
GND
Wire Wire Line
	7350 9800 7350 9900
Text Label 7350 9800 0    10   ~ 0
GND
Wire Wire Line
	12250 1600 11750 1600
Wire Wire Line
	12250 1800 12650 1800
Text Label 11750 1600 2    50   ~ 0
RESET
Connection ~ 12250 1800
Wire Wire Line
	9450 1700 8950 1700
Text Label 8950 1700 2    50   ~ 0
RESET
Wire Wire Line
	6350 2600 6450 2600
Text Label 6450 2600 0    50   ~ 0
RESET
Wire Wire Line
	6350 4200 6450 4200
Text Label 6450 4200 0    50   ~ 0
ARDUINO_D13_SCK
Wire Wire Line
	15050 2700 15250 2700
Wire Wire Line
	15250 2700 15450 2700
Text Label 15450 2700 0    50   ~ 0
ARDUINO_D13_SCK
Connection ~ 15250 2700
Wire Wire Line
	15250 5200 15050 5200
Text Label 15050 5200 2    50   ~ 0
ARDUINO_D13_SCK
Wire Wire Line
	6350 3200 6950 3200
Wire Wire Line
	6950 3200 6950 3000
Wire Wire Line
	7050 3200 6950 3200
Connection ~ 6950 3200
Text Label 6350 3200 0    10   ~ 0
3.3V
Wire Wire Line
	6350 2200 8550 2200
Wire Wire Line
	8550 2200 8550 2300
Wire Wire Line
	8550 2200 8550 2100
Connection ~ 8550 2200
Text Label 6350 2200 0    10   ~ 0
3.3V
Wire Wire Line
	1350 1900 1350 1800
Text Label 1350 1900 0    10   ~ 0
3.3V
Wire Wire Line
	7950 3600 8050 3600
Wire Wire Line
	8050 3600 8050 3900
Wire Wire Line
	8050 3900 7950 3900
Wire Wire Line
	8050 3600 8050 3500
Connection ~ 8050 3600
Text Label 7950 3600 0    10   ~ 0
3.3V
Wire Wire Line
	9850 1300 9950 1300
Text Label 9850 1300 0    10   ~ 0
3.3V
Wire Wire Line
	1350 3700 1350 3600
Wire Wire Line
	1350 3600 1350 3500
Wire Wire Line
	2850 3600 1350 3600
Connection ~ 1350 3600
Text Label 1350 3700 0    10   ~ 0
3.3V
Wire Wire Line
	14750 1600 14750 1500
Text Label 14750 1600 0    10   ~ 0
3.3V
Wire Wire Line
	6950 9500 7350 9500
Wire Wire Line
	7350 9500 7750 9500
Wire Wire Line
	7750 9500 7750 9300
Connection ~ 7350 9500
Text Label 6950 9500 0    10   ~ 0
3.3V
Wire Wire Line
	10050 6800 10250 6800
Wire Wire Line
	10250 6800 10550 6800
Wire Wire Line
	10550 6800 10550 6400
Wire Wire Line
	10050 6900 10250 6900
Wire Wire Line
	10250 7200 10250 6900
Wire Wire Line
	10250 6900 10250 6800
Connection ~ 10250 6900
Connection ~ 10250 6800
Text Label 10050 6800 0    10   ~ 0
3.3V
Wire Wire Line
	13450 8850 13450 9150
Wire Wire Line
	13450 9150 13450 9250
Wire Wire Line
	13450 9250 13450 9350
Wire Wire Line
	13450 9350 13350 9350
Wire Wire Line
	13350 9250 13450 9250
Wire Wire Line
	13350 9150 13450 9150
Connection ~ 13450 9250
Connection ~ 13450 9150
Text Label 13450 8850 0    10   ~ 0
3.3V
Wire Wire Line
	7550 4700 7550 4600
Wire Wire Line
	7550 4600 7550 4500
Wire Wire Line
	7850 4900 7850 4600
Wire Wire Line
	7850 4600 7550 4600
Connection ~ 7550 4600
Text Label 7550 4700 0    10   ~ 0
3.3V
Wire Wire Line
	8850 4600 8850 4500
Wire Wire Line
	8850 4500 8850 4400
Wire Wire Line
	9150 4800 9150 4500
Wire Wire Line
	9150 4500 8850 4500
Connection ~ 8850 4500
Text Label 8850 4600 0    10   ~ 0
3.3V
Wire Wire Line
	10150 4500 10150 4400
Wire Wire Line
	10150 4400 10150 4300
Wire Wire Line
	10450 4700 10450 4400
Wire Wire Line
	10450 4400 10150 4400
Connection ~ 10150 4400
Text Label 10150 4500 0    10   ~ 0
3.3V
Wire Wire Line
	11450 4400 11450 4300
Wire Wire Line
	11450 4300 11450 4200
Wire Wire Line
	11750 4600 11750 4300
Wire Wire Line
	11750 4300 11450 4300
Connection ~ 11450 4300
Text Label 11450 4400 0    10   ~ 0
3.3V
Wire Wire Line
	2850 2000 2750 2000
Text Label 2750 2000 2    50   ~ 0
ARDUINO_A0
Wire Wire Line
	12750 5700 12650 5700
Text Label 12650 5700 2    50   ~ 0
ARDUINO_A0
Wire Wire Line
	2850 2100 2750 2100
Text Label 2750 2100 2    50   ~ 0
ARDUINO_AREF
Wire Wire Line
	750  2400 750  2500
Text Label 750  2400 1    50   ~ 0
ARDUINO_AREF
Wire Wire Line
	12650 5800 12750 5800
Text Label 12650 5800 2    50   ~ 0
ARDUINO_AREF
Wire Wire Line
	2850 2400 2750 2400
Text Label 2750 2400 2    50   ~ 0
ARDUINO_A1
Wire Wire Line
	12750 5600 12650 5600
Text Label 12650 5600 2    50   ~ 0
ARDUINO_A1
Wire Wire Line
	2850 2500 2750 2500
Text Label 2750 2500 2    50   ~ 0
ARDUINO_A2----HEADER_SS
Wire Wire Line
	8650 6600 8350 6600
Text Label 8350 6600 2    50   ~ 0
ARDUINO_A2----HEADER_SS
Wire Wire Line
	2850 2600 2750 2600
Text Label 2750 2600 2    50   ~ 0
ARDUINO_A3
Wire Wire Line
	12750 5500 12650 5500
Text Label 12650 5500 2    50   ~ 0
ARDUINO_A3
Wire Wire Line
	2850 2700 2750 2700
Text Label 2750 2700 2    50   ~ 0
ARDUINO_A4
Wire Wire Line
	12750 5400 12650 5400
Text Label 12650 5400 2    50   ~ 0
ARDUINO_A4
Wire Wire Line
	2850 3200 2750 3200
Text Label 2750 3200 2    50   ~ 0
ARDUINO_D4----VREF2
Wire Wire Line
	1600 6700 1800 6700
Text Label 1600 6700 2    50   ~ 0
ARDUINO_D4----VREF2
Wire Wire Line
	2850 3300 2750 3300
Text Label 2750 3300 2    50   ~ 0
ARDUINO_D3
Wire Wire Line
	11450 4900 11350 4900
Wire Wire Line
	11450 4800 11450 4900
Wire Wire Line
	11550 4900 11450 4900
Text Label 11350 4900 2    50   ~ 0
ARDUINO_D3
Connection ~ 11450 4900
Wire Wire Line
	2850 3400 2750 3400
Text Label 2750 3400 2    50   ~ 0
ARDUINO_D1
Wire Wire Line
	8950 5100 8850 5100
Wire Wire Line
	8850 5000 8850 5100
Wire Wire Line
	8750 5100 8850 5100
Text Label 8750 5100 2    50   ~ 0
ARDUINO_D1
Connection ~ 8850 5100
Wire Wire Line
	2850 3500 2750 3500
Text Label 2750 3500 2    50   ~ 0
ARDUINO_D0
Wire Wire Line
	7650 5200 7550 5200
Wire Wire Line
	7550 5100 7550 5200
Wire Wire Line
	7350 5200 7550 5200
Text Label 7350 5200 2    50   ~ 0
ARDUINO_D0
Connection ~ 7550 5200
Wire Wire Line
	2850 4300 2750 4300
Text Label 2750 4300 2    50   ~ 0
ARDUINO_D5----IN3
Wire Wire Line
	1600 6800 3000 6800
Text Label 1600 6800 2    50   ~ 0
ARDUINO_D5----IN3
Wire Wire Line
	6350 3900 6450 3900
Text Label 6450 3900 0    50   ~ 0
ARDUINO_D6----IN4
Wire Wire Line
	3000 6900 1600 6900
Text Label 1600 6900 2    50   ~ 0
ARDUINO_D6----IN4
Wire Wire Line
	6350 1900 6450 1900
Text Label 6450 1900 0    50   ~ 0
ARDUINO_A5
Wire Wire Line
	12750 5300 12650 5300
Text Label 12650 5300 2    50   ~ 0
ARDUINO_A5
Wire Wire Line
	6350 4300 6450 4300
Text Label 6450 4300 0    50   ~ 0
ARDUINO_D11_MOSI
Wire Wire Line
	15250 5000 15050 5000
Text Label 15050 5000 2    50   ~ 0
ARDUINO_D11_MOSI
Wire Wire Line
	6350 4000 6450 4000
Text Label 6450 4000 0    50   ~ 0
ARDUINO_D12_MISO
Wire Wire Line
	15250 5100 15050 5100
Text Label 15050 5100 2    50   ~ 0
ARDUINO_D12_MISO
Wire Wire Line
	6350 3700 7450 3700
Wire Wire Line
	7450 3700 7450 3900
Wire Wire Line
	7450 3900 7550 3900
Text Label 6550 3700 0    50   ~ 0
ARDUINO_D20_SDA
Wire Wire Line
	15250 5300 15050 5300
Text Label 15050 5300 2    50   ~ 0
ARDUINO_D20_SDA
Wire Wire Line
	6350 3600 7550 3600
Text Label 6550 3600 0    50   ~ 0
ARDUINO_D21_SCL
Wire Wire Line
	15250 5400 15050 5400
Text Label 15050 5400 2    50   ~ 0
ARDUINO_D21_SCL
Wire Wire Line
	6350 3800 6450 3800
Text Label 6450 3800 0    50   ~ 0
ARDUINO_D7----IN2
Wire Wire Line
	1600 7000 3000 7000
Text Label 1600 7000 2    50   ~ 0
ARDUINO_D7----IN2
Wire Wire Line
	2850 2900 2750 2900
Text Label 2750 2900 2    50   ~ 0
ARDUINO_D9----VREF1
Wire Wire Line
	1600 7200 1800 7200
Text Label 1600 7200 2    50   ~ 0
ARDUINO_D9----VREF1
Wire Wire Line
	6350 2700 6450 2700
Text Label 6450 2700 0    50   ~ 0
PA27_TX_LED
Wire Wire Line
	6350 1800 6450 1800
Text Label 6450 1800 0    50   ~ 0
PB03_RX_LED
Wire Wire Line
	2850 1800 2850 1100
Wire Wire Line
	2650 1300 2650 1100
Wire Wire Line
	2650 1100 2550 1100
Wire Wire Line
	2850 1100 2650 1100
Connection ~ 2650 1100
Wire Wire Line
	2850 1900 2650 1900
Wire Wire Line
	2650 1900 2650 1700
Wire Wire Line
	2650 1700 2650 1500
Wire Wire Line
	2550 1700 2650 1700
Connection ~ 2650 1700
Wire Wire Line
	2850 4100 2750 4100
Text Label 2750 4100 2    50   ~ 0
DGI_GPIO0
Wire Wire Line
	2850 4200 2750 4200
Text Label 2750 4200 2    50   ~ 0
ARDUINO_D2
Wire Wire Line
	10050 5000 10150 5000
Wire Wire Line
	10150 4900 10150 5000
Wire Wire Line
	10150 5000 10250 5000
Text Label 10050 5000 2    50   ~ 0
ARDUINO_D2
Connection ~ 10150 5000
Wire Wire Line
	6350 3500 6450 3500
Text Label 6450 3500 0    50   ~ 0
TARGET_USB_N
Wire Wire Line
	2200 9550 1600 9550
Text Label 2200 9550 0    50   ~ 0
TARGET_USB_N
Wire Wire Line
	6350 3400 6450 3400
Text Label 6450 3400 0    50   ~ 0
TARGET_USB_P
Wire Wire Line
	2200 9650 1600 9650
Text Label 2200 9650 0    50   ~ 0
TARGET_USB_P
Wire Wire Line
	6350 2900 6450 2900
Text Label 6450 2900 0    50   ~ 0
TXD
Wire Wire Line
	6350 2800 6450 2800
Text Label 6450 2800 0    50   ~ 0
RXD
Wire Wire Line
	6350 2500 6450 2500
Text Label 6450 2500 0    50   ~ 0
PA28_USB_HOST_EN
Wire Wire Line
	6350 2300 8050 2300
Wire Wire Line
	6350 2100 7450 2100
Wire Wire Line
	7450 2100 7450 1400
Wire Wire Line
	7450 1400 9450 1400
Text Label 6550 2100 0    50   ~ 0
PA30_SWCLK
Wire Wire Line
	6350 2000 7350 2000
Wire Wire Line
	7350 1300 7350 2000
Wire Wire Line
	7350 1300 9450 1300
Text Label 6550 2000 0    50   ~ 0
PA31_SWDIO
Wire Wire Line
	2850 2300 2050 2300
Wire Wire Line
	2050 2300 2050 2500
Wire Wire Line
	2050 2500 1350 2500
Connection ~ 1350 2500
Wire Wire Line
	6350 4100 6450 4100
Text Label 6450 4100 0    50   ~ 0
ARDUINO_D10_SS
Wire Wire Line
	15250 4900 15050 4900
Text Label 15050 4900 2    50   ~ 0
ARDUINO_D10_SS
Wire Wire Line
	2850 2800 2750 2800
Text Label 2750 2800 2    50   ~ 0
ARDUINO_D8----IN1
Wire Wire Line
	1600 7100 3000 7100
Text Label 1600 7100 2    50   ~ 0
ARDUINO_D8----IN1
Wire Wire Line
	2850 3800 2750 3800
Text Label 2750 3800 2    50   ~ 0
HEADER_MOSI
Wire Wire Line
	8350 6900 8650 6900
Text Label 8350 6900 2    50   ~ 0
HEADER_MOSI
Wire Wire Line
	2850 3900 2750 3900
Text Label 2750 3900 2    50   ~ 0
HEADER_SCK
Wire Wire Line
	8650 6700 8350 6700
Text Label 8350 6700 2    50   ~ 0
HEADER_SCK
Wire Wire Line
	2850 4000 2750 4000
Text Label 2750 4000 2    50   ~ 0
HEADER_MISO
Wire Wire Line
	8650 6800 8350 6800
Text Label 8350 6800 2    50   ~ 0
HEADER_MISO
Wire Wire Line
	14750 2000 14750 1900
Wire Wire Line
	14750 2400 14750 2500
Wire Wire Line
	4500 9450 4500 9250
Wire Wire Line
	4300 9450 4500 9450
Text Label 4500 9450 0    10   ~ 0
VIN
Wire Wire Line
	5350 9300 5350 9500
Wire Wire Line
	6350 9500 6150 9500
Wire Wire Line
	6150 9500 5750 9500
Wire Wire Line
	5350 9500 5750 9500
Wire Wire Line
	6350 9600 6150 9600
Wire Wire Line
	6150 9600 6150 9500
Connection ~ 5750 9500
Connection ~ 6150 9500
Text Label 5350 9300 0    10   ~ 0
VIN
Wire Wire Line
	12450 8850 12450 9150
Wire Wire Line
	12450 9150 12450 9250
Wire Wire Line
	12450 9250 12450 9350
Wire Wire Line
	12450 9350 12350 9350
Wire Wire Line
	12350 9250 12450 9250
Wire Wire Line
	12350 9150 12450 9150
Connection ~ 12450 9150
Connection ~ 12450 9250
Text Label 12450 8850 0    10   ~ 0
VIN
Wire Wire Line
	8150 4700 8150 4500
Text Label 8150 4700 0    10   ~ 0
VIN
Wire Wire Line
	9450 4600 9450 4400
Text Label 9450 4600 0    10   ~ 0
VIN
Wire Wire Line
	10750 4500 10750 4300
Text Label 10750 4500 0    10   ~ 0
VIN
Wire Wire Line
	12050 4400 12050 4200
Text Label 12050 4400 0    10   ~ 0
VIN
Wire Wire Line
	1600 9950 1600 10150
Wire Wire Line
	1600 10150 1100 10150
Wire Wire Line
	1100 10150 1100 10450
Wire Wire Line
	5300 6800 5100 6800
Wire Wire Line
	5300 7100 5100 7100
Wire Wire Line
	5100 6700 6500 6700
Wire Wire Line
	6500 6700 6500 6800
Wire Wire Line
	6500 6900 5100 6900
Wire Wire Line
	5100 7200 6500 7200
Wire Wire Line
	6500 7200 6500 7100
Wire Wire Line
	6500 7000 5100 7000
Wire Wire Line
	2200 7200 2200 7300
Wire Wire Line
	2200 7200 3000 7200
Connection ~ 2200 7200
Wire Wire Line
	2200 6700 2500 6700
Wire Wire Line
	2500 6700 3000 6700
Wire Wire Line
	2500 7300 2500 6700
Connection ~ 2500 6700
Wire Wire Line
	2200 7600 2200 7900
Text Label 2200 7600 0    10   ~ 0
GND2
Wire Wire Line
	2500 7600 2500 7900
Text Label 2500 7600 0    10   ~ 0
GND2
Wire Wire Line
	9450 10000 9450 9800
Wire Wire Line
	9450 9800 9150 9800
Text Label 9450 10000 0    10   ~ 0
GND2
Wire Wire Line
	5700 7100 5700 6800
Wire Wire Line
	3000 6600 2800 6600
Wire Wire Line
	2800 7300 3000 7300
Wire Wire Line
	5300 7600 5700 7600
Wire Wire Line
	5300 7600 4000 7600
Wire Wire Line
	4000 7600 2800 7600
Wire Wire Line
	2800 7600 2800 7300
Wire Wire Line
	2800 6600 2800 7300
Wire Wire Line
	5700 7100 6200 7100
Wire Wire Line
	6200 7100 6200 7600
Wire Wire Line
	6200 7600 6000 7600
Wire Wire Line
	6000 7600 5700 7600
Connection ~ 5300 7600
Connection ~ 2800 7300
Connection ~ 4000 7600
Connection ~ 5700 7600
Connection ~ 5700 7100
Connection ~ 6000 7600
Text Label 5700 7100 0    10   ~ 0
GND2
Wire Wire Line
	10550 10500 10850 10500
Text Label 10550 10500 0    10   ~ 0
GND2
Wire Wire Line
	3500 9450 3900 9450
Wire Wire Line
	1600 9450 3000 9450
Wire Wire Line
	9450 9500 9450 9700
Wire Wire Line
	9450 9700 9150 9700
Text Label 9450 9500 0    10   ~ 0
V+
Wire Wire Line
	5100 6600 5200 6600
Wire Wire Line
	5200 6600 5200 7300
Wire Wire Line
	5200 7300 5100 7300
Wire Wire Line
	5700 7300 5300 7300
Wire Wire Line
	5200 7300 5300 7300
Wire Wire Line
	5200 6600 5200 6300
Wire Wire Line
	5700 7300 6000 7300
Connection ~ 5200 7300
Connection ~ 5300 7300
Connection ~ 5200 6600
Connection ~ 5700 7300
Text Label 5100 6600 0    10   ~ 0
V+
Wire Wire Line
	15350 9350 15450 9350
Wire Wire Line
	15450 9350 15450 9250
Wire Wire Line
	15450 9250 15450 9150
Wire Wire Line
	15450 9150 15450 8850
Wire Wire Line
	15350 9250 15450 9250
Wire Wire Line
	15350 9150 15450 9150
Connection ~ 15450 9150
Connection ~ 15450 9250
Text Label 15350 9350 0    10   ~ 0
V+
Wire Wire Line
	9350 5100 9450 5100
Wire Wire Line
	9450 5000 9450 5100
Wire Wire Line
	9450 5100 12750 5100
Connection ~ 9450 5100
Wire Wire Line
	8050 5200 8150 5200
Wire Wire Line
	8150 5100 8150 5200
Wire Wire Line
	8150 5200 12750 5200
Connection ~ 8150 5200
Wire Wire Line
	10650 5000 10750 5000
Wire Wire Line
	10750 4900 10750 5000
Wire Wire Line
	10750 5000 12750 5000
Connection ~ 10750 5000
Wire Wire Line
	11950 4900 12050 4900
Wire Wire Line
	12050 4800 12050 4900
Wire Wire Line
	12050 4900 12750 4900
Connection ~ 12050 4900
Wire Wire Line
	10050 6600 10150 6600
Wire Wire Line
	8650 7100 8550 7100
Text Label 8550 7100 0    70   ~ 0
A
Wire Wire Line
	8650 7200 8550 7200
Text Label 8550 7200 0    70   ~ 0
B
$Comp
L Mechaduino02-eagle-import:0044_KPT-2012YC LED1
U 1 1 9FFA54AB
P 14750 1700
F 0 "LED1" V 14890 1520 59  0000 L BNN
F 1 "Green" V 14975 1520 59  0000 L BNN
F 2 "Mechaduino02:CHIPLED_0805" H 14750 1700 50  0001 C CNN
F 3 "" H 14750 1700 50  0001 C CNN
	1    14750 1700
	1    0    0    -1  
$EndComp
$Comp
L Mechaduino02-eagle-import:INTEGRATEDCIRCUITS_1792_SAMD21G18A-AUT IC1
U 1 1 8CE92758
P 4550 3100
F 0 "IC1" H 4350 3100 85  0000 L BNN
F 1 "SAMD21G18A-AUT" H 3350 4700 85  0000 L BNN
F 2 "Mechaduino02:INTEGRATEDCIRCUITS_TQFP48-7X7" H 4550 3100 50  0001 C CNN
F 3 "" H 4550 3100 50  0001 C CNN
	1    4550 3100
	1    0    0    -1  
$EndComp
$Comp
L Mechaduino02-eagle-import:GND #GND033
U 1 1 C5585B8D
P 1550 4400
F 0 "#GND033" H 1550 4400 50  0001 C CNN
F 1 "GND" H 1450 4300 59  0000 L BNN
F 2 "" H 1550 4400 50  0001 C CNN
F 3 "" H 1550 4400 50  0001 C CNN
	1    1550 4400
	1    0    0    -1  
$EndComp
$Comp
L Mechaduino02-eagle-import:GND #GND034
U 1 1 85A992D2
P 7650 3300
F 0 "#GND034" H 7650 3300 50  0001 C CNN
F 1 "GND" H 7550 3200 59  0000 L BNN
F 2 "" H 7650 3300 50  0001 C CNN
F 3 "" H 7650 3300 50  0001 C CNN
	1    7650 3300
	0    -1   -1   0   
$EndComp
$Comp
L Mechaduino02-eagle-import:GND #GND036
U 1 1 CF583ECA
P 7750 2800
F 0 "#GND036" H 7750 2800 50  0001 C CNN
F 1 "GND" H 7650 2700 59  0000 L BNN
F 2 "" H 7750 2800 50  0001 C CNN
F 3 "" H 7750 2800 50  0001 C CNN
	1    7750 2800
	1    0    0    -1  
$EndComp
$Comp
L Mechaduino02-eagle-import:CAP0402 C11
U 1 1 303D017B
P 8050 2500
F 0 "C11" H 8110 2615 59  0000 L BNN
F 1 "1uF" H 8110 2415 59  0000 L BNN
F 2 "Mechaduino02:0402-CAP" H 8050 2500 50  0001 C CNN
F 3 "" H 8050 2500 50  0001 C CNN
	1    8050 2500
	1    0    0    -1  
$EndComp
$Comp
L Mechaduino02-eagle-import:CAP0402 C2
U 1 1 C8DDE19D
P 8550 2500
F 0 "C2" H 8610 2615 59  0000 L BNN
F 1 "0.1uF" H 8610 2415 59  0000 L BNN
F 2 "Mechaduino02:0402-CAP" H 8550 2500 50  0001 C CNN
F 3 "" H 8550 2500 50  0001 C CNN
	1    8550 2500
	1    0    0    -1  
$EndComp
$Comp
L Mechaduino02-eagle-import:GND #GND038
U 1 1 35D5721E
P 8050 2800
F 0 "#GND038" H 8050 2800 50  0001 C CNN
F 1 "GND" H 7950 2700 59  0000 L BNN
F 2 "" H 8050 2800 50  0001 C CNN
F 3 "" H 8050 2800 50  0001 C CNN
	1    8050 2800
	1    0    0    -1  
$EndComp
$Comp
L Mechaduino02-eagle-import:GND #GND040
U 1 1 2B74A96F
P 8550 2800
F 0 "#GND040" H 8550 2800 50  0001 C CNN
F 1 "GND" H 8450 2700 59  0000 L BNN
F 2 "" H 8550 2800 50  0001 C CNN
F 3 "" H 8550 2800 50  0001 C CNN
	1    8550 2800
	1    0    0    -1  
$EndComp
$Comp
L Mechaduino02-eagle-import:CAP0402 C5
U 1 1 2BF069D8
P 1350 2700
F 0 "C5" H 1510 2715 59  0000 L BNN
F 1 "0.1uF" H 1510 2615 59  0000 L BNN
F 2 "Mechaduino02:0402-CAP" H 1350 2700 50  0001 C CNN
F 3 "" H 1350 2700 50  0001 C CNN
	1    1350 2700
	1    0    0    -1  
$EndComp
$Comp
L Mechaduino02-eagle-import:GND #GND041
U 1 1 057C4BD5
P 1350 3000
F 0 "#GND041" H 1350 3000 50  0001 C CNN
F 1 "GND" H 1250 2900 59  0000 L BNN
F 2 "" H 1350 3000 50  0001 C CNN
F 3 "" H 1350 3000 50  0001 C CNN
	1    1350 3000
	1    0    0    -1  
$EndComp
$Comp
L Mechaduino02-eagle-import:CAP0603 C7
U 1 1 317DD6FA
P 2450 1100
F 0 "C7" V 2615 1060 59  0000 L BNN
F 1 "18pF" V 2255 1300 59  0000 R TNN
F 2 "Mechaduino02:0603-CAP" H 2450 1100 50  0001 C CNN
F 3 "" H 2450 1100 50  0001 C CNN
	1    2450 1100
	0    -1   -1   0   
$EndComp
$Comp
L Mechaduino02-eagle-import:CAP0603 C8
U 1 1 57C78E6D
P 2450 1700
F 0 "C8" V 2545 1840 59  0000 R TNN
F 1 "18pF" V 2655 1900 59  0000 R TNN
F 2 "Mechaduino02:0603-CAP" H 2450 1700 50  0001 C CNN
F 3 "" H 2450 1700 50  0001 C CNN
	1    2450 1700
	0    -1   -1   0   
$EndComp
$Comp
L Mechaduino02-eagle-import:R-US_R0402-VISHAY R7
U 1 1 2F6F52F1
P 7750 3600
F 0 "R7" H 7600 3659 59  0000 L BNN
F 1 "4.7K" H 7600 3470 59  0000 L BNN
F 2 "Mechaduino02:R0402-VISHAY" H 7750 3600 50  0001 C CNN
F 3 "" H 7750 3600 50  0001 C CNN
	1    7750 3600
	1    0    0    -1  
$EndComp
$Comp
L Mechaduino02-eagle-import:R-US_R0402-VISHAY R8
U 1 1 F22291A8
P 7750 3900
F 0 "R8" H 7600 3959 59  0000 L BNN
F 1 "4.7K" H 7600 3770 59  0000 L BNN
F 2 "Mechaduino02:R0402-VISHAY" H 7750 3900 50  0001 C CNN
F 3 "" H 7750 3900 50  0001 C CNN
	1    7750 3900
	1    0    0    -1  
$EndComp
$Comp
L Mechaduino02-eagle-import:GND #GND025
U 1 1 F212C7DE
P 9950 1800
F 0 "#GND025" H 9950 1800 50  0001 C CNN
F 1 "GND" H 9850 1700 59  0000 L BNN
F 2 "" H 9950 1800 50  0001 C CNN
F 3 "" H 9950 1800 50  0001 C CNN
	1    9950 1800
	1    0    0    -1  
$EndComp
$Comp
L Mechaduino02-eagle-import:CAP0402 C1
U 1 1 AC59532D
P 7250 3200
F 0 "C1" H 7310 3315 59  0000 L BNN
F 1 "0.1uF" H 7310 3115 59  0000 L BNN
F 2 "Mechaduino02:0402-CAP" H 7250 3200 50  0001 C CNN
F 3 "" H 7250 3200 50  0001 C CNN
	1    7250 3200
	0    -1   -1   0   
$EndComp
$Comp
L Mechaduino02-eagle-import:CAP0402 C3
U 1 1 88676885
P 1350 3800
F 0 "C3" H 1510 3815 59  0000 L BNN
F 1 "0.1uF" H 1510 3915 59  0000 L BNN
F 2 "Mechaduino02:0402-CAP" H 1350 3800 50  0001 C CNN
F 3 "" H 1350 3800 50  0001 C CNN
	1    1350 3800
	-1   0    0    1   
$EndComp
$Comp
L Mechaduino02-eagle-import:CAP0402 C4
U 1 1 03F6E73E
P 750 2700
F 0 "C4" H 870 2725 59  0000 L BNN
F 1 "0.1uF" H 880 2615 59  0000 L BNN
F 2 "Mechaduino02:0402-CAP" H 750 2700 50  0001 C CNN
F 3 "" H 750 2700 50  0001 C CNN
	1    750  2700
	1    0    0    -1  
$EndComp
$Comp
L Mechaduino02-eagle-import:GND #GND06
U 1 1 F6847280
P 750 3000
F 0 "#GND06" H 750 3000 50  0001 C CNN
F 1 "GND" H 650 2900 59  0000 L BNN
F 2 "" H 750 3000 50  0001 C CNN
F 3 "" H 750 3000 50  0001 C CNN
	1    750  3000
	1    0    0    -1  
$EndComp
$Comp
L Mechaduino02-eagle-import:GND #GND011
U 1 1 5518330F
P 12250 2400
F 0 "#GND011" H 12250 2400 50  0001 C CNN
F 1 "GND" H 12150 2300 59  0000 L BNN
F 2 "" H 12250 2400 50  0001 C CNN
F 3 "" H 12250 2400 50  0001 C CNN
	1    12250 2400
	1    0    0    -1  
$EndComp
$Comp
L Mechaduino02-eagle-import:R-US_R0402-VISHAY R5
U 1 1 71430D2B
P 14750 2200
F 0 "R5" H 14600 2259 59  0000 L BNN
F 1 "330" H 14600 2070 59  0000 L BNN
F 2 "Mechaduino02:R0402-VISHAY" H 14750 2200 50  0001 C CNN
F 3 "" H 14750 2200 50  0001 C CNN
	1    14750 2200
	0    -1   -1   0   
$EndComp
$Comp
L Mechaduino02-eagle-import:CRYSTAL2012 Y1
U 1 1 C4E488FC
P 2650 1400
F 0 "Y1" H 2750 1440 59  0000 L BNN
F 1 "32,768Khz" H 2750 1300 59  0000 L BNN
F 2 "Mechaduino02:CRYSTAL-SMD-2.0X1.2" H 2650 1400 50  0001 C CNN
F 3 "" H 2650 1400 50  0001 C CNN
	1    2650 1400
	0    -1   -1   0   
$EndComp
$Comp
L Mechaduino02-eagle-import:INDUCTOR0603-TDK L2
U 1 1 0017C136
P 1350 2200
F 0 "L2" H 1550 2200 59  0000 R TNN
F 1 "BLM18PG471SN1D" V 1250 1900 59  0000 L BNN
F 2 "Mechaduino02:0603-TDK" H 1350 2200 50  0001 C CNN
F 3 "" H 1350 2200 50  0001 C CNN
	1    1350 2200
	1    0    0    -1  
$EndComp
$Comp
L Mechaduino02-eagle-import:MOSFET-NCHANNEL2N7002PW Q2
U 1 1 D4F84FD5
P 14750 2700
F 0 "Q2" H 14950 2800 59  0000 L BNN
F 1 "NFET" H 14950 2700 59  0000 L BNN
F 2 "Mechaduino02:SOT323" H 14750 2700 50  0001 C CNN
F 3 "" H 14750 2700 50  0001 C CNN
	1    14750 2700
	-1   0    0    -1  
$EndComp
$Comp
L Mechaduino02-eagle-import:GND #GND012
U 1 1 8C4C494A
P 14750 3400
F 0 "#GND012" H 14750 3400 50  0001 C CNN
F 1 "GND" H 14650 3300 59  0000 L BNN
F 2 "" H 14750 3400 50  0001 C CNN
F 3 "" H 14750 3400 50  0001 C CNN
	1    14750 3400
	1    0    0    -1  
$EndComp
$Comp
L Mechaduino02-eagle-import:CONNETTORI_0171_PH127-205DF055G00A JP4
U 1 1 089C31E3
P 9650 1500
F 0 "JP4" H 9550 1785 59  0000 L BNN
F 1 "SWD" H 9550 1150 59  0000 L BNN
F 2 "Mechaduino02:CONNETTORI_PINHEAD-2X5-P127" H 9650 1500 50  0001 C CNN
F 3 "" H 9650 1500 50  0001 C CNN
	1    9650 1500
	-1   0    0    -1  
$EndComp
$Comp
L Mechaduino02-eagle-import:3.3V #SUPPLY05
U 1 1 20B1DDDE
P 14750 1500
F 0 "#SUPPLY05" H 14750 1500 50  0001 C CNN
F 1 "3.3V" H 14710 1640 59  0000 L BNN
F 2 "" H 14750 1500 50  0001 C CNN
F 3 "" H 14750 1500 50  0001 C CNN
	1    14750 1500
	1    0    0    -1  
$EndComp
$Comp
L Mechaduino02-eagle-import:3.3V #SUPPLY08
U 1 1 39566F8A
P 9950 1300
F 0 "#SUPPLY08" H 9950 1300 50  0001 C CNN
F 1 "3.3V" H 9910 1440 59  0000 L BNN
F 2 "" H 9950 1300 50  0001 C CNN
F 3 "" H 9950 1300 50  0001 C CNN
	1    9950 1300
	1    0    0    -1  
$EndComp
$Comp
L Mechaduino02-eagle-import:3.3V #SUPPLY09
U 1 1 B8640D54
P 8550 2100
F 0 "#SUPPLY09" H 8550 2100 50  0001 C CNN
F 1 "3.3V" H 8510 2240 59  0000 L BNN
F 2 "" H 8550 2100 50  0001 C CNN
F 3 "" H 8550 2100 50  0001 C CNN
	1    8550 2100
	1    0    0    -1  
$EndComp
$Comp
L Mechaduino02-eagle-import:3.3V #SUPPLY010
U 1 1 28999800
P 6950 3000
F 0 "#SUPPLY010" H 6950 3000 50  0001 C CNN
F 1 "3.3V" H 6910 3140 59  0000 L BNN
F 2 "" H 6950 3000 50  0001 C CNN
F 3 "" H 6950 3000 50  0001 C CNN
	1    6950 3000
	1    0    0    -1  
$EndComp
$Comp
L Mechaduino02-eagle-import:3.3V #SUPPLY011
U 1 1 E0B04C0E
P 8050 3500
F 0 "#SUPPLY011" H 8050 3500 50  0001 C CNN
F 1 "3.3V" H 8010 3640 59  0000 L BNN
F 2 "" H 8050 3500 50  0001 C CNN
F 3 "" H 8050 3500 50  0001 C CNN
	1    8050 3500
	1    0    0    -1  
$EndComp
$Comp
L Mechaduino02-eagle-import:3.3V #SUPPLY012
U 1 1 31C2C8A5
P 1350 3500
F 0 "#SUPPLY012" H 1350 3500 50  0001 C CNN
F 1 "3.3V" H 1310 3640 59  0000 L BNN
F 2 "" H 1350 3500 50  0001 C CNN
F 3 "" H 1350 3500 50  0001 C CNN
	1    1350 3500
	1    0    0    -1  
$EndComp
$Comp
L Mechaduino02-eagle-import:3.3V #SUPPLY013
U 1 1 8D803956
P 1350 1800
F 0 "#SUPPLY013" H 1350 1800 50  0001 C CNN
F 1 "3.3V" H 1310 1940 59  0000 L BNN
F 2 "" H 1350 1800 50  0001 C CNN
F 3 "" H 1350 1800 50  0001 C CNN
	1    1350 1800
	1    0    0    -1  
$EndComp
$Comp
L Mechaduino02-eagle-import:GND #GND016
U 1 1 12C6E2A1
P 1850 1400
F 0 "#GND016" H 1850 1400 50  0001 C CNN
F 1 "GND" H 1750 1300 59  0000 L BNN
F 2 "" H 1850 1400 50  0001 C CNN
F 3 "" H 1850 1400 50  0001 C CNN
	1    1850 1400
	0    1    1    0   
$EndComp
$Comp
L Mechaduino02-eagle-import:GND #GND017
U 1 1 CBB20165
P 1850 2200
F 0 "#GND017" H 1850 2200 50  0001 C CNN
F 1 "GND" H 1750 2100 59  0000 L BNN
F 2 "" H 1850 2200 50  0001 C CNN
F 3 "" H 1850 2200 50  0001 C CNN
	1    1850 2200
	0    1    1    0   
$EndComp
$Comp
L Mechaduino02-eagle-import:GND #GND010
U 1 1 0087CD10
P 1700 10750
F 0 "#GND010" H 1700 10750 50  0001 C CNN
F 1 "GND" H 1600 10650 59  0000 L BNN
F 2 "" H 1700 10750 50  0001 C CNN
F 3 "" H 1700 10750 50  0001 C CNN
	1    1700 10750
	1    0    0    -1  
$EndComp
$Comp
L Mechaduino02-eagle-import:CAP0402 C9
U 1 1 1FDB4A66
P 5750 9700
F 0 "C9" H 5810 9815 59  0000 L BNN
F 1 "1.0uF" H 5810 9615 59  0000 L BNN
F 2 "Mechaduino02:0402-CAP" H 5750 9700 50  0001 C CNN
F 3 "" H 5750 9700 50  0001 C CNN
	1    5750 9700
	1    0    0    -1  
$EndComp
$Comp
L Mechaduino02-eagle-import:GND #GND07
U 1 1 C2693486
P 6650 9900
F 0 "#GND07" H 6650 9900 50  0001 C CNN
F 1 "GND" H 6550 9800 59  0000 L BNN
F 2 "" H 6650 9900 50  0001 C CNN
F 3 "" H 6650 9900 50  0001 C CNN
	1    6650 9900
	1    0    0    -1  
$EndComp
$Comp
L Mechaduino02-eagle-import:INDUCTOR0603-TDK L1
U 1 1 4EA1FDA5
P 1400 10450
F 0 "L1" H 1500 10650 59  0000 L BNN
F 1 "BLM18PG471SN1D" V 1300 10850 59  0000 R TNN
F 2 "Mechaduino02:0603-TDK" H 1400 10450 50  0001 C CNN
F 3 "" H 1400 10450 50  0001 C CNN
	1    1400 10450
	0    -1   -1   0   
$EndComp
$Comp
L Mechaduino02-eagle-import:3.3V #SUPPLY02
U 1 1 19032892
P 7750 9300
F 0 "#SUPPLY02" H 7750 9300 50  0001 C CNN
F 1 "3.3V" H 7710 9440 59  0000 L BNN
F 2 "" H 7750 9300 50  0001 C CNN
F 3 "" H 7750 9300 50  0001 C CNN
	1    7750 9300
	1    0    0    -1  
$EndComp
$Comp
L Mechaduino02-eagle-import:GND #GND019
U 1 1 F278BC0E
P 5750 10000
F 0 "#GND019" H 5750 10000 50  0001 C CNN
F 1 "GND" H 5650 9900 59  0000 L BNN
F 2 "" H 5750 10000 50  0001 C CNN
F 3 "" H 5750 10000 50  0001 C CNN
	1    5750 10000
	1    0    0    -1  
$EndComp
$Comp
L Mechaduino02-eagle-import:AVAGO_DRIVERTHERM U$1
U 1 1 5B7A6A8A
P 4100 7000
F 0 "U$1" H 4100 7000 50  0001 C CNN
F 1 "AVAGO_DRIVERTHERM" H 4100 7000 50  0001 C CNN
F 2 "Mechaduino02:TSSOP16_THERM" H 4100 7000 50  0001 C CNN
F 3 "" H 4100 7000 50  0001 C CNN
	1    4100 7000
	1    0    0    -1  
$EndComp
$Comp
L Mechaduino02-eagle-import:R-US_R1206 R12
U 1 1 5428BBA8
P 5500 6800
F 0 "R12" H 5350 6859 59  0000 L BNN
F 1 ".15 Ohm" H 5350 6670 59  0000 L BNN
F 2 "Mechaduino02:R1206" H 5500 6800 50  0001 C CNN
F 3 "" H 5500 6800 50  0001 C CNN
	1    5500 6800
	1    0    0    -1  
$EndComp
$Comp
L Mechaduino02-eagle-import:R-US_R1206 R13
U 1 1 FB6FE49A
P 5500 7100
F 0 "R13" H 5350 7159 59  0000 L BNN
F 1 ".15 Ohm" H 5350 6970 59  0000 L BNN
F 2 "Mechaduino02:R1206" H 5500 7100 50  0001 C CNN
F 3 "" H 5500 7100 50  0001 C CNN
	1    5500 7100
	1    0    0    -1  
$EndComp
$Comp
L Mechaduino02-eagle-import:CAP_POLD C12
U 1 1 FFB33241
P 5300 7400
F 0 "C12" H 5340 7425 59  0000 L BNN
F 1 "100uF" H 5340 7235 59  0000 L BNN
F 2 "Mechaduino02:PANASONIC_D" H 5300 7400 50  0001 C CNN
F 3 "" H 5300 7400 50  0001 C CNN
	1    5300 7400
	1    0    0    -1  
$EndComp
$Comp
L Mechaduino02-eagle-import:CAP0603 C13
U 1 1 8392CA13
P 5700 7500
F 0 "C13" H 5760 7615 59  0000 L BNN
F 1 "1.0uF" H 5760 7415 59  0000 L BNN
F 2 "Mechaduino02:0603-CAP" H 5700 7500 50  0001 C CNN
F 3 "" H 5700 7500 50  0001 C CNN
	1    5700 7500
	1    0    0    -1  
$EndComp
$Comp
L Mechaduino02-eagle-import:M025MM MOTOR_POWER1
U 1 1 4C5F80C7
P 8850 9700
F 0 "MOTOR_POWER1" H 8550 10030 59  0000 L BNN
F 1 "M025MM" H 8750 9500 59  0000 L BNN
F 2 "Mechaduino02:SCREWTERMINAL-5MM-2" H 8850 9700 50  0001 C CNN
F 3 "" H 8850 9700 50  0001 C CNN
	1    8850 9700
	1    0    0    1   
$EndComp
$Comp
L Mechaduino02-eagle-import:AS5047D U$4
U 1 1 649D799B
P 8650 6500
F 0 "U$4" H 8650 6500 50  0001 C CNN
F 1 "AS5047D" H 8650 6500 50  0001 C CNN
F 2 "Mechaduino02:TSSOP14" H 8650 6500 50  0001 C CNN
F 3 "" H 8650 6500 50  0001 C CNN
	1    8650 6500
	1    0    0    -1  
$EndComp
$Comp
L Mechaduino02-eagle-import:R-US_R0402-VISHAY R14
U 1 1 DB22EEEA
P 2000 7200
F 0 "R14" H 1850 7259 59  0000 L BNN
F 1 "1k" H 1850 7070 59  0000 L BNN
F 2 "Mechaduino02:R0402-VISHAY" H 2000 7200 50  0001 C CNN
F 3 "" H 2000 7200 50  0001 C CNN
	1    2000 7200
	1    0    0    -1  
$EndComp
$Comp
L Mechaduino02-eagle-import:CAP0402 C14
U 1 1 15A508F3
P 2200 7500
F 0 "C14" H 2260 7615 59  0000 L BNN
F 1 "0.1uF" H 2260 7415 59  0000 L BNN
F 2 "Mechaduino02:0402-CAP" H 2200 7500 50  0001 C CNN
F 3 "" H 2200 7500 50  0001 C CNN
	1    2200 7500
	1    0    0    -1  
$EndComp
$Comp
L Mechaduino02-eagle-import:CAP0402 C15
U 1 1 C65B0EAD
P 2500 7500
F 0 "C15" H 2560 7615 59  0000 L BNN
F 1 "0.1uF" H 2560 7415 59  0000 L BNN
F 2 "Mechaduino02:0402-CAP" H 2500 7500 50  0001 C CNN
F 3 "" H 2500 7500 50  0001 C CNN
	1    2500 7500
	1    0    0    -1  
$EndComp
$Comp
L Mechaduino02-eagle-import:R-US_R0402-VISHAY R15
U 1 1 6F379528
P 2000 6700
F 0 "R15" H 1850 6759 59  0000 L BNN
F 1 "1k" H 1850 6570 59  0000 L BNN
F 2 "Mechaduino02:R0402-VISHAY" H 2000 6700 50  0001 C CNN
F 3 "" H 2000 6700 50  0001 C CNN
	1    2000 6700
	1    0    0    -1  
$EndComp
$Comp
L Mechaduino02-eagle-import:M04PTH JP6
U 1 1 A21E5090
P 6700 7000
F 0 "JP6" H 6500 7330 59  0000 L BNN
F 1 "M04PTH" H 6500 6700 59  0000 L BNN
F 2 "Mechaduino02:1X04" H 6700 7000 50  0001 C CNN
F 3 "" H 6700 7000 50  0001 C CNN
	1    6700 7000
	-1   0    0    -1  
$EndComp
$Comp
L Mechaduino02-eagle-import:GND #GND022
U 1 1 A44C21B7
P 8150 7700
F 0 "#GND022" H 8150 7700 50  0001 C CNN
F 1 "GND" H 8050 7600 59  0000 L BNN
F 2 "" H 8150 7700 50  0001 C CNN
F 3 "" H 8150 7700 50  0001 C CNN
	1    8150 7700
	1    0    0    -1  
$EndComp
$Comp
L Mechaduino02-eagle-import:CAP0402 C16
U 1 1 5DE9A54D
P 10250 7400
F 0 "C16" H 10310 7515 59  0000 L BNN
F 1 "0.1uF" H 10310 7315 59  0000 L BNN
F 2 "Mechaduino02:0402-CAP" H 10250 7400 50  0001 C CNN
F 3 "" H 10250 7400 50  0001 C CNN
	1    10250 7400
	1    0    0    -1  
$EndComp
$Comp
L Mechaduino02-eagle-import:GND #GND023
U 1 1 D027D65F
P 10250 7700
F 0 "#GND023" H 10250 7700 50  0001 C CNN
F 1 "GND" H 10150 7600 59  0000 L BNN
F 2 "" H 10250 7700 50  0001 C CNN
F 3 "" H 10250 7700 50  0001 C CNN
	1    10250 7700
	1    0    0    -1  
$EndComp
$Comp
L Mechaduino02-eagle-import:GND2 #SUPPLY016
U 1 1 86F85EE9
P 2200 8000
F 0 "#SUPPLY016" H 2200 8000 50  0001 C CNN
F 1 "GND2" H 2105 7875 59  0000 L BNN
F 2 "" H 2200 8000 50  0001 C CNN
F 3 "" H 2200 8000 50  0001 C CNN
	1    2200 8000
	1    0    0    -1  
$EndComp
$Comp
L Mechaduino02-eagle-import:GND2 #SUPPLY017
U 1 1 26B7FE90
P 2500 8000
F 0 "#SUPPLY017" H 2500 8000 50  0001 C CNN
F 1 "GND2" H 2405 7875 59  0000 L BNN
F 2 "" H 2500 8000 50  0001 C CNN
F 3 "" H 2500 8000 50  0001 C CNN
	1    2500 8000
	1    0    0    -1  
$EndComp
$Comp
L Mechaduino02-eagle-import:GND2 #SUPPLY018
U 1 1 C00D883A
P 4000 7700
F 0 "#SUPPLY018" H 4000 7700 50  0001 C CNN
F 1 "GND2" H 3905 7575 59  0000 L BNN
F 2 "" H 4000 7700 50  0001 C CNN
F 3 "" H 4000 7700 50  0001 C CNN
	1    4000 7700
	1    0    0    -1  
$EndComp
$Comp
L Mechaduino02-eagle-import:SHORT-HA5 SH1
U 1 1 B6A480C7
P 10450 10500
F 0 "SH1" H 10363 10550 59  0000 L BNN
F 1 "SHORT-HA5" H 10450 10500 50  0001 C CNN
F 2 "Mechaduino02:SHORT_ALL-50" H 10450 10500 50  0001 C CNN
F 3 "" H 10450 10500 50  0001 C CNN
	1    10450 10500
	-1   0    0    1   
$EndComp
$Comp
L Mechaduino02-eagle-import:GND2 #SUPPLY019
U 1 1 9765D681
P 10850 10600
F 0 "#SUPPLY019" H 10850 10600 50  0001 C CNN
F 1 "GND2" H 10755 10475 59  0000 L BNN
F 2 "" H 10850 10600 50  0001 C CNN
F 3 "" H 10850 10600 50  0001 C CNN
	1    10850 10600
	-1   0    0    -1  
$EndComp
$Comp
L Mechaduino02-eagle-import:GND #GND018
U 1 1 195191A6
P 10050 10600
F 0 "#GND018" H 10050 10600 50  0001 C CNN
F 1 "GND" H 9950 10500 59  0000 L BNN
F 2 "" H 10050 10600 50  0001 C CNN
F 3 "" H 10050 10600 50  0001 C CNN
	1    10050 10600
	-1   0    0    -1  
$EndComp
$Comp
L Mechaduino02-eagle-import:USB_MICRO_RIGHT J1
U 1 1 449C7C68
P 1300 9650
F 0 "J1" H 1100 10150 40  0000 L TNN
F 1 "USB_MICRO_RIGHT" H 1100 10050 40  0000 L BNN
F 2 "Mechaduino02:MICROUSB-RIGHT" H 1300 9650 50  0001 C CNN
F 3 "" H 1300 9650 50  0001 C CNN
	1    1300 9650
	1    0    0    -1  
$EndComp
$Comp
L Mechaduino02-eagle-import:R-US_R0402-VISHAY R16
U 1 1 63E06A3C
P 15250 2900
F 0 "R16" H 15100 2959 59  0000 L BNN
F 1 "100K" H 15100 2770 59  0000 L BNN
F 2 "Mechaduino02:R0402-VISHAY" H 15250 2900 50  0001 C CNN
F 3 "" H 15250 2900 50  0001 C CNN
	1    15250 2900
	0    -1   -1   0   
$EndComp
$Comp
L Mechaduino02-eagle-import:GND #GND020
U 1 1 E53A484A
P 15250 3400
F 0 "#GND020" H 15250 3400 50  0001 C CNN
F 1 "GND" H 15150 3300 59  0000 L BNN
F 2 "" H 15250 3400 50  0001 C CNN
F 3 "" H 15250 3400 50  0001 C CNN
	1    15250 3400
	1    0    0    -1  
$EndComp
$Comp
L Mechaduino02-eagle-import:PTCSMD F1
U 1 1 BEAC822B
P 3200 9450
F 0 "F1" H 3100 9570 59  0000 L BNN
F 1 "500mA" H 3070 9250 59  0000 L BNN
F 2 "Mechaduino02:PTC-1206" H 3200 9450 50  0001 C CNN
F 3 "" H 3200 9450 50  0001 C CNN
	1    3200 9450
	1    0    0    -1  
$EndComp
$Comp
L Mechaduino02-eagle-import:VIN #SUPPLY023
U 1 1 F460BE83
P 4500 9250
F 0 "#SUPPLY023" H 4500 9250 50  0001 C CNN
F 1 "VIN" H 4460 9390 59  0000 L BNN
F 2 "" H 4500 9250 50  0001 C CNN
F 3 "" H 4500 9250 50  0001 C CNN
	1    4500 9250
	1    0    0    -1  
$EndComp
$Comp
L Mechaduino02-eagle-import:VIN #SUPPLY015
U 1 1 2739B52F
P 5350 9300
F 0 "#SUPPLY015" H 5350 9300 50  0001 C CNN
F 1 "VIN" H 5310 9440 59  0000 L BNN
F 2 "" H 5350 9300 50  0001 C CNN
F 3 "" H 5350 9300 50  0001 C CNN
	1    5350 9300
	1    0    0    -1  
$EndComp
$Comp
L Mechaduino02-eagle-import:V+ #P+01
U 1 1 6A081B6E
P 9450 9400
F 0 "#P+01" H 9450 9400 50  0001 C CNN
F 1 "V+" V 9450 9500 59  0000 L BNN
F 2 "" H 9450 9400 50  0001 C CNN
F 3 "" H 9450 9400 50  0001 C CNN
	1    9450 9400
	-1   0    0    -1  
$EndComp
$Comp
L Mechaduino02-eagle-import:GND2 #SUPPLY020
U 1 1 74256EE2
P 9450 10100
F 0 "#SUPPLY020" H 9450 10100 50  0001 C CNN
F 1 "GND2" H 9355 9975 59  0000 L BNN
F 2 "" H 9450 10100 50  0001 C CNN
F 3 "" H 9450 10100 50  0001 C CNN
	1    9450 10100
	-1   0    0    -1  
$EndComp
$Comp
L Mechaduino02-eagle-import:V+ #P+02
U 1 1 637B3A6A
P 5200 6200
F 0 "#P+02" H 5200 6200 50  0001 C CNN
F 1 "V+" V 5200 6300 59  0000 R BNN
F 2 "" H 5200 6200 50  0001 C CNN
F 3 "" H 5200 6200 50  0001 C CNN
	1    5200 6200
	1    0    0    -1  
$EndComp
$Comp
L Mechaduino02-eagle-import:3.3V #SUPPLY021
U 1 1 5F7BB948
P 10550 6400
F 0 "#SUPPLY021" H 10550 6400 50  0001 C CNN
F 1 "3.3V" H 10510 6540 59  0000 L BNN
F 2 "" H 10550 6400 50  0001 C CNN
F 3 "" H 10550 6400 50  0001 C CNN
	1    10550 6400
	1    0    0    -1  
$EndComp
$Comp
L Mechaduino02-eagle-import:GND #GND04
U 1 1 12C122FD
P 10850 7700
F 0 "#GND04" H 10850 7700 50  0001 C CNN
F 1 "GND" H 10750 7600 59  0000 L BNN
F 2 "" H 10850 7700 50  0001 C CNN
F 3 "" H 10850 7700 50  0001 C CNN
	1    10850 7700
	1    0    0    -1  
$EndComp
$Comp
L Mechaduino02-eagle-import:VIN #SUPPLY06
U 1 1 A7CD5EB6
P 12450 8850
F 0 "#SUPPLY06" H 12450 8850 50  0001 C CNN
F 1 "VIN" H 12410 8990 59  0000 L BNN
F 2 "" H 12450 8850 50  0001 C CNN
F 3 "" H 12450 8850 50  0001 C CNN
	1    12450 8850
	1    0    0    -1  
$EndComp
$Comp
L Mechaduino02-eagle-import:3.3V #SUPPLY022
U 1 1 15C4ECC7
P 13450 8850
F 0 "#SUPPLY022" H 13450 8850 50  0001 C CNN
F 1 "3.3V" H 13410 8990 59  0000 L BNN
F 2 "" H 13450 8850 50  0001 C CNN
F 3 "" H 13450 8850 50  0001 C CNN
	1    13450 8850
	1    0    0    -1  
$EndComp
$Comp
L Mechaduino02-eagle-import:GND #GND01
U 1 1 8DA2BB24
P 14450 9750
F 0 "#GND01" H 14450 9750 50  0001 C CNN
F 1 "GND" H 14350 9650 59  0000 L BNN
F 2 "" H 14450 9750 50  0001 C CNN
F 3 "" H 14450 9750 50  0001 C CNN
	1    14450 9750
	1    0    0    -1  
$EndComp
$Comp
L Mechaduino02-eagle-import:V+ #P+03
U 1 1 48C2C5DB
P 15450 8750
F 0 "#P+03" H 15450 8750 50  0001 C CNN
F 1 "V+" V 15450 8850 59  0000 L BNN
F 2 "" H 15450 8750 50  0001 C CNN
F 3 "" H 15450 8750 50  0001 C CNN
	1    15450 8750
	-1   0    0    -1  
$EndComp
$Comp
L Mechaduino02-eagle-import:MOSFET-NCHANNELSMD Q3
U 1 1 9551BA40
P 9150 5100
F 0 "Q3" V 8960 4950 59  0000 L BNN
F 1 "BSS138" V 9370 4890 59  0000 L BNN
F 2 "Mechaduino02:SOT23-3" H 9150 5100 50  0001 C CNN
F 3 "" H 9150 5100 50  0001 C CNN
	1    9150 5100
	0    1    1    0   
$EndComp
$Comp
L Mechaduino02-eagle-import:MOSFET-NCHANNELSMD Q4
U 1 1 2D088A71
P 7850 5200
F 0 "Q4" V 7660 5050 59  0000 L BNN
F 1 "BSS138" V 8070 4990 59  0000 L BNN
F 2 "Mechaduino02:SOT23-3" H 7850 5200 50  0001 C CNN
F 3 "" H 7850 5200 50  0001 C CNN
	1    7850 5200
	0    1    1    0   
$EndComp
$Comp
L Mechaduino02-eagle-import:VIN #SUPPLY03
U 1 1 4F8E092B
P 8150 4500
F 0 "#SUPPLY03" H 8150 4500 50  0001 C CNN
F 1 "VIN" H 8110 4640 59  0000 L BNN
F 2 "" H 8150 4500 50  0001 C CNN
F 3 "" H 8150 4500 50  0001 C CNN
	1    8150 4500
	1    0    0    -1  
$EndComp
$Comp
L Mechaduino02-eagle-import:VIN #SUPPLY04
U 1 1 1C9152C2
P 9450 4400
F 0 "#SUPPLY04" H 9450 4400 50  0001 C CNN
F 1 "VIN" H 9410 4540 59  0000 L BNN
F 2 "" H 9450 4400 50  0001 C CNN
F 3 "" H 9450 4400 50  0001 C CNN
	1    9450 4400
	1    0    0    -1  
$EndComp
$Comp
L Mechaduino02-eagle-import:3.3V #SUPPLY024
U 1 1 29BDD468
P 7550 4500
F 0 "#SUPPLY024" H 7550 4500 50  0001 C CNN
F 1 "3.3V" H 7510 4640 59  0000 L BNN
F 2 "" H 7550 4500 50  0001 C CNN
F 3 "" H 7550 4500 50  0001 C CNN
	1    7550 4500
	1    0    0    -1  
$EndComp
$Comp
L Mechaduino02-eagle-import:3.3V #SUPPLY025
U 1 1 517FCEE6
P 8850 4400
F 0 "#SUPPLY025" H 8850 4400 50  0001 C CNN
F 1 "3.3V" H 8810 4540 59  0000 L BNN
F 2 "" H 8850 4400 50  0001 C CNN
F 3 "" H 8850 4400 50  0001 C CNN
	1    8850 4400
	1    0    0    -1  
$EndComp
$Comp
L Mechaduino02-eagle-import:R-US_R0402-VISHAY R2
U 1 1 0F3C4881
P 8150 4900
F 0 "R2" H 8000 4959 59  0000 L BNN
F 1 "10K" H 8000 4770 59  0000 L BNN
F 2 "Mechaduino02:R0402-VISHAY" H 8150 4900 50  0001 C CNN
F 3 "" H 8150 4900 50  0001 C CNN
	1    8150 4900
	0    -1   -1   0   
$EndComp
$Comp
L Mechaduino02-eagle-import:R-US_R0402-VISHAY R3
U 1 1 2A684572
P 7550 4900
F 0 "R3" H 7400 4959 59  0000 L BNN
F 1 "10K" H 7400 4770 59  0000 L BNN
F 2 "Mechaduino02:R0402-VISHAY" H 7550 4900 50  0001 C CNN
F 3 "" H 7550 4900 50  0001 C CNN
	1    7550 4900
	0    -1   -1   0   
$EndComp
$Comp
L Mechaduino02-eagle-import:R-US_R0402-VISHAY R20
U 1 1 EBB99EBE
P 8850 4800
F 0 "R20" H 8700 4859 59  0000 L BNN
F 1 "10K" H 8700 4670 59  0000 L BNN
F 2 "Mechaduino02:R0402-VISHAY" H 8850 4800 50  0001 C CNN
F 3 "" H 8850 4800 50  0001 C CNN
	1    8850 4800
	0    -1   -1   0   
$EndComp
$Comp
L Mechaduino02-eagle-import:R-US_R0402-VISHAY R21
U 1 1 8C1C9867
P 9450 4800
F 0 "R21" H 9300 4859 59  0000 L BNN
F 1 "10K" H 9300 4670 59  0000 L BNN
F 2 "Mechaduino02:R0402-VISHAY" H 9450 4800 50  0001 C CNN
F 3 "" H 9450 4800 50  0001 C CNN
	1    9450 4800
	0    -1   -1   0   
$EndComp
$Comp
L Mechaduino02-eagle-import:CAP0603 C6
U 1 1 1F648350
P 6000 7500
F 0 "C6" H 6060 7615 59  0000 L BNN
F 1 "0.01uF" H 6060 7415 59  0000 L BNN
F 2 "Mechaduino02:0603-CAP" H 6000 7500 50  0001 C CNN
F 3 "" H 6000 7500 50  0001 C CNN
	1    6000 7500
	1    0    0    -1  
$EndComp
$Comp
L Mechaduino02-eagle-import:CAP0402 C19
U 1 1 DC3AAE9B
P 7350 9700
F 0 "C19" H 7410 9815 59  0000 L BNN
F 1 "1.0uF" H 7410 9615 59  0000 L BNN
F 2 "Mechaduino02:0402-CAP" H 7350 9700 50  0001 C CNN
F 3 "" H 7350 9700 50  0001 C CNN
	1    7350 9700
	1    0    0    -1  
$EndComp
$Comp
L Mechaduino02-eagle-import:GND #GND08
U 1 1 E3161DBF
P 7350 10000
F 0 "#GND08" H 7350 10000 50  0001 C CNN
F 1 "GND" H 7250 9900 59  0000 L BNN
F 2 "" H 7350 10000 50  0001 C CNN
F 3 "" H 7350 10000 50  0001 C CNN
	1    7350 10000
	1    0    0    -1  
$EndComp
$Comp
L Mechaduino02-eagle-import:HEADER_01X10_PTH_2.54MM J2
U 1 1 C3E76336
P 12850 4900
F 0 "J2" H 12850 5100 40  0000 L TNN
F 1 "HEADER_01X10_PTH_2.54MM" H 12850 5000 40  0000 L BNN
F 2 "Mechaduino02:PTH_2.54MM_01X10" H 12850 4900 50  0001 C CNN
F 3 "" H 12850 4900 50  0001 C CNN
F 4 "*D3" H 12850 5000 40  0001 L BNN "LABEL00"
F 5 "*D2" H 12850 5000 40  0001 L BNN "LABEL01"
F 6 "*D1" H 12850 5000 40  0001 L BNN "LABEL02"
F 7 "*D0" H 12850 5000 40  0001 L BNN "LABEL03"
F 8 "A5" H 12850 5000 40  0001 L BNN "LABEL04"
F 9 "A4" H 12850 5000 40  0001 L BNN "LABEL05"
F 10 "A3" H 12850 5000 40  0001 L BNN "LABEL06"
F 11 "A1" H 12850 5000 40  0001 L BNN "LABEL07"
F 12 "A0" H 12850 5000 40  0001 L BNN "LABEL08"
F 13 "AREF" H 12850 5000 40  0001 L BNN "LABEL09"
	1    12850 4900
	1    0    0    -1  
$EndComp
$Comp
L Mechaduino02-eagle-import:HEADER_01X06_PTH_2.54MM J3
U 1 1 B665FDA9
P 15350 4900
F 0 "J3" H 15350 5100 40  0000 L TNN
F 1 "HEADER_01X06_PTH_2.54MM" H 15350 5000 40  0000 L BNN
F 2 "Mechaduino02:PTH_2.54MM_01X06" H 15350 4900 50  0001 C CNN
F 3 "" H 15350 4900 50  0001 C CNN
F 4 "SS D10" H 15350 5000 40  0001 L BNN "LABEL00"
F 5 "MOSI D11" H 15350 5000 40  0001 L BNN "LABEL01"
F 6 "MISO D12" H 15350 5000 40  0001 L BNN "LABEL02"
F 7 "SCK D13" H 15350 5000 40  0001 L BNN "LABEL03"
F 8 "SDA D20" H 15350 5000 40  0001 L BNN "LABEL04"
F 9 "SCL D21" H 15350 5000 40  0001 L BNN "LABEL05"
	1    15350 4900
	1    0    0    -1  
$EndComp
$Comp
L Mechaduino02-eagle-import:HEADER_01X03_PTH_2.54MM VIN1
U 1 1 E041F3A1
P 12250 9150
F 0 "VIN1" H 12250 9350 40  0000 L TNN
F 1 "HEADER_01X03_PTH_2.54MM" H 12250 9250 40  0000 L BNN
F 2 "Mechaduino02:PTH_2.54MM_01X03" H 12250 9150 50  0001 C CNN
F 3 "" H 12250 9150 50  0001 C CNN
	1    12250 9150
	-1   0    0    -1  
$EndComp
$Comp
L Mechaduino02-eagle-import:HEADER_01X03_PTH_2.54MM 3V3
U 1 1 77FCB7D3
P 13250 9150
F 0 "3V3" H 13250 9350 40  0000 L TNN
F 1 "HEADER_01X03_PTH_2.54MM" H 13250 9250 40  0000 L BNN
F 2 "Mechaduino02:PTH_2.54MM_01X03" H 13250 9150 50  0001 C CNN
F 3 "" H 13250 9150 50  0001 C CNN
	1    13250 9150
	-1   0    0    -1  
$EndComp
$Comp
L Mechaduino02-eagle-import:HEADER_01X03_PTH_2.54MM GND1
U 1 1 D5DABBF3
P 14250 9150
F 0 "GND1" H 14250 9350 40  0000 L TNN
F 1 "HEADER_01X03_PTH_2.54MM" H 14250 9250 40  0000 L BNN
F 2 "Mechaduino02:PTH_2.54MM_01X03" H 14250 9150 50  0001 C CNN
F 3 "" H 14250 9150 50  0001 C CNN
	1    14250 9150
	-1   0    0    -1  
$EndComp
$Comp
L Mechaduino02-eagle-import:HEADER_01X03_PTH_2.54MM V+1
U 1 1 CB7A9FDF
P 15250 9150
F 0 "V+1" H 15250 9350 40  0000 L TNN
F 1 "HEADER_01X03_PTH_2.54MM" H 15250 9250 40  0000 L BNN
F 2 "Mechaduino02:PTH_2.54MM_01X03" H 15250 9150 50  0001 C CNN
F 3 "" H 15250 9150 50  0001 C CNN
	1    15250 9150
	-1   0    0    -1  
$EndComp
$Comp
L Mechaduino02-eagle-import:TACT_4.2MM SW2
U 1 1 E12904EF
P 12450 1900
F 0 "SW2" H 12250 2200 40  0000 L TNN
F 1 "TACT_4.2MM" H 12250 2100 40  0000 L BNN
F 2 "Mechaduino02:TACT4.2MM" H 12450 1900 50  0001 C CNN
F 3 "" H 12450 1900 50  0001 C CNN
	1    12450 1900
	1    0    0    -1  
$EndComp
$Comp
L Mechaduino02-eagle-import:MOSFET-NCHANNELSMD Q5
U 1 1 AC785B90
P 10450 5000
F 0 "Q5" V 10260 4850 59  0000 L BNN
F 1 "BSS138" V 10670 4790 59  0000 L BNN
F 2 "Mechaduino02:SOT23-3" H 10450 5000 50  0001 C CNN
F 3 "" H 10450 5000 50  0001 C CNN
	1    10450 5000
	0    1    1    0   
$EndComp
$Comp
L Mechaduino02-eagle-import:VIN #SUPPLY026
U 1 1 CB2EE093
P 10750 4300
F 0 "#SUPPLY026" H 10750 4300 50  0001 C CNN
F 1 "VIN" H 10710 4440 59  0000 L BNN
F 2 "" H 10750 4300 50  0001 C CNN
F 3 "" H 10750 4300 50  0001 C CNN
	1    10750 4300
	1    0    0    -1  
$EndComp
$Comp
L Mechaduino02-eagle-import:3.3V #SUPPLY027
U 1 1 19AA1EB1
P 10150 4300
F 0 "#SUPPLY027" H 10150 4300 50  0001 C CNN
F 1 "3.3V" H 10110 4440 59  0000 L BNN
F 2 "" H 10150 4300 50  0001 C CNN
F 3 "" H 10150 4300 50  0001 C CNN
	1    10150 4300
	1    0    0    -1  
$EndComp
$Comp
L Mechaduino02-eagle-import:R-US_R0402-VISHAY R4
U 1 1 30FCCEAE
P 10150 4700
F 0 "R4" H 10000 4759 59  0000 L BNN
F 1 "10K" H 10000 4570 59  0000 L BNN
F 2 "Mechaduino02:R0402-VISHAY" H 10150 4700 50  0001 C CNN
F 3 "" H 10150 4700 50  0001 C CNN
	1    10150 4700
	0    -1   -1   0   
$EndComp
$Comp
L Mechaduino02-eagle-import:R-US_R0402-VISHAY R11
U 1 1 B75FF5DF
P 10750 4700
F 0 "R11" H 10600 4759 59  0000 L BNN
F 1 "10K" H 10600 4570 59  0000 L BNN
F 2 "Mechaduino02:R0402-VISHAY" H 10750 4700 50  0001 C CNN
F 3 "" H 10750 4700 50  0001 C CNN
	1    10750 4700
	0    -1   -1   0   
$EndComp
$Comp
L Mechaduino02-eagle-import:TLV70233PDBVR U1
U 1 1 94FABF20
P 6450 9400
F 0 "U1" H 6450 9600 40  0000 L TNN
F 1 "TLV70233PDBVR" H 6450 9500 40  0000 L BNN
F 2 "Mechaduino02:SOT-23-5" H 6450 9400 50  0001 C CNN
F 3 "" H 6450 9400 50  0001 C CNN
	1    6450 9400
	1    0    0    -1  
$EndComp
$Comp
L Mechaduino02-eagle-import:DIODE_SOD-123 D1
U 1 1 C78C3FBD
P 4100 9450
F 0 "D1" H 3900 9550 40  0000 L BNN
F 1 "DIODE_SOD-123" H 3900 9350 40  0000 L TNN
F 2 "Mechaduino02:SOD-123" H 4100 9450 50  0001 C CNN
F 3 "" H 4100 9450 50  0001 C CNN
	1    4100 9450
	1    0    0    -1  
$EndComp
$Comp
L Mechaduino02-eagle-import:MOSFET-NCHANNELSMD Q1
U 1 1 2DF1A311
P 11750 4900
F 0 "Q1" V 11560 4750 59  0000 L BNN
F 1 "BSS138" V 11970 4690 59  0000 L BNN
F 2 "Mechaduino02:SOT23-3" H 11750 4900 50  0001 C CNN
F 3 "" H 11750 4900 50  0001 C CNN
	1    11750 4900
	0    1    1    0   
$EndComp
$Comp
L Mechaduino02-eagle-import:VIN #SUPPLY01
U 1 1 F54A36B8
P 12050 4200
F 0 "#SUPPLY01" H 12050 4200 50  0001 C CNN
F 1 "VIN" H 12010 4340 59  0000 L BNN
F 2 "" H 12050 4200 50  0001 C CNN
F 3 "" H 12050 4200 50  0001 C CNN
	1    12050 4200
	1    0    0    -1  
$EndComp
$Comp
L Mechaduino02-eagle-import:3.3V #SUPPLY07
U 1 1 2907E397
P 11450 4200
F 0 "#SUPPLY07" H 11450 4200 50  0001 C CNN
F 1 "3.3V" H 11410 4340 59  0000 L BNN
F 2 "" H 11450 4200 50  0001 C CNN
F 3 "" H 11450 4200 50  0001 C CNN
	1    11450 4200
	1    0    0    -1  
$EndComp
$Comp
L Mechaduino02-eagle-import:R-US_R0402-VISHAY R1
U 1 1 DE04AF3C
P 11450 4600
F 0 "R1" H 11300 4659 59  0000 L BNN
F 1 "10K" H 11300 4470 59  0000 L BNN
F 2 "Mechaduino02:R0402-VISHAY" H 11450 4600 50  0001 C CNN
F 3 "" H 11450 4600 50  0001 C CNN
	1    11450 4600
	0    -1   -1   0   
$EndComp
$Comp
L Mechaduino02-eagle-import:R-US_R0402-VISHAY R6
U 1 1 91847459
P 12050 4600
F 0 "R6" H 11900 4659 59  0000 L BNN
F 1 "10K" H 11900 4470 59  0000 L BNN
F 2 "Mechaduino02:R0402-VISHAY" H 12050 4600 50  0001 C CNN
F 3 "" H 12050 4600 50  0001 C CNN
	1    12050 4600
	0    -1   -1   0   
$EndComp
Text Notes 12250 6800 0    59   ~ 0
A0 = DAC
Text Notes 12250 7000 0    59   ~ 0
All analog pins can be used as digital pins.
Text Notes 15150 1800 0    59   ~ 0
LED draws 4mA.
Text Notes 12250 6900 0    59   ~ 0
A2 is SS for SPI header.
Text Notes 14350 6800 0    59   ~ 0
Use VOUT or the 3V3 pins to power external modules.
Text Notes 800  10850 0    42   ~ 0
Ferrite bead prevents \nUSB cable sheild from \nacting like an antenna.
Text Notes 5650 9000 0    127  ~ 0
3.3V linear regulator
Text Notes 8550 6100 0    127  ~ 0
Magnetic Encoder
Text Notes 4250 900  0    127  ~ 0
SAMD21
Text Notes 3300 6000 0    127  ~ 0
PWM Motor Driver
Text Notes 7250 9100 0    42   ~ 0
VIN: 5V (3.3V is ok if USB is not plugged in.)
Text Notes 6250 10300 0    42   ~ 0
TLV70233PDBVR\n----------------\nIout (max): 300mA \nVin (max): 6.0V\nVdo (typ): 220mV\nIq: 35uA
Text Notes 4000 6300 0    42   ~ 0
A4954
Text Notes 2300 8950 0    127  ~ 0
Micro USB
Text Notes 5150 1000 0    59   ~ 0
Arduino Zero Compatible
Wire Notes Line
	6950 8400 6950 5500
Wire Notes Line
	11450 5500 11450 8400
Wire Wire Line
	12250 2000 12250 2300
Wire Wire Line
	12250 1600 12250 1800
Wire Notes Line
	-50  5500 11450 5500
Wire Notes Line
	-50  8400 16950 8400
$EndSCHEMATC
