EESchema Schematic File Version 4
EELAYER 30 0
EELAYER END
$Descr User 16749 44220
encoding utf-8
Sheet 1 3
Title ""
Date ""
Rev ""
Comp ""
Comment1 ""
Comment2 ""
Comment3 ""
Comment4 ""
$EndDescr
Wire Wire Line
	7600 39900 7500 39900
Wire Wire Line
	7500 39900 7500 40000
Wire Wire Line
	7600 40300 7500 40300
Wire Wire Line
	7500 40300 7500 40200
Wire Wire Line
	7500 40400 7500 40300
Connection ~ 7500 40300
Text GLabel 7600 40300 0    10   BiDi ~ 0
GND
Wire Wire Line
	7500 41200 7500 41100
Text GLabel 7500 41200 0    10   BiDi ~ 0
GND
Wire Wire Line
	7600 39400 7500 39400
Wire Wire Line
	7500 39400 7500 39300
Wire Wire Line
	7500 39500 7500 39400
Connection ~ 7500 39400
Text GLabel 7600 39400 0    10   BiDi ~ 0
GND
Wire Wire Line
	11200 40100 11100 40100
Wire Wire Line
	11100 40100 11100 40000
Wire Wire Line
	11100 40100 11100 40200
Connection ~ 11100 40100
Text GLabel 11200 40100 0    10   BiDi ~ 0
GND
Wire Wire Line
	9000 40800 9100 40800
Wire Wire Line
	9100 40800 9100 40900
Text GLabel 9000 40800 0    10   BiDi ~ 0
GND
Wire Wire Line
	9000 39400 9100 39400
Wire Wire Line
	9100 39400 9100 39300
Wire Wire Line
	9100 39500 9100 39400
Connection ~ 9100 39400
Text GLabel 9000 39400 0    10   BiDi ~ 0
GND
Wire Wire Line
	5100 37500 5100 37300
Text GLabel 5100 37500 0    10   BiDi ~ 0
GND
Wire Wire Line
	4900 39200 4900 39400
Text GLabel 4900 39200 0    10   BiDi ~ 0
GND
Wire Wire Line
	6300 36800 6300 36900
Text GLabel 6300 36800 0    10   BiDi ~ 0
GND
Wire Wire Line
	9000 37400 9000 37500
Text GLabel 9000 37400 0    10   BiDi ~ 0
GND
Wire Wire Line
	9000 36600 9000 36700
Wire Wire Line
	9000 36600 9000 36400
Wire Wire Line
	8800 36600 9000 36600
Wire Wire Line
	8800 36300 8800 36600
Connection ~ 9000 36600
Text GLabel 9000 36600 0    10   BiDi ~ 0
GND
Wire Wire Line
	9800 37300 9800 37400
Wire Wire Line
	9800 37400 9500 37400
Wire Wire Line
	9500 37400 9500 37200
Wire Wire Line
	9500 37200 9600 37200
Wire Wire Line
	9500 37500 9500 37400
Wire Wire Line
	9300 37000 9300 37400
Wire Wire Line
	9300 37400 9500 37400
Connection ~ 9500 37400
Connection ~ 9800 37400
Text GLabel 9800 37300 0    10   BiDi ~ 0
GND
Wire Wire Line
	11300 36700 11300 36500
Text GLabel 11300 36700 0    10   BiDi ~ 0
GND
Wire Wire Line
	12100 36700 12100 36600
Text GLabel 12100 36700 0    10   BiDi ~ 0
GND
Wire Wire Line
	12800 36500 12800 36700
Text GLabel 12800 36500 0    10   BiDi ~ 0
GND
Wire Wire Line
	9000 40300 9100 40300
Wire Wire Line
	9100 40300 9100 40200
Wire Wire Line
	9100 40300 9700 40300
Wire Wire Line
	9700 40300 9700 40200
Wire Wire Line
	9100 40300 9100 40400
Connection ~ 9100 40300
Text GLabel 9000 40300 0    10   BiDi ~ 0
GND
Wire Wire Line
	7500 39100 7500 39000
Wire Wire Line
	7500 39000 7600 39000
Wire Wire Line
	7500 38900 7500 39000
Connection ~ 7500 39000
Text GLabel 7500 39100 0    10   BiDi ~ 0
+3V3
Wire Wire Line
	7600 40800 7500 40800
Wire Wire Line
	7500 40800 7500 40900
Wire Wire Line
	7400 40800 7500 40800
Connection ~ 7500 40800
Text GLabel 7600 40800 0    10   BiDi ~ 0
+3V3
Wire Wire Line
	11100 39800 11100 39700
Wire Wire Line
	11100 39700 11200 39700
Wire Wire Line
	11100 39600 11100 39700
Connection ~ 11100 39700
Text GLabel 11100 39800 0    10   BiDi ~ 0
+3V3
Wire Wire Line
	9000 39000 9100 39000
Wire Wire Line
	9100 39000 9100 39100
Wire Wire Line
	9100 39000 9100 38900
Connection ~ 9100 39000
Text GLabel 9000 39000 0    10   BiDi ~ 0
+3V3
Wire Wire Line
	9700 39300 9700 39400
Text GLabel 9700 39300 0    10   BiDi ~ 0
+3V3
Wire Wire Line
	12600 36100 12800 36100
Wire Wire Line
	12800 36100 12800 36300
Wire Wire Line
	12800 36100 12800 36000
Connection ~ 12800 36100
Text GLabel 12600 36100 0    10   BiDi ~ 0
+3V3
Wire Wire Line
	9100 40000 9100 39900
Wire Wire Line
	9100 39900 9000 39900
Wire Wire Line
	9100 39900 9700 39900
Wire Wire Line
	9700 39900 9700 40000
Wire Wire Line
	9700 39800 9700 39900
Connection ~ 9100 39900
Connection ~ 9700 39900
Wire Wire Line
	4100 36000 4100 36100
Wire Wire Line
	4100 36100 4300 36100
Wire Wire Line
	4300 36100 4500 36100
Wire Wire Line
	4300 36300 4300 36100
Connection ~ 4300 36100
Text GLabel 4100 36000 0    10   BiDi ~ 0
VUSB
Wire Wire Line
	5100 36200 5100 36100
Wire Wire Line
	4900 36100 5100 36100
Wire Wire Line
	5100 36100 5300 36100
Connection ~ 5100 36100
Wire Wire Line
	4800 36500 5100 36500
Wire Wire Line
	5100 36500 5100 36400
Wire Wire Line
	5100 36500 5400 36500
Wire Wire Line
	4800 36300 4800 36500
Wire Wire Line
	5400 36300 5400 36500
Wire Wire Line
	5100 36900 5100 36700
Wire Wire Line
	5100 36700 5100 36500
Wire Wire Line
	4800 36700 5100 36700
Connection ~ 5100 36500
Connection ~ 5100 36700
Wire Wire Line
	4300 37600 4300 37200
Wire Wire Line
	4900 37200 4700 37200
Wire Wire Line
	4300 37200 4700 37200
Wire Wire Line
	4300 36800 4300 37200
Wire Wire Line
	4300 36800 4300 36500
Connection ~ 4300 37200
Wire Wire Line
	4600 36700 3600 36700
Text GLabel 3600 36700 2    70   BiDi ~ 0
USB_ID
Wire Wire Line
	5000 38300 5200 38300
Wire Wire Line
	5200 38300 5400 38300
Wire Wire Line
	5200 38400 5200 38300
Connection ~ 5200 38300
Wire Wire Line
	4900 38500 4900 38700
Wire Wire Line
	4900 38700 5200 38700
Wire Wire Line
	5200 38700 5500 38700
Wire Wire Line
	5500 38700 5500 38500
Wire Wire Line
	5200 38700 5200 38600
Wire Wire Line
	4300 37800 4300 38700
Wire Wire Line
	4300 38700 4900 38700
Wire Wire Line
	4900 38700 4900 38800
Connection ~ 5200 38700
Connection ~ 4900 38700
Wire Wire Line
	3900 39100 3900 38900
Wire Wire Line
	3900 39100 4450 39100
Wire Wire Line
	4450 39100 4700 39100
Wire Wire Line
	3900 39200 3900 39100
Wire Wire Line
	4450 39100 4450 39200
Connection ~ 3900 39100
Connection ~ 4450 39100
Wire Wire Line
	6300 36400 6300 36500
Wire Wire Line
	6900 36400 6900 36500
Wire Wire Line
	6900 36100 6900 36200
Wire Wire Line
	5800 38300 6000 38300
Wire Wire Line
	6000 38300 6000 36100
Wire Wire Line
	6000 36100 5700 36100
Wire Wire Line
	6000 36100 6300 36100
Wire Wire Line
	6300 36100 6300 36200
Wire Wire Line
	6900 36100 6300 36100
Wire Wire Line
	6900 36000 6900 36100
Wire Wire Line
	6900 36100 7500 36100
Wire Wire Line
	7500 36100 7500 36200
Wire Wire Line
	7600 36100 7500 36100
Wire Wire Line
	9900 35400 9900 35300
Wire Wire Line
	9900 35300 6000 35300
Wire Wire Line
	6000 35300 6000 36100
Wire Wire Line
	10700 35500 10700 35300
Wire Wire Line
	10700 35300 10400 35300
Wire Wire Line
	10400 35300 9900 35300
Wire Wire Line
	10400 35900 10400 35300
Connection ~ 6000 36100
Connection ~ 6300 36100
Connection ~ 6900 36100
Connection ~ 7500 36100
Connection ~ 9900 35300
Connection ~ 10400 35300
Text GLabel 6900 36100 0    10   BiDi ~ 0
+5V
Wire Wire Line
	2800 38200 2800 38300
Wire Wire Line
	4100 38300 3900 38300
Wire Wire Line
	3900 38300 4100 38300
Wire Wire Line
	4100 38300 4600 38300
Wire Wire Line
	3200 38300 3900 38300
Wire Wire Line
	3900 38300 4100 38300
Wire Wire Line
	3900 38700 3900 38300
Wire Wire Line
	2800 38300 3200 38300
Connection ~ 3900 38300
Text GLabel 2800 38200 0    10   BiDi ~ 0
VIN
Wire Wire Line
	6900 36800 6900 36900
Wire Wire Line
	6900 36900 7600 36900
Wire Wire Line
	8800 36900 9000 36900
Wire Wire Line
	9000 36900 9000 37200
Wire Wire Line
	9000 36200 9000 36100
Wire Wire Line
	9000 36100 8800 36100
Wire Wire Line
	9000 36100 9300 36100
Wire Wire Line
	9300 36100 9500 36100
Wire Wire Line
	9500 36100 9500 36400
Wire Wire Line
	9500 36100 10100 36100
Wire Wire Line
	9300 36800 9300 36100
Wire Wire Line
	9300 36100 9300 35800
Connection ~ 9000 36100
Connection ~ 9500 36100
Connection ~ 9300 36100
Text GLabel 9300 35800 3    70   BiDi ~ 0
VBATT
Wire Wire Line
	10500 36100 10700 36100
Wire Wire Line
	10700 36100 11300 36100
Wire Wire Line
	11300 36100 11300 36300
Wire Wire Line
	10700 35700 10700 36100
Wire Wire Line
	11300 36100 11600 36100
Connection ~ 10700 36100
Connection ~ 11300 36100
Wire Wire Line
	9600 37100 9500 37100
Wire Wire Line
	9500 37100 9500 36800
$Comp
L MKRZero_V5.0-eagle-import:ATSAMD21G18A-48 U3
U 2 1 C6A83FCE
P 8300 39900
AR Path="/C6A83FCE" Ref="U3"  Part="2" 
AR Path="/5DA56FA4/C6A83FCE" Ref="U3"  Part="2" 
F 0 "U3" H 7700 40920 59  0000 L BNN
F 1 "ATSAMD21G18A-48" H 7700 38880 59  0000 L TNN
F 2 "MKRZero_V5.0:QFN50P700X700X90-49XN-EPSQ515" H 8300 39900 50  0001 C CNN
F 3 "" H 8300 39900 50  0001 C CNN
	2    8300 39900
	1    0    0    -1  
$EndComp
$Comp
L MKRZero_V5.0-eagle-import:ATECC508A-MAHDA-T U4
U 2 1 67303E84
P 11600 39900
AR Path="/67303E84" Ref="U4"  Part="2" 
AR Path="/5DA56FA4/67303E84" Ref="U4"  Part="2" 
F 0 "U4" H 11300 40220 59  0000 L BNN
F 1 "ATECC508A-DNP" H 11300 39580 59  0000 L TNN
F 2 "MKRZero_V5.0:SON50P300X200X60-9N-EP160X140" H 11600 39900 50  0001 C CNN
F 3 "" H 11600 39900 50  0001 C CNN
	2    11600 39900
	1    0    0    -1  
$EndComp
$Comp
L MKRZero_V5.0-eagle-import:C-0402 C19
U 1 1 93FC45DF
P 7500 39200
AR Path="/93FC45DF" Ref="C19"  Part="1" 
AR Path="/5DA56FA4/93FC45DF" Ref="C19"  Part="1" 
F 0 "C19" H 7380 39215 59  0000 R BNN
F 1 "100nF" H 7380 39185 59  0000 R TNN
F 2 "MKRZero_V5.0:0402-1005X55N" H 7500 39200 50  0001 C CNN
F 3 "" H 7500 39200 50  0001 C CNN
	1    7500 39200
	1    0    0    -1  
$EndComp
$Comp
L MKRZero_V5.0-eagle-import:GND #GND1
U 1 1 8DA2BB24
P 7500 39600
AR Path="/8DA2BB24" Ref="#GND1"  Part="1" 
AR Path="/5DA56FA4/8DA2BB24" Ref="#GND01"  Part="1" 
F 0 "#GND01" H 7500 39600 50  0001 C CNN
F 1 "GND" H 7400 39500 59  0000 L BNN
F 2 "" H 7500 39600 50  0001 C CNN
F 3 "" H 7500 39600 50  0001 C CNN
	1    7500 39600
	1    0    0    -1  
$EndComp
$Comp
L MKRZero_V5.0-eagle-import:GND #GND2
U 1 1 4877C9E2
P 7500 40500
AR Path="/4877C9E2" Ref="#GND2"  Part="1" 
AR Path="/5DA56FA4/4877C9E2" Ref="#GND02"  Part="1" 
F 0 "#GND02" H 7500 40500 50  0001 C CNN
F 1 "GND" H 7400 40400 59  0000 L BNN
F 2 "" H 7500 40500 50  0001 C CNN
F 3 "" H 7500 40500 50  0001 C CNN
	1    7500 40500
	1    0    0    -1  
$EndComp
$Comp
L MKRZero_V5.0-eagle-import:GND #GND3
U 1 1 21137572
P 7500 41300
AR Path="/21137572" Ref="#GND3"  Part="1" 
AR Path="/5DA56FA4/21137572" Ref="#GND03"  Part="1" 
F 0 "#GND03" H 7500 41300 50  0001 C CNN
F 1 "GND" H 7400 41200 59  0000 L BNN
F 2 "" H 7500 41300 50  0001 C CNN
F 3 "" H 7500 41300 50  0001 C CNN
	1    7500 41300
	1    0    0    -1  
$EndComp
$Comp
L MKRZero_V5.0-eagle-import:GND #GND4
U 1 1 12C122FD
P 11100 40300
AR Path="/12C122FD" Ref="#GND4"  Part="1" 
AR Path="/5DA56FA4/12C122FD" Ref="#GND04"  Part="1" 
F 0 "#GND04" H 11100 40300 50  0001 C CNN
F 1 "GND" H 11000 40200 59  0000 L BNN
F 2 "" H 11100 40300 50  0001 C CNN
F 3 "" H 11100 40300 50  0001 C CNN
	1    11100 40300
	1    0    0    -1  
$EndComp
$Comp
L MKRZero_V5.0-eagle-import:+3V3 #+3V3
U 1 1 EB5F8C4A
P 7500 38800
AR Path="/EB5F8C4A" Ref="#+3V3"  Part="1" 
AR Path="/5DA56FA4/EB5F8C4A" Ref="#+3V03"  Part="1" 
F 0 "#+3V03" H 7500 38800 50  0001 C CNN
F 1 "+3V3" H 7500 38820 59  0000 C BNN
F 2 "" H 7500 38800 50  0001 C CNN
F 3 "" H 7500 38800 50  0001 C CNN
	1    7500 38800
	1    0    0    -1  
$EndComp
$Comp
L MKRZero_V5.0-eagle-import:+3V3 #+3V4
U 1 1 3511C8A8
P 11100 39500
AR Path="/3511C8A8" Ref="#+3V4"  Part="1" 
AR Path="/5DA56FA4/3511C8A8" Ref="#+3V04"  Part="1" 
F 0 "#+3V04" H 11100 39500 50  0001 C CNN
F 1 "+3V3" H 11100 39520 59  0000 C BNN
F 2 "" H 11100 39500 50  0001 C CNN
F 3 "" H 11100 39500 50  0001 C CNN
	1    11100 39500
	1    0    0    -1  
$EndComp
$Comp
L MKRZero_V5.0-eagle-import:+3V3 #+3V5
U 1 1 54464806
P 7300 40800
AR Path="/54464806" Ref="#+3V5"  Part="1" 
AR Path="/5DA56FA4/54464806" Ref="#+3V05"  Part="1" 
F 0 "#+3V05" H 7300 40800 50  0001 C CNN
F 1 "+3V3" V 7300 40830 59  0000 L CNN
F 2 "" H 7300 40800 50  0001 C CNN
F 3 "" H 7300 40800 50  0001 C CNN
	1    7300 40800
	0    -1   -1   0   
$EndComp
$Comp
L MKRZero_V5.0-eagle-import:GND #GND5
U 1 1 5B6A58CA
P 9100 41000
AR Path="/5B6A58CA" Ref="#GND5"  Part="1" 
AR Path="/5DA56FA4/5B6A58CA" Ref="#GND05"  Part="1" 
F 0 "#GND05" H 9100 41000 50  0001 C CNN
F 1 "GND" H 9000 40900 59  0000 L BNN
F 2 "" H 9100 41000 50  0001 C CNN
F 3 "" H 9100 41000 50  0001 C CNN
	1    9100 41000
	1    0    0    -1  
$EndComp
$Comp
L MKRZero_V5.0-eagle-import:C-0402 C30
U 1 1 107458DA
P 9100 40100
AR Path="/107458DA" Ref="C30"  Part="1" 
AR Path="/5DA56FA4/107458DA" Ref="C30"  Part="1" 
F 0 "C30" H 9220 40115 59  0000 L BNN
F 1 "100nF" H 9220 40085 59  0000 L TNN
F 2 "MKRZero_V5.0:0402-1005X55N" H 9100 40100 50  0001 C CNN
F 3 "" H 9100 40100 50  0001 C CNN
	1    9100 40100
	1    0    0    -1  
$EndComp
$Comp
L MKRZero_V5.0-eagle-import:C-0402 C32
U 1 1 37F4C7BF
P 7500 40100
AR Path="/37F4C7BF" Ref="C32"  Part="1" 
AR Path="/5DA56FA4/37F4C7BF" Ref="C32"  Part="1" 
F 0 "C32" H 7380 40115 59  0000 R BNN
F 1 "1uF" H 7380 40085 59  0000 R TNN
F 2 "MKRZero_V5.0:0402-1005X55N" H 7500 40100 50  0001 C CNN
F 3 "" H 7500 40100 50  0001 C CNN
	1    7500 40100
	1    0    0    -1  
$EndComp
$Comp
L MKRZero_V5.0-eagle-import:C-0402 C28
U 1 1 AB97CB13
P 7500 41000
AR Path="/AB97CB13" Ref="C28"  Part="1" 
AR Path="/5DA56FA4/AB97CB13" Ref="C28"  Part="1" 
F 0 "C28" H 7380 41015 59  0000 R BNN
F 1 "100nF" H 7380 40985 59  0000 R TNN
F 2 "MKRZero_V5.0:0402-1005X55N" H 7500 41000 50  0001 C CNN
F 3 "" H 7500 41000 50  0001 C CNN
	1    7500 41000
	1    0    0    -1  
$EndComp
$Comp
L MKRZero_V5.0-eagle-import:C-0402 C33
U 1 1 CB700FE0
P 11100 39900
AR Path="/CB700FE0" Ref="C33"  Part="1" 
AR Path="/5DA56FA4/CB700FE0" Ref="C33"  Part="1" 
F 0 "C33" H 10980 39915 59  0000 R BNN
F 1 "100nF" H 10980 39885 59  0000 R TNN
F 2 "MKRZero_V5.0:0402-1005X55N" H 11100 39900 50  0001 C CNN
F 3 "" H 11100 39900 50  0001 C CNN
	1    11100 39900
	1    0    0    -1  
$EndComp
$Comp
L MKRZero_V5.0-eagle-import:C-0402 C29
U 1 1 BCAFF6B0
P 9100 39200
AR Path="/BCAFF6B0" Ref="C29"  Part="1" 
AR Path="/5DA56FA4/BCAFF6B0" Ref="C29"  Part="1" 
F 0 "C29" H 9220 39215 59  0000 L BNN
F 1 "100nF" H 9220 39175 59  0000 L TNN
F 2 "MKRZero_V5.0:0402-1005X55N" H 9100 39200 50  0001 C CNN
F 3 "" H 9100 39200 50  0001 C CNN
	1    9100 39200
	1    0    0    -1  
$EndComp
$Comp
L MKRZero_V5.0-eagle-import:C-0402 C27
U 1 1 9DA0FFA2
P 9700 40100
AR Path="/9DA0FFA2" Ref="C27"  Part="1" 
AR Path="/5DA56FA4/9DA0FFA2" Ref="C27"  Part="1" 
F 0 "C27" H 9820 40115 59  0000 L BNN
F 1 "4.7uF" H 9820 40085 59  0000 L TNN
F 2 "MKRZero_V5.0:0402-1005X55N" H 9700 40100 50  0001 C CNN
F 3 "" H 9700 40100 50  0001 C CNN
	1    9700 40100
	1    0    0    -1  
$EndComp
$Comp
L MKRZero_V5.0-eagle-import:GND #GND6
U 1 1 F6847280
P 9100 39600
AR Path="/F6847280" Ref="#GND6"  Part="1" 
AR Path="/5DA56FA4/F6847280" Ref="#GND06"  Part="1" 
F 0 "#GND06" H 9100 39600 50  0001 C CNN
F 1 "GND" H 9000 39500 59  0000 L BNN
F 2 "" H 9100 39600 50  0001 C CNN
F 3 "" H 9100 39600 50  0001 C CNN
	1    9100 39600
	1    0    0    -1  
$EndComp
$Comp
L MKRZero_V5.0-eagle-import:+3V3 #+3V6
U 1 1 776068A4
P 9100 38800
AR Path="/776068A4" Ref="#+3V6"  Part="1" 
AR Path="/5DA56FA4/776068A4" Ref="#+3V06"  Part="1" 
F 0 "#+3V06" H 9100 38800 50  0001 C CNN
F 1 "+3V3" H 9100 38820 59  0000 C BNN
F 2 "" H 9100 38800 50  0001 C CNN
F 3 "" H 9100 38800 50  0001 C CNN
	1    9100 38800
	1    0    0    -1  
$EndComp
$Comp
L MKRZero_V5.0-eagle-import:BLM18PG471SN1D L6
U 1 1 EA1B7673
P 9700 39600
AR Path="/EA1B7673" Ref="L6"  Part="1" 
AR Path="/5DA56FA4/EA1B7673" Ref="L6"  Part="1" 
F 0 "L6" V 9680 39700 59  0000 L BNN
F 1 "BLM18PG471SN1D" V 9720 39700 59  0000 L TNN
F 2 "MKRZero_V5.0:0603-1608X90N" H 9700 39600 50  0001 C CNN
F 3 "" H 9700 39600 50  0001 C CNN
	1    9700 39600
	0    1    1    0   
$EndComp
$Comp
L MKRZero_V5.0-eagle-import:+3V3 #+3V7
U 1 1 A67731B0
P 9700 39200
AR Path="/A67731B0" Ref="#+3V7"  Part="1" 
AR Path="/5DA56FA4/A67731B0" Ref="#+3V07"  Part="1" 
F 0 "#+3V07" H 9700 39200 50  0001 C CNN
F 1 "+3V3" H 9700 39220 59  0000 C BNN
F 2 "" H 9700 39200 50  0001 C CNN
F 3 "" H 9700 39200 50  0001 C CNN
	1    9700 39200
	1    0    0    -1  
$EndComp
$Comp
L MKRZero_V5.0-eagle-import:VUSB #U$3
U 1 1 6E1B97F5
P 4100 35900
AR Path="/6E1B97F5" Ref="#U$3"  Part="1" 
AR Path="/5DA56FA4/6E1B97F5" Ref="#U$03"  Part="1" 
F 0 "#U$03" H 4100 35900 50  0001 C CNN
F 1 "VUSB" H 4100 35920 59  0000 C BNN
F 2 "" H 4100 35900 50  0001 C CNN
F 3 "" H 4100 35900 50  0001 C CNN
	1    4100 35900
	1    0    0    -1  
$EndComp
$Comp
L MKRZero_V5.0-eagle-import:R-0402 R8
U 1 1 B154411E
P 5100 36300
AR Path="/B154411E" Ref="R8"  Part="1" 
AR Path="/5DA56FA4/B154411E" Ref="R8"  Part="1" 
F 0 "R8" H 5100 36350 59  0000 C BNN
F 1 "10K" H 5100 36250 59  0000 C TNN
F 2 "MKRZero_V5.0:0402-1005X55N" H 5100 36300 50  0001 C CNN
F 3 "" H 5100 36300 50  0001 C CNN
	1    5100 36300
	0    -1   -1   0   
$EndComp
$Comp
L MKRZero_V5.0-eagle-import:DMP2160UFDB Q2
U 1 1 FC4D4FCD
P 4700 36100
AR Path="/FC4D4FCD" Ref="Q2"  Part="1" 
AR Path="/5DA56FA4/FC4D4FCD" Ref="Q2"  Part="1" 
F 0 "Q2" V 4920 36100 59  0000 C TNN
F 1 "DMP2160UFDB" V 4810 36100 59  0000 C TNN
F 2 "MKRZero_V5.0:SON65P200X200X60-8N-DM" H 4700 36100 50  0001 C CNN
F 3 "" H 4700 36100 50  0001 C CNN
	1    4700 36100
	0    1    -1   0   
$EndComp
$Comp
L MKRZero_V5.0-eagle-import:DMP2160UFDB Q2
U 2 1 FC4D4FC1
P 5500 36100
AR Path="/FC4D4FC1" Ref="Q2"  Part="2" 
AR Path="/5DA56FA4/FC4D4FC1" Ref="Q2"  Part="2" 
F 0 "Q2" V 5720 36090 59  0000 C TNN
F 1 "DMP2160UFDB" V 5610 36100 59  0000 C TNN
F 2 "MKRZero_V5.0:SON65P200X200X60-8N-DM" H 5500 36100 50  0001 C CNN
F 3 "" H 5500 36100 50  0001 C CNN
	2    5500 36100
	0    -1   -1   0   
$EndComp
$Comp
L MKRZero_V5.0-eagle-import:GND #GND24
U 1 1 157BD418
P 5100 37600
AR Path="/157BD418" Ref="#GND24"  Part="1" 
AR Path="/5DA56FA4/157BD418" Ref="#GND024"  Part="1" 
F 0 "#GND024" H 5100 37600 50  0001 C CNN
F 1 "GND" H 5000 37500 59  0000 L BNN
F 2 "" H 5100 37600 50  0001 C CNN
F 3 "" H 5100 37600 50  0001 C CNN
	1    5100 37600
	1    0    0    -1  
$EndComp
$Comp
L MKRZero_V5.0-eagle-import:R-0402 R1
U 1 1 696CF880
P 4300 37700
AR Path="/696CF880" Ref="R1"  Part="1" 
AR Path="/5DA56FA4/696CF880" Ref="R1"  Part="1" 
F 0 "R1" V 4310 37650 59  0000 R TNN
F 1 "330R" V 4290 37650 59  0000 R BNN
F 2 "MKRZero_V5.0:0402-1005X55N" H 4300 37700 50  0001 C CNN
F 3 "" H 4300 37700 50  0001 C CNN
	1    4300 37700
	0    -1   -1   0   
$EndComp
$Comp
L MKRZero_V5.0-eagle-import:PMEG2005EL D2
U 1 1 0CADE672
P 4700 36700
AR Path="/0CADE672" Ref="D2"  Part="1" 
AR Path="/5DA56FA4/0CADE672" Ref="D2"  Part="1" 
F 0 "D2" H 4700 36625 59  0000 C TNN
F 1 "PMEG2005EL" H 4700 36775 59  0000 C BNN
F 2 "MKRZero_V5.0:SODFL1008X40N-882D" H 4700 36700 50  0001 C CNN
F 3 "" H 4700 36700 50  0001 C CNN
	1    4700 36700
	-1   0    0    1   
$EndComp
$Comp
L MKRZero_V5.0-eagle-import:DMP2160UFDB Q5
U 1 1 A335FF6A
P 4800 38300
AR Path="/A335FF6A" Ref="Q5"  Part="1" 
AR Path="/5DA56FA4/A335FF6A" Ref="Q5"  Part="1" 
F 0 "Q5" V 5020 38300 59  0000 C TNN
F 1 "DMP2160UFDB" V 4910 38300 59  0000 C TNN
F 2 "MKRZero_V5.0:SON65P200X200X60-8N-DM" H 4800 38300 50  0001 C CNN
F 3 "" H 4800 38300 50  0001 C CNN
	1    4800 38300
	0    1    -1   0   
$EndComp
$Comp
L MKRZero_V5.0-eagle-import:DMP2160UFDB Q5
U 2 1 A335FF66
P 5600 38300
AR Path="/A335FF66" Ref="Q5"  Part="2" 
AR Path="/5DA56FA4/A335FF66" Ref="Q5"  Part="2" 
F 0 "Q5" V 5820 38290 59  0000 C TNN
F 1 "DMP2160UFDB" V 5710 38300 59  0000 C TNN
F 2 "MKRZero_V5.0:SON65P200X200X60-8N-DM" H 5600 38300 50  0001 C CNN
F 3 "" H 5600 38300 50  0001 C CNN
	2    5600 38300
	0    -1   -1   0   
$EndComp
$Comp
L MKRZero_V5.0-eagle-import:R-0402 R14
U 1 1 D8D65282
P 5200 38500
AR Path="/D8D65282" Ref="R14"  Part="1" 
AR Path="/5DA56FA4/D8D65282" Ref="R14"  Part="1" 
F 0 "R14" H 5200 38550 59  0000 C BNN
F 1 "10K" H 5200 38450 59  0000 C TNN
F 2 "MKRZero_V5.0:0402-1005X55N" H 5200 38500 50  0001 C CNN
F 3 "" H 5200 38500 50  0001 C CNN
	1    5200 38500
	0    -1   -1   0   
$EndComp
$Comp
L MKRZero_V5.0-eagle-import:R-0402 R12
U 1 1 0C5252B0
P 3900 39300
AR Path="/0C5252B0" Ref="R12"  Part="1" 
AR Path="/5DA56FA4/0C5252B0" Ref="R12"  Part="1" 
F 0 "R12" V 3910 39250 59  0000 R TNN
F 1 "100K" V 3890 39250 59  0000 R BNN
F 2 "MKRZero_V5.0:0402-1005X55N" H 3900 39300 50  0001 C CNN
F 3 "" H 3900 39300 50  0001 C CNN
	1    3900 39300
	0    -1   -1   0   
$EndComp
$Comp
L MKRZero_V5.0-eagle-import:R-0402 R11
U 1 1 C30C49FB
P 3900 38800
AR Path="/C30C49FB" Ref="R11"  Part="1" 
AR Path="/5DA56FA4/C30C49FB" Ref="R11"  Part="1" 
F 0 "R11" V 3910 38750 59  0000 R TNN
F 1 "100K" V 3890 38750 59  0000 R BNN
F 2 "MKRZero_V5.0:0402-1005X55N" H 3900 38800 50  0001 C CNN
F 3 "" H 3900 38800 50  0001 C CNN
	1    3900 38800
	0    -1   -1   0   
$EndComp
$Comp
L MKRZero_V5.0-eagle-import:GND #GND23
U 1 1 D027D65F
P 3900 39500
AR Path="/D027D65F" Ref="#GND23"  Part="1" 
AR Path="/5DA56FA4/D027D65F" Ref="#GND023"  Part="1" 
F 0 "#GND023" H 3900 39500 50  0001 C CNN
F 1 "GND" H 3800 39400 59  0000 L BNN
F 2 "" H 3900 39500 50  0001 C CNN
F 3 "" H 3900 39500 50  0001 C CNN
	1    3900 39500
	1    0    0    -1  
$EndComp
$Comp
L MKRZero_V5.0-eagle-import:GND #GND29
U 1 1 B0E7A0AF
P 4900 39500
AR Path="/B0E7A0AF" Ref="#GND29"  Part="1" 
AR Path="/5DA56FA4/B0E7A0AF" Ref="#GND029"  Part="1" 
F 0 "#GND029" H 4900 39500 50  0001 C CNN
F 1 "GND" H 4800 39400 59  0000 L BNN
F 2 "" H 4900 39500 50  0001 C CNN
F 3 "" H 4900 39500 50  0001 C CNN
	1    4900 39500
	1    0    0    -1  
$EndComp
$Comp
L MKRZero_V5.0-eagle-import:R-0402 R6
U 1 1 E5D7C87D
P 4300 36400
AR Path="/E5D7C87D" Ref="R6"  Part="1" 
AR Path="/5DA56FA4/E5D7C87D" Ref="R6"  Part="1" 
F 0 "R6" V 4310 36350 59  0000 R TNN
F 1 "100K" V 4290 36350 59  0000 R BNN
F 2 "MKRZero_V5.0:0402-1005X55N" H 4300 36400 50  0001 C CNN
F 3 "" H 4300 36400 50  0001 C CNN
	1    4300 36400
	0    -1   -1   0   
$EndComp
$Comp
L MKRZero_V5.0-eagle-import:LED-0603 DL1
U 1 1 6E87C16A
P 6300 36600
AR Path="/6E87C16A" Ref="DL1"  Part="1" 
AR Path="/5DA56FA4/6E87C16A" Ref="DL1"  Part="1" 
F 0 "DL1" V 6390 36560 59  0000 L BNN
F 1 "GREEN" V 6390 36535 59  0000 L TNN
F 2 "MKRZero_V5.0:LEDC1608X80N-AK" H 6300 36600 50  0001 C CNN
F 3 "" H 6300 36600 50  0001 C CNN
	1    6300 36600
	1    0    0    -1  
$EndComp
$Comp
L MKRZero_V5.0-eagle-import:R-0402 R4
U 1 1 87949912
P 6300 36300
AR Path="/87949912" Ref="R4"  Part="1" 
AR Path="/5DA56FA4/87949912" Ref="R4"  Part="1" 
F 0 "R4" V 6310 36250 59  0000 R TNN
F 1 "330R" V 6290 36250 59  0000 R BNN
F 2 "MKRZero_V5.0:0402-1005X55N" H 6300 36300 50  0001 C CNN
F 3 "" H 6300 36300 50  0001 C CNN
	1    6300 36300
	0    -1   -1   0   
$EndComp
$Comp
L MKRZero_V5.0-eagle-import:GND #GND31
U 1 1 01958B23
P 6300 37000
AR Path="/01958B23" Ref="#GND31"  Part="1" 
AR Path="/5DA56FA4/01958B23" Ref="#GND031"  Part="1" 
F 0 "#GND031" H 6300 37000 50  0001 C CNN
F 1 "GND" H 6200 36900 59  0000 L BNN
F 2 "" H 6300 37000 50  0001 C CNN
F 3 "" H 6300 37000 50  0001 C CNN
	1    6300 37000
	1    0    0    -1  
$EndComp
$Comp
L MKRZero_V5.0-eagle-import:LED-0603 DL2
U 1 1 45514FBE
P 6900 36600
AR Path="/45514FBE" Ref="DL2"  Part="1" 
AR Path="/5DA56FA4/45514FBE" Ref="DL2"  Part="1" 
F 0 "DL2" V 6990 36560 59  0000 L BNN
F 1 "ORANGE" V 6990 36535 59  0000 L TNN
F 2 "MKRZero_V5.0:LEDC1608X80N-AK" H 6900 36600 50  0001 C CNN
F 3 "" H 6900 36600 50  0001 C CNN
	1    6900 36600
	1    0    0    -1  
$EndComp
$Comp
L MKRZero_V5.0-eagle-import:R-0402 R5
U 1 1 F7EF4BDF
P 6900 36300
AR Path="/F7EF4BDF" Ref="R5"  Part="1" 
AR Path="/5DA56FA4/F7EF4BDF" Ref="R5"  Part="1" 
F 0 "R5" V 6910 36250 59  0000 R TNN
F 1 "330R" V 6890 36250 59  0000 R BNN
F 2 "MKRZero_V5.0:0402-1005X55N" H 6900 36300 50  0001 C CNN
F 3 "" H 6900 36300 50  0001 C CNN
	1    6900 36300
	0    -1   -1   0   
$EndComp
$Comp
L MKRZero_V5.0-eagle-import:+5V #P+2
U 1 1 637B3A6A
P 6900 35900
AR Path="/637B3A6A" Ref="#P+2"  Part="1" 
AR Path="/5DA56FA4/637B3A6A" Ref="#P+02"  Part="1" 
F 0 "#P+02" H 6900 35900 50  0001 C CNN
F 1 "+5V" H 6900 35920 59  0000 C BNN
F 2 "" H 6900 35900 50  0001 C CNN
F 3 "" H 6900 35900 50  0001 C CNN
	1    6900 35900
	1    0    0    -1  
$EndComp
$Comp
L MKRZero_V5.0-eagle-import:VIN #U$4
U 1 1 649D799B
P 2800 38100
AR Path="/649D799B" Ref="#U$4"  Part="1" 
AR Path="/5DA56FA4/649D799B" Ref="#U$04"  Part="1" 
F 0 "#U$04" H 2800 38100 50  0001 C CNN
F 1 "VIN" H 2800 38120 59  0000 C BNN
F 2 "" H 2800 38100 50  0001 C CNN
F 3 "" H 2800 38100 50  0001 C CNN
	1    2800 38100
	1    0    0    -1  
$EndComp
$Comp
L MKRZero_V5.0-eagle-import:C-0402 C2
U 1 1 AC671DB5
P 7500 36300
AR Path="/AC671DB5" Ref="C2"  Part="1" 
AR Path="/5DA56FA4/AC671DB5" Ref="C2"  Part="1" 
F 0 "C2" H 7600 36390 59  0000 L CNN
F 1 "1uF" H 7600 36300 59  0000 L CNN
F 2 "MKRZero_V5.0:0402-1005X55N" H 7500 36300 50  0001 C CNN
F 3 "" H 7500 36300 50  0001 C CNN
F 4 "25V" H 7600 36210 59  0001 L CNN "VOLTAGE"
	1    7500 36300
	1    0    0    -1  
$EndComp
$Comp
L MKRZero_V5.0-eagle-import:GND #GND32
U 1 1 FD501343
P 7500 36500
AR Path="/FD501343" Ref="#GND32"  Part="1" 
AR Path="/5DA56FA4/FD501343" Ref="#GND032"  Part="1" 
F 0 "#GND032" H 7500 36500 50  0001 C CNN
F 1 "GND" H 7400 36400 59  0000 L BNN
F 2 "" H 7500 36500 50  0001 C CNN
F 3 "" H 7500 36500 50  0001 C CNN
	1    7500 36500
	1    0    0    -1  
$EndComp
$Comp
L MKRZero_V5.0-eagle-import:R-0402 R3
U 1 1 D714E69E
P 9000 37300
AR Path="/D714E69E" Ref="R3"  Part="1" 
AR Path="/5DA56FA4/D714E69E" Ref="R3"  Part="1" 
F 0 "R3" V 9010 37250 59  0000 R TNN
F 1 "2K87" V 8990 37250 59  0000 R BNN
F 2 "MKRZero_V5.0:0402-1005X55N" H 9000 37300 50  0001 C CNN
F 3 "" H 9000 37300 50  0001 C CNN
	1    9000 37300
	0    -1   -1   0   
$EndComp
$Comp
L MKRZero_V5.0-eagle-import:GND #GND34
U 1 1 85A992D2
P 9000 37600
AR Path="/85A992D2" Ref="#GND34"  Part="1" 
AR Path="/5DA56FA4/85A992D2" Ref="#GND034"  Part="1" 
F 0 "#GND034" H 9000 37600 50  0001 C CNN
F 1 "GND" H 8900 37500 59  0000 L BNN
F 2 "" H 9000 37600 50  0001 C CNN
F 3 "" H 9000 37600 50  0001 C CNN
	1    9000 37600
	1    0    0    -1  
$EndComp
$Comp
L MKRZero_V5.0-eagle-import:GND #GND35
U 1 1 A522C48C
P 9000 36800
AR Path="/A522C48C" Ref="#GND35"  Part="1" 
AR Path="/5DA56FA4/A522C48C" Ref="#GND035"  Part="1" 
F 0 "#GND035" H 9000 36800 50  0001 C CNN
F 1 "GND" H 8900 36700 59  0000 L BNN
F 2 "" H 9000 36800 50  0001 C CNN
F 3 "" H 9000 36800 50  0001 C CNN
	1    9000 36800
	1    0    0    -1  
$EndComp
$Comp
L MKRZero_V5.0-eagle-import:C-0402 C3
U 1 1 ECDD94AD
P 9000 36300
AR Path="/ECDD94AD" Ref="C3"  Part="1" 
AR Path="/5DA56FA4/ECDD94AD" Ref="C3"  Part="1" 
F 0 "C3" H 9100 36390 59  0000 L CNN
F 1 "1uF" H 9100 36300 59  0000 L CNN
F 2 "MKRZero_V5.0:0402-1005X55N" H 9000 36300 50  0001 C CNN
F 3 "" H 9000 36300 50  0001 C CNN
F 4 "25V" H 9100 36210 59  0001 L CNN "VOLTAGE"
	1    9000 36300
	1    0    0    -1  
$EndComp
$Comp
L MKRZero_V5.0-eagle-import:MF-FSMF050X-2 F1
U 1 1 BAEBDDEB
P 9500 36600
AR Path="/BAEBDDEB" Ref="F1"  Part="1" 
AR Path="/5DA56FA4/BAEBDDEB" Ref="F1"  Part="1" 
F 0 "F1" H 9600 36609 59  0000 L BNN
F 1 "MF-FSMF050X-2" H 9600 36525 59  0000 L BNN
F 2 "MKRZero_V5.0:0603-F1608X100N" H 9500 36600 50  0001 C CNN
F 3 "" H 9500 36600 50  0001 C CNN
	1    9500 36600
	1    0    0    -1  
$EndComp
$Comp
L MKRZero_V5.0-eagle-import:R-0402 R10
U 1 1 35223906
P 9900 35500
AR Path="/35223906" Ref="R10"  Part="1" 
AR Path="/5DA56FA4/35223906" Ref="R10"  Part="1" 
F 0 "R10" V 9910 35450 59  0000 R TNN
F 1 "100K" V 9890 35450 59  0000 R BNN
F 2 "MKRZero_V5.0:0402-1005X55N" H 9900 35500 50  0001 C CNN
F 3 "" H 9900 35500 50  0001 C CNN
	1    9900 35500
	0    -1   -1   0   
$EndComp
$Comp
L MKRZero_V5.0-eagle-import:GND #GND33
U 1 1 C5585B8D
P 9900 35700
AR Path="/C5585B8D" Ref="#GND33"  Part="1" 
AR Path="/5DA56FA4/C5585B8D" Ref="#GND033"  Part="1" 
F 0 "#GND033" H 9900 35700 50  0001 C CNN
F 1 "GND" H 9800 35600 59  0000 L BNN
F 2 "" H 9900 35700 50  0001 C CNN
F 3 "" H 9900 35700 50  0001 C CNN
	1    9900 35700
	1    0    0    -1  
$EndComp
$Comp
L MKRZero_V5.0-eagle-import:GND #GND36
U 1 1 CF583ECA
P 9500 37600
AR Path="/CF583ECA" Ref="#GND36"  Part="1" 
AR Path="/5DA56FA4/CF583ECA" Ref="#GND036"  Part="1" 
F 0 "#GND036" H 9500 37600 50  0001 C CNN
F 1 "GND" H 9400 37500 59  0000 L BNN
F 2 "" H 9500 37600 50  0001 C CNN
F 3 "" H 9500 37600 50  0001 C CNN
	1    9500 37600
	1    0    0    -1  
$EndComp
$Comp
L MKRZero_V5.0-eagle-import:SIA817EDJ Q3
U 1 1 9A1C1EBA
P 10300 36100
AR Path="/9A1C1EBA" Ref="Q3"  Part="1" 
AR Path="/5DA56FA4/9A1C1EBA" Ref="Q3"  Part="1" 
F 0 "Q3" V 10400 36100 59  0000 C TNN
F 1 "SIA817EDJ" V 10500 36100 59  0000 C TNN
F 2 "MKRZero_V5.0:SON65P205X205X75-8N-MWSD" H 10300 36100 50  0001 C CNN
F 3 "" H 10300 36100 50  0001 C CNN
	1    10300 36100
	0    1    1    0   
$EndComp
$Comp
L MKRZero_V5.0-eagle-import:SIA817EDJ Q3
U 2 1 9A1C1EB6
P 10700 35600
AR Path="/9A1C1EB6" Ref="Q3"  Part="2" 
AR Path="/5DA56FA4/9A1C1EB6" Ref="Q3"  Part="2" 
F 0 "Q3" V 10685 35700 59  0000 L BNN
F 1 "SIA817EDJ" V 10715 35700 59  0000 L TNN
F 2 "MKRZero_V5.0:SON65P205X205X75-8N-MWSD" H 10700 35600 50  0001 C CNN
F 3 "" H 10700 35600 50  0001 C CNN
	2    10700 35600
	0    1    1    0   
$EndComp
$Comp
L MKRZero_V5.0-eagle-import:C-0402 C8
U 1 1 C35D9C21
P 11300 36400
AR Path="/C35D9C21" Ref="C8"  Part="1" 
AR Path="/5DA56FA4/C35D9C21" Ref="C8"  Part="1" 
F 0 "C8" H 11400 36490 59  0000 L CNN
F 1 "1uF" H 11400 36400 59  0000 L CNN
F 2 "MKRZero_V5.0:0402-1005X55N" H 11300 36400 50  0001 C CNN
F 3 "" H 11300 36400 50  0001 C CNN
F 4 "25V" H 11400 36310 59  0001 L CNN "VOLTAGE"
	1    11300 36400
	1    0    0    -1  
$EndComp
$Comp
L MKRZero_V5.0-eagle-import:GND #GND37
U 1 1 A56E8B01
P 11300 36800
AR Path="/A56E8B01" Ref="#GND37"  Part="1" 
AR Path="/5DA56FA4/A56E8B01" Ref="#GND037"  Part="1" 
F 0 "#GND037" H 11300 36800 50  0001 C CNN
F 1 "GND" H 11200 36700 59  0000 L BNN
F 2 "" H 11300 36800 50  0001 C CNN
F 3 "" H 11300 36800 50  0001 C CNN
	1    11300 36800
	1    0    0    -1  
$EndComp
$Comp
L MKRZero_V5.0-eagle-import:AP7215-33YG-13 U2
U 1 1 4E0AB7A9
P 12100 36200
AR Path="/4E0AB7A9" Ref="U2"  Part="1" 
AR Path="/5DA56FA4/4E0AB7A9" Ref="U2"  Part="1" 
F 0 "U2" H 11700 36520 59  0000 L BNN
F 1 "AP7215-33YG-13" H 11700 36420 59  0000 L BNN
F 2 "MKRZero_V5.0:SOT150P400X160-3N" H 12100 36200 50  0001 C CNN
F 3 "" H 12100 36200 50  0001 C CNN
	1    12100 36200
	1    0    0    -1  
$EndComp
$Comp
L MKRZero_V5.0-eagle-import:GND #GND38
U 1 1 35D5721E
P 12100 36800
AR Path="/35D5721E" Ref="#GND38"  Part="1" 
AR Path="/5DA56FA4/35D5721E" Ref="#GND038"  Part="1" 
F 0 "#GND038" H 12100 36800 50  0001 C CNN
F 1 "GND" H 12000 36700 59  0000 L BNN
F 2 "" H 12100 36800 50  0001 C CNN
F 3 "" H 12100 36800 50  0001 C CNN
	1    12100 36800
	1    0    0    -1  
$EndComp
$Comp
L MKRZero_V5.0-eagle-import:C-0402 C10
U 1 1 0A51D459
P 12800 36400
AR Path="/0A51D459" Ref="C10"  Part="1" 
AR Path="/5DA56FA4/0A51D459" Ref="C10"  Part="1" 
F 0 "C10" H 12900 36490 59  0000 L CNN
F 1 "1uF" H 12900 36400 59  0000 L CNN
F 2 "MKRZero_V5.0:0402-1005X55N" H 12800 36400 50  0001 C CNN
F 3 "" H 12800 36400 50  0001 C CNN
F 4 "25V" H 12900 36310 59  0001 L CNN "VOLTAGE"
	1    12800 36400
	1    0    0    -1  
$EndComp
$Comp
L MKRZero_V5.0-eagle-import:GND #GND39
U 1 1 76CA36D4
P 12800 36800
AR Path="/76CA36D4" Ref="#GND39"  Part="1" 
AR Path="/5DA56FA4/76CA36D4" Ref="#GND039"  Part="1" 
F 0 "#GND039" H 12800 36800 50  0001 C CNN
F 1 "GND" H 12700 36700 59  0000 L BNN
F 2 "" H 12800 36800 50  0001 C CNN
F 3 "" H 12800 36800 50  0001 C CNN
	1    12800 36800
	1    0    0    -1  
$EndComp
$Comp
L MKRZero_V5.0-eagle-import:+3V3 #+3V12
U 1 1 34CFF32A
P 12800 35900
AR Path="/34CFF32A" Ref="#+3V12"  Part="1" 
AR Path="/5DA56FA4/34CFF32A" Ref="#+3V012"  Part="1" 
F 0 "#+3V012" H 12800 35900 50  0001 C CNN
F 1 "+3V3" H 12800 35920 59  0000 C BNN
F 2 "" H 12800 35900 50  0001 C CNN
F 3 "" H 12800 35900 50  0001 C CNN
	1    12800 35900
	1    0    0    -1  
$EndComp
$Comp
L MKRZero_V5.0-eagle-import:FIDUCIALMOUNT FD1
U 1 1 FEEA320C
P 15100 40600
AR Path="/FEEA320C" Ref="FD1"  Part="1" 
AR Path="/5DA56FA4/FEEA320C" Ref="FD1"  Part="1" 
F 0 "FD1" H 15100 40600 50  0001 C CNN
F 1 "FIDUCIALMOUNT" H 15100 40600 50  0001 C CNN
F 2 "MKRZero_V5.0:FIDUCIAL-MOUNT" H 15100 40600 50  0001 C CNN
F 3 "" H 15100 40600 50  0001 C CNN
	1    15100 40600
	1    0    0    -1  
$EndComp
$Comp
L MKRZero_V5.0-eagle-import:FIDUCIALMOUNT FD2
U 1 1 95FAA9EC
P 15100 40800
AR Path="/95FAA9EC" Ref="FD2"  Part="1" 
AR Path="/5DA56FA4/95FAA9EC" Ref="FD2"  Part="1" 
F 0 "FD2" H 15100 40800 50  0001 C CNN
F 1 "FIDUCIALMOUNT" H 15100 40800 50  0001 C CNN
F 2 "MKRZero_V5.0:FIDUCIAL-MOUNT" H 15100 40800 50  0001 C CNN
F 3 "" H 15100 40800 50  0001 C CNN
	1    15100 40800
	1    0    0    -1  
$EndComp
$Comp
L MKRZero_V5.0-eagle-import:GND #GND40
U 1 1 2B74A96F
P 9100 40500
AR Path="/2B74A96F" Ref="#GND40"  Part="1" 
AR Path="/5DA56FA4/2B74A96F" Ref="#GND040"  Part="1" 
F 0 "#GND040" H 9100 40500 50  0001 C CNN
F 1 "GND" H 9000 40400 59  0000 L BNN
F 2 "" H 9100 40500 50  0001 C CNN
F 3 "" H 9100 40500 50  0001 C CNN
	1    9100 40500
	1    0    0    -1  
$EndComp
$Comp
L MKRZero_V5.0-eagle-import:2N7002T Q1
U 1 1 22BC07EB
P 5100 37100
AR Path="/22BC07EB" Ref="Q1"  Part="1" 
AR Path="/5DA56FA4/22BC07EB" Ref="Q1"  Part="1" 
F 0 "Q1" H 5200 37100 59  0000 L BNN
F 1 "2N7002T" H 5200 37000 59  0000 L BNN
F 2 "MKRZero_V5.0:SOTFL50P160X78-3" H 5100 37100 50  0001 C CNN
F 3 "" H 5100 37100 50  0001 C CNN
	1    5100 37100
	1    0    0    -1  
$EndComp
$Comp
L MKRZero_V5.0-eagle-import:2N7002T Q4
U 1 1 22452E8B
P 4900 39000
AR Path="/22452E8B" Ref="Q4"  Part="1" 
AR Path="/5DA56FA4/22452E8B" Ref="Q4"  Part="1" 
F 0 "Q4" H 5000 39000 59  0000 L BNN
F 1 "2N7002T" H 5000 38900 59  0000 L BNN
F 2 "MKRZero_V5.0:SOTFL50P160X78-3" H 4900 39000 50  0001 C CNN
F 3 "" H 4900 39000 50  0001 C CNN
	1    4900 39000
	1    0    0    -1  
$EndComp
$Comp
L MKRZero_V5.0-eagle-import:S2B-PH-SM4-TB J2
U 1 1 C3E76336
P 9800 37100
AR Path="/C3E76336" Ref="J2"  Part="1" 
AR Path="/5DA56FA4/C3E76336" Ref="J2"  Part="1" 
F 0 "J2" H 9700 37320 59  0000 L BNN
F 1 "S2B-PH-SM4-TB" H 9700 37220 59  0000 L BNN
F 2 "MKRZero_V5.0:JST-S2B-PH-SM4-TB" H 9800 37100 50  0001 C CNN
F 3 "" H 9800 37100 50  0001 C CNN
	1    9800 37100
	1    0    0    -1  
$EndComp
$Comp
L MKRZero_V5.0-eagle-import:MCP738312X3DFN U9
U 1 1 D16F6E60
P 8200 36500
AR Path="/D16F6E60" Ref="U9"  Part="1" 
AR Path="/5DA56FA4/D16F6E60" Ref="U9"  Part="1" 
F 0 "U9" H 7800 37100 42  0000 L BNN
F 1 "MCP738312X3DFN" H 7800 37000 42  0000 L BNN
F 2 "MKRZero_V5.0:2X3DFN" H 8200 36500 50  0001 C CNN
F 3 "" H 8200 36500 50  0001 C CNN
	1    8200 36500
	1    0    0    -1  
$EndComp
$Comp
L MKRZero_V5.0-eagle-import:PTR1B1,27 BATT+
U 1 1 D6B6A0C9
P 9500 36000
AR Path="/D6B6A0C9" Ref="BATT+"  Part="1" 
AR Path="/5DA56FA4/D6B6A0C9" Ref="BATT+1"  Part="1" 
F 0 "BATT+1" V 9460 35750 59  0000 L BNN
F 1 "PTR1B1,27" H 9500 36000 50  0001 C CNN
F 2 "MKRZero_V5.0:B1,27" H 9500 36000 50  0001 C CNN
F 3 "" H 9500 36000 50  0001 C CNN
	1    9500 36000
	-1   0    0    1   
$EndComp
$Comp
L MKRZero_V5.0-eagle-import:PTR1B1,27 BATT-
U 1 1 F6121854
P 9800 37500
AR Path="/F6121854" Ref="BATT-"  Part="1" 
AR Path="/5DA56FA4/F6121854" Ref="BATT-1"  Part="1" 
F 0 "BATT-1" V 9760 37250 59  0000 L BNN
F 1 "PTR1B1,27" H 9800 37500 50  0001 C CNN
F 2 "MKRZero_V5.0:B1,27" H 9800 37500 50  0001 C CNN
F 3 "" H 9800 37500 50  0001 C CNN
	1    9800 37500
	1    0    0    -1  
$EndComp
$Comp
L MKRZero_V5.0-eagle-import:D_SCHOTTKYSO123 D4
U 1 1 5BBC3B1B
P 9300 36900
AR Path="/5BBC3B1B" Ref="D4"  Part="1" 
AR Path="/5DA56FA4/5BBC3B1B" Ref="D4"  Part="1" 
F 0 "D4" H 9210 36975 59  0000 L BNN
F 1 "PMEG6020AELRX" H 9210 36765 59  0000 L BNN
F 2 "MKRZero_V5.0:SMA_DO123" H 9300 36900 50  0001 C CNN
F 3 "" H 9300 36900 50  0001 C CNN
	1    9300 36900
	0    -1   -1   0   
$EndComp
$Comp
L MKRZero_V5.0-eagle-import:FIDUCIALMOUNT FD3
U 1 1 D3FECBB7
P 15100 40400
AR Path="/D3FECBB7" Ref="FD3"  Part="1" 
AR Path="/5DA56FA4/D3FECBB7" Ref="FD3"  Part="1" 
F 0 "FD3" H 15100 40400 50  0001 C CNN
F 1 "FIDUCIALMOUNT" H 15100 40400 50  0001 C CNN
F 2 "MKRZero_V5.0:FIDUCIAL-MOUNT" H 15100 40400 50  0001 C CNN
F 3 "" H 15100 40400 50  0001 C CNN
	1    15100 40400
	1    0    0    -1  
$EndComp
$Comp
L MKRZero_V5.0-eagle-import:C-0402 C15
U 1 1 63AFA939
P 4450 39300
AR Path="/63AFA939" Ref="C15"  Part="1" 
AR Path="/5DA56FA4/63AFA939" Ref="C15"  Part="1" 
F 0 "C15" H 4550 39390 59  0000 L CNN
F 1 "100nF" H 4550 39300 59  0000 L CNN
F 2 "MKRZero_V5.0:0402-1005X55N" H 4450 39300 50  0001 C CNN
F 3 "" H 4450 39300 50  0001 C CNN
F 4 "25V" H 4510 39165 59  0001 L BNN "VOLTAGE"
	1    4450 39300
	1    0    0    -1  
$EndComp
$Comp
L MKRZero_V5.0-eagle-import:GND #GND30
U 1 1 A606055F
P 4450 39500
AR Path="/A606055F" Ref="#GND30"  Part="1" 
AR Path="/5DA56FA4/A606055F" Ref="#GND030"  Part="1" 
F 0 "#GND030" H 4450 39500 50  0001 C CNN
F 1 "GND" H 4350 39400 59  0000 L BNN
F 2 "" H 4450 39500 50  0001 C CNN
F 3 "" H 4450 39500 50  0001 C CNN
	1    4450 39500
	1    0    0    -1  
$EndComp
$Comp
L MKRZero_V5.0-eagle-import:A3-FRAME FRAME2
U 1 1 54AFF43D
P 800 43400
AR Path="/54AFF43D" Ref="FRAME2"  Part="1" 
AR Path="/5DA56FA4/54AFF43D" Ref="FRAME2"  Part="1" 
F 0 "FRAME2" H 800 43400 50  0001 C CNN
F 1 "DNP" H 800 43400 50  0001 C CNN
F 2 "MKRZero_V5.0:FRAME" H 800 43400 50  0001 C CNN
F 3 "" H 800 43400 50  0001 C CNN
	1    800  43400
	1    0    0    -1  
$EndComp
Text Notes 14350 42600 0    59   ~ 0
Arturo Guadalupi
$EndSCHEMATC
