EESchema Schematic File Version 4
EELAYER 30 0
EELAYER END
$Descr User 16749 44220
encoding utf-8
Sheet 1 3
Title ""
Date ""
Rev ""
Comp ""
Comment1 ""
Comment2 ""
Comment3 ""
Comment4 ""
$EndDescr
Wire Bus Line
	9700 37700 9700 41600
Wire Bus Line
	9700 41600 9600 41700
Wire Bus Line
	9600 41700 8700 41700
Wire Bus Line
	8700 41700 8600 41600
Wire Bus Line
	8600 41600 8600 39200
Wire Bus Line
	9700 41600 9800 41700
Wire Bus Line
	9800 41700 14500 41700
Wire Bus Line
	14500 41700 14600 41600
Wire Bus Line
	14600 41600 14600 37800
Wire Wire Line
	12600 41200 12600 40000
Wire Wire Line
	12500 40000 12600 40000
Text GLabel 12600 41200 0    10   BiDi ~ 0
GND
Wire Wire Line
	7200 42300 7200 42200
Text GLabel 7200 42300 0    10   BiDi ~ 0
GND
Wire Wire Line
	7700 42300 7700 42200
Text GLabel 7700 42300 0    10   BiDi ~ 0
GND
Wire Wire Line
	3900 34700 3900 34600
Text GLabel 3900 34700 0    10   BiDi ~ 0
GND
Wire Wire Line
	4500 34600 4500 34700
Text GLabel 4500 34600 0    10   BiDi ~ 0
GND
Wire Wire Line
	3500 37900 3500 37800
Wire Wire Line
	3900 38000 3700 38000
Wire Wire Line
	3700 38000 3700 37800
Wire Wire Line
	3700 37800 3700 37600
Wire Wire Line
	3700 37600 3900 37600
Wire Wire Line
	3500 37800 3700 37800
Connection ~ 3700 37800
Text GLabel 3500 37900 0    10   BiDi ~ 0
GND
Wire Wire Line
	2800 40700 2800 40600
Wire Wire Line
	2800 40400 2800 40600
Wire Wire Line
	2900 40400 2800 40400
Text GLabel 2800 40700 0    10   BiDi ~ 0
GND
Wire Wire Line
	3900 41600 3900 41800
Text GLabel 3900 41600 0    10   BiDi ~ 0
GND
Wire Wire Line
	11400 38400 11400 38300
Wire Wire Line
	11400 38300 11400 38100
Wire Wire Line
	11400 38100 11500 38100
Wire Wire Line
	11700 38200 11700 38300
Wire Wire Line
	11700 38300 11400 38300
Connection ~ 11400 38300
Text GLabel 11400 38400 0    10   BiDi ~ 0
GND
Wire Wire Line
	2400 35500 2500 35500
Wire Wire Line
	2500 35500 2500 35600
Text GLabel 2400 35500 0    10   BiDi ~ 0
GND
Wire Wire Line
	2200 36600 2200 36700
Text GLabel 2200 36600 0    10   BiDi ~ 0
GND
Wire Wire Line
	2600 36700 2600 36600
Text GLabel 2600 36700 0    10   BiDi ~ 0
GND
Wire Wire Line
	9600 35850 9600 35750
Text GLabel 9600 35850 0    10   BiDi ~ 0
GND
Wire Wire Line
	9600 34100 9600 34250
Text GLabel 9600 34100 0    10   BiDi ~ 0
GND
Wire Wire Line
	8500 35500 8400 35500
Wire Wire Line
	8400 35500 8400 35600
Wire Wire Line
	8500 35100 8400 35100
Wire Wire Line
	8400 35100 8400 35500
Connection ~ 8400 35500
Text GLabel 8500 35500 0    10   BiDi ~ 0
GND
Wire Wire Line
	8750 34150 8850 34150
Text GLabel 8750 34150 0    10   BiDi ~ 0
GND
Wire Wire Line
	7700 37500 7700 37400
Text GLabel 7700 37500 0    10   BiDi ~ 0
GND
Wire Wire Line
	7250 37500 7250 37450
Text GLabel 7250 37500 0    10   BiDi ~ 0
GND
Wire Wire Line
	8700 36800 8600 36800
Text GLabel 8700 36800 0    10   BiDi ~ 0
GND
Wire Wire Line
	3400 41600 3400 41700
Wire Wire Line
	3400 41700 3400 41800
Wire Wire Line
	3400 41700 3600 41700
Wire Wire Line
	3600 41700 3600 41600
Connection ~ 3400 41700
Text GLabel 3400 41600 0    10   BiDi ~ 0
GND
Wire Wire Line
	9800 39700 11200 39700
Text Label 9800 39700 0    70   ~ 0
PA03_VREFA
Wire Wire Line
	7200 41500 8500 41500
Wire Wire Line
	7700 41900 7200 41900
Wire Wire Line
	7200 42000 7200 41900
Wire Wire Line
	7700 42000 7700 41900
Wire Wire Line
	7200 41900 7200 41500
Text Label 7200 41500 0    70   ~ 0
PA03_VREFA
Connection ~ 7200 41900
Connection ~ 7200 41500
Wire Wire Line
	9800 39800 11200 39800
Text Label 9800 39800 0    70   ~ 0
PA02_AIN0
Wire Wire Line
	7200 39300 8500 39300
Text Label 7200 39300 0    70   ~ 0
PA02_AIN0
Wire Wire Line
	9800 39900 11200 39900
Text Label 9800 39900 0    70   ~ 0
PB02_AIN10
Wire Wire Line
	8500 40900 7200 40900
Text Label 7200 40900 0    70   ~ 0
PB02_AIN10
Wire Wire Line
	9800 40000 11200 40000
Text Label 9800 40000 0    70   ~ 0
PB03_AIN11
Wire Wire Line
	8500 41000 7200 41000
Text Label 7200 41000 0    70   ~ 0
PB03_AIN11
Wire Wire Line
	9800 40100 11200 40100
Text Label 9800 40100 0    70   ~ 0
PA04_AIN4
Wire Wire Line
	7200 39400 8500 39400
Text Label 7200 39400 0    70   ~ 0
PA04_AIN4
Wire Wire Line
	9800 40200 11200 40200
Text Label 9800 40200 0    70   ~ 0
PA05_AIN5
Wire Wire Line
	7200 39500 8500 39500
Text Label 7200 39500 0    70   ~ 0
PA05_AIN5
Wire Wire Line
	9800 40300 11200 40300
Text Label 9800 40300 0    70   ~ 0
PA06_AIN6
Wire Wire Line
	8500 39600 7200 39600
Text Label 7200 39600 0    70   ~ 0
PA06_AIN6
Wire Wire Line
	9800 40400 11200 40400
Text Label 9800 40400 0    70   ~ 0
PA07_AIN7
Wire Wire Line
	8500 39700 7200 39700
Text Label 7200 39700 0    70   ~ 0
PA07_AIN7
Wire Wire Line
	9800 40500 11200 40500
Text Label 9800 40500 0    70   ~ 0
PA22_TC4-W0
Wire Wire Line
	8500 40700 7200 40700
Text Label 7200 40700 0    70   ~ 0
PA22_TC4-W0
Wire Wire Line
	9800 40600 11200 40600
Text Label 9800 40600 0    70   ~ 0
PA23_TC4-W1
Wire Wire Line
	8500 40800 7200 40800
Text Label 7200 40800 0    70   ~ 0
PA23_TC4-W1
Wire Wire Line
	9800 40700 11200 40700
Text Label 9800 40700 0    70   ~ 0
PA10_TCC0-W2
Wire Wire Line
	8500 40000 7200 40000
Text Label 7200 40000 0    70   ~ 0
PA10_TCC0-W2
Wire Wire Line
	9800 40800 11200 40800
Text Label 9800 40800 0    70   ~ 0
PA11_TCC0-W3
Wire Wire Line
	8500 40100 7200 40100
Text Label 7200 40100 0    70   ~ 0
PA11_TCC0-W3
Wire Wire Line
	9800 40900 11200 40900
Text Label 9800 40900 0    70   ~ 0
PB10_TCC0-W4
Wire Wire Line
	8500 41100 7200 41100
Text Label 7200 41100 0    70   ~ 0
PB10_TCC0-W4
Wire Wire Line
	9800 41000 11200 41000
Text Label 9800 41000 0    70   ~ 0
PB11_TCC0-W5
Wire Wire Line
	8500 41200 7200 41200
Text Label 7200 41200 0    70   ~ 0
PB11_TCC0-W5
Wire Wire Line
	12500 40300 14500 40300
Text Label 13500 40300 0    70   ~ 0
PB23_S5_RX
Wire Wire Line
	8500 41400 7200 41400
Text Label 7200 41400 0    70   ~ 0
PB23_S5_RX
Wire Wire Line
	12500 40100 14500 40100
Text Label 13500 40100 0    70   ~ 0
RESET#
Wire Wire Line
	4200 41100 4800 41100
Text Label 4500 41100 0    70   ~ 0
RESET#
Wire Wire Line
	12500 40200 14500 40200
Text Label 13500 40200 0    70   ~ 0
PB22_S5_TX
Wire Wire Line
	8500 41300 7200 41300
Text Label 7200 41300 0    70   ~ 0
PB22_S5_TX
Wire Wire Line
	12500 40400 13300 40400
Wire Wire Line
	13300 40400 14500 40400
Wire Wire Line
	13300 39800 13300 40400
Text Label 13300 40400 0    70   ~ 0
PA09_S0_I2C_SCL
Connection ~ 13300 40400
Wire Wire Line
	8500 39900 7200 39900
Text Label 7200 39900 0    70   ~ 0
PA09_S0_I2C_SCL
Wire Wire Line
	14500 37900 13400 37900
Text Label 14500 37900 2    70   ~ 0
PA09_S0_I2C_SCL
Wire Wire Line
	9800 37900 11000 37900
Wire Wire Line
	11000 37900 11500 37900
Wire Wire Line
	11000 37700 11000 37900
Text Label 9900 37900 0    70   ~ 0
PA09_S0_I2C_SCL
Connection ~ 11000 37900
Wire Wire Line
	12500 40500 13400 40500
Wire Wire Line
	13400 40500 14500 40500
Wire Wire Line
	13400 39800 13400 40500
Text Label 13400 40500 0    70   ~ 0
PA08_S0_I2C_SDA
Connection ~ 13400 40500
Wire Wire Line
	8500 39800 7200 39800
Text Label 7200 39800 0    70   ~ 0
PA08_S0_I2C_SDA
Wire Wire Line
	14500 38000 13400 38000
Text Label 14500 38000 2    70   ~ 0
PA08_S0_I2C_SDA
Wire Wire Line
	11500 38000 11200 38000
Wire Wire Line
	11200 38000 9800 38000
Wire Wire Line
	11200 37700 11200 38000
Text Label 9900 38000 0    70   ~ 0
PA08_S0_I2C_SDA
Connection ~ 11200 38000
Wire Wire Line
	12500 40600 14500 40600
Text Label 13500 40600 0    70   ~ 0
PA19_S1_MISO
Wire Wire Line
	8500 40400 7200 40400
Text Label 7200 40400 0    70   ~ 0
PA19_S1_MISO
Wire Wire Line
	12500 40700 14500 40700
Text Label 13500 40700 0    70   ~ 0
PA17_S1_SCK
Wire Wire Line
	8500 40300 7200 40300
Text Label 7200 40300 0    70   ~ 0
PA17_S1_SCK
Wire Wire Line
	12500 40800 14500 40800
Text Label 13500 40800 0    70   ~ 0
PA16_S1_MOSI
Wire Wire Line
	8500 40200 7200 40200
Text Label 7200 40200 0    70   ~ 0
PA16_S1_MOSI
Wire Wire Line
	12500 40900 14500 40900
Text Label 13500 40900 0    70   ~ 0
PA21_TCC0-W7
Wire Wire Line
	8500 40600 7200 40600
Text Label 7200 40600 0    70   ~ 0
PA21_TCC0-W7
Wire Wire Line
	11500 37800 10800 37800
Wire Wire Line
	10800 37800 9800 37800
Wire Wire Line
	10800 37700 10800 37800
Text Label 9900 37800 0    70   ~ 0
PA21_TCC0-W7
Connection ~ 10800 37800
Wire Wire Line
	12500 41000 14500 41000
Text Label 13500 41000 0    70   ~ 0
PA20_TCC0-W6
Wire Wire Line
	8500 40500 7200 40500
Text Label 7200 40500 0    70   ~ 0
PA20_TCC0-W6
Wire Wire Line
	12500 39700 12600 39700
Text GLabel 12500 39700 0    10   BiDi ~ 0
+5V
Wire Wire Line
	11400 37600 11400 37700
Wire Wire Line
	11400 37700 11500 37700
Text GLabel 11400 37600 0    10   BiDi ~ 0
+5V
Wire Wire Line
	12500 39800 12600 39800
Text GLabel 12500 39800 0    10   BiDi ~ 0
VIN
Wire Wire Line
	12500 39900 12600 39900
Text GLabel 12500 39900 0    10   BiDi ~ 0
+3V3
Wire Wire Line
	13300 39300 13300 39600
Wire Wire Line
	13300 39300 13400 39300
Wire Wire Line
	13400 39300 13400 39600
Wire Wire Line
	13400 39300 13400 39200
Connection ~ 13400 39300
Text GLabel 13300 39300 0    10   BiDi ~ 0
+3V3
Wire Wire Line
	2800 40100 2800 40200
Wire Wire Line
	2800 40200 2900 40200
Text GLabel 2800 40100 0    10   BiDi ~ 0
+3V3
Wire Wire Line
	3800 39400 3800 39700
Wire Wire Line
	3800 39400 3900 39400
Wire Wire Line
	3900 39400 3900 39700
Wire Wire Line
	3900 39400 3900 39300
Connection ~ 3900 39400
Text GLabel 3800 39400 0    10   BiDi ~ 0
+3V3
Wire Wire Line
	8100 34300 8100 34200
Text GLabel 8100 34300 0    10   BiDi ~ 0
+3V3
Wire Wire Line
	8400 34150 8550 34150
Wire Wire Line
	8500 34900 8400 34900
Wire Wire Line
	8400 34900 8400 34150
Wire Wire Line
	8400 33950 8400 34150
Connection ~ 8400 34150
Text GLabel 8400 34150 0    10   BiDi ~ 0
+3V3
Wire Wire Line
	4200 35400 5200 35400
Text Label 4700 35400 0    70   ~ 0
PA18_USB_ID
Wire Wire Line
	2400 35400 3700 35400
Wire Wire Line
	3700 35400 4000 35400
Wire Wire Line
	3700 35800 3700 35400
Wire Wire Line
	4200 35800 3700 35800
Connection ~ 3700 35400
Text GLabel 3800 35800 2    70   BiDi ~ 0
USB_ID
Connection ~ 3700 35800
Wire Wire Line
	2400 35300 3500 35300
Wire Wire Line
	3500 35300 5200 35300
Wire Wire Line
	3400 35900 3500 35900
Wire Wire Line
	3500 35900 3500 35300
Wire Wire Line
	3500 35100 3500 35300
Connection ~ 3500 35300
Text Label 4350 35300 0    70   ~ 0
USB_P
Wire Wire Line
	2400 35200 3400 35200
Wire Wire Line
	3400 35200 5200 35200
Wire Wire Line
	3400 35800 3400 35200
Wire Wire Line
	3400 34900 3400 35200
Connection ~ 3400 35200
Text Label 4300 35200 0    70   ~ 0
USB_N
Wire Wire Line
	2400 35100 2800 35100
Wire Wire Line
	2800 35100 2800 35500
Wire Wire Line
	2800 35100 2800 34300
Wire Wire Line
	2800 34300 3100 34300
Wire Wire Line
	2800 34100 2800 34300
Connection ~ 2800 35100
Connection ~ 2800 34300
Wire Wire Line
	4400 34300 4500 34300
Wire Wire Line
	4500 34300 4500 34400
Wire Wire Line
	4500 34300 4900 34300
Wire Wire Line
	4900 34300 4900 34200
Connection ~ 4500 34300
Text GLabel 4400 34300 0    10   BiDi ~ 0
VUSB
Wire Wire Line
	4400 37700 4400 37600
Wire Wire Line
	4400 37600 5200 37600
Wire Wire Line
	4100 37600 4400 37600
Connection ~ 4400 37600
Text Label 4400 37700 0    70   ~ 0
PA00_XIN32
Wire Wire Line
	4400 37900 4400 38000
Wire Wire Line
	4400 38000 5200 38000
Wire Wire Line
	4100 38000 4400 38000
Connection ~ 4400 38000
Text Label 4400 38000 0    70   ~ 0
PA01_XOUT32
Wire Wire Line
	3500 40200 5200 40200
Text Label 4350 40200 0    70   ~ 0
PA31_SWDIO
Wire Wire Line
	3500 40300 3800 40300
Wire Wire Line
	3800 40300 5200 40300
Wire Wire Line
	3800 39900 3800 40300
Text Label 4500 40300 0    70   ~ 0
PA30_SWCLK
Connection ~ 3800 40300
Wire Wire Line
	3800 40600 3900 40600
Wire Wire Line
	3900 40600 5200 40600
Wire Wire Line
	3800 41100 3900 41100
Wire Wire Line
	3900 41100 3900 41400
Wire Wire Line
	3900 40600 3900 41100
Wire Wire Line
	4000 41100 3900 41100
Wire Wire Line
	3900 39900 3900 40600
Connection ~ 3900 41100
Connection ~ 3900 40600
Text Label 4100 40600 0    70   ~ 0
RESETN
Wire Wire Line
	3400 41200 3400 41100
Wire Wire Line
	3400 41100 3600 41100
Wire Wire Line
	7200 35000 8050 35000
Wire Wire Line
	8500 35200 8050 35200
Wire Wire Line
	8050 35200 8050 35000
Text Label 7300 35000 0    70   ~ 0
PA15_S2_MISO
Wire Wire Line
	7200 34900 8150 34900
Wire Wire Line
	8500 35000 8150 35000
Wire Wire Line
	8150 35000 8150 34900
Text Label 7300 34900 0    70   ~ 0
PA13_S2_SCK
Wire Wire Line
	7200 34800 8500 34800
Text Label 7300 34800 0    70   ~ 0
PA12_S2_MOSI
Wire Wire Line
	7200 34700 8100 34700
Wire Wire Line
	8100 34700 8500 34700
Wire Wire Line
	8100 34500 8100 34700
Text Label 7300 34700 0    70   ~ 0
PA14_S2_NSS
Connection ~ 8100 34700
Wire Wire Line
	7200 35600 7800 35600
Wire Wire Line
	7800 35600 7800 35400
Wire Wire Line
	7800 35400 8500 35400
Text Label 7300 35600 0    70   ~ 0
PA27_CD
Wire Wire Line
	7200 36800 8000 36800
Text Label 7300 36800 0    70   ~ 0
PB08_LED
Wire Wire Line
	2200 35800 2200 36300
Wire Wire Line
	2200 36300 2200 36400
Wire Wire Line
	2600 36300 2800 36300
Wire Wire Line
	2800 36300 2800 36200
Wire Wire Line
	2600 36400 2600 36300
Wire Wire Line
	2600 36300 2200 36300
Connection ~ 2600 36300
Connection ~ 2200 36300
Wire Wire Line
	3900 34400 3900 34300
Wire Wire Line
	3900 34300 4000 34300
Wire Wire Line
	3500 34300 3900 34300
Connection ~ 3900 34300
Wire Wire Line
	3600 40600 2700 40600
Wire Wire Line
	2700 40600 2700 40300
Wire Wire Line
	2700 40300 2900 40300
Wire Wire Line
	7200 36900 7700 36900
Wire Wire Line
	7700 36900 7700 37100
Wire Wire Line
	7700 37100 7900 37100
Wire Wire Line
	7700 37200 7700 37100
Wire Wire Line
	7700 37100 7250 37100
Wire Wire Line
	7250 37100 7250 37250
Connection ~ 7700 37100
Wire Wire Line
	8100 37100 8350 37100
Text GLabel 8350 37100 2    70   BiDi ~ 0
VBATT
Wire Wire Line
	8300 36800 8200 36800
Entry Wire Line
	9700 39800 9800 39700
Entry Wire Line
	9700 39900 9800 39800
Entry Wire Line
	9700 40000 9800 39900
Entry Wire Line
	9700 40100 9800 40000
Entry Wire Line
	9700 40200 9800 40100
Entry Wire Line
	9700 40300 9800 40200
Entry Wire Line
	9700 40400 9800 40300
Entry Wire Line
	9700 40500 9800 40400
Entry Wire Line
	9700 40600 9800 40500
Entry Wire Line
	9700 40700 9800 40600
Entry Wire Line
	9700 40800 9800 40700
Entry Wire Line
	9700 40900 9800 40800
Entry Wire Line
	9700 41000 9800 40900
Entry Wire Line
	9700 41100 9800 41000
Entry Wire Line
	9700 38000 9800 37900
Entry Wire Line
	9700 38100 9800 38000
Entry Wire Line
	9700 37900 9800 37800
Entry Wire Line
	8500 41500 8600 41600
Entry Wire Line
	8500 39300 8600 39400
Entry Wire Line
	8500 40900 8600 41000
Entry Wire Line
	8500 41000 8600 41100
Entry Wire Line
	8500 39400 8600 39500
Entry Wire Line
	8500 39500 8600 39600
Entry Wire Line
	8500 39600 8600 39700
Entry Wire Line
	8500 39700 8600 39800
Entry Wire Line
	8500 40700 8600 40800
Entry Wire Line
	8500 40800 8600 40900
Entry Wire Line
	8500 40000 8600 40100
Entry Wire Line
	8500 40100 8600 40200
Entry Wire Line
	8500 41100 8600 41200
Entry Wire Line
	8500 41200 8600 41300
Entry Wire Line
	8500 41400 8600 41500
Entry Wire Line
	8500 41300 8600 41400
Entry Wire Line
	8500 39900 8600 40000
Entry Wire Line
	8500 39800 8600 39900
Entry Wire Line
	8500 40400 8600 40500
Entry Wire Line
	8500 40300 8600 40400
Entry Wire Line
	8500 40200 8600 40300
Entry Wire Line
	8500 40600 8600 40700
Entry Wire Line
	8500 40500 8600 40600
Entry Wire Line
	14500 40300 14600 40400
Entry Wire Line
	14500 40100 14600 40200
Entry Wire Line
	14500 40200 14600 40300
Entry Wire Line
	14500 40400 14600 40500
Entry Wire Line
	14500 37900 14600 38000
Entry Wire Line
	14500 40500 14600 40600
Entry Wire Line
	14500 38000 14600 38100
Entry Wire Line
	14500 40600 14600 40700
Entry Wire Line
	14500 40700 14600 40800
Entry Wire Line
	14500 40800 14600 40900
Entry Wire Line
	14500 40900 14600 41000
Entry Wire Line
	14500 41000 14600 41100
$Comp
L MKRZero_V5.0-eagle-import:ATSAMD21G18A-48 U3
U 1 1 C6A83FC2
P 6200 38100
AR Path="/C6A83FC2" Ref="U3"  Part="1" 
AR Path="/5DA56B2A/C6A83FC2" Ref="U3"  Part="1" 
F 0 "U3" H 5300 41620 59  0000 L BNN
F 1 "ATSAMD21G18A-48" H 5300 34580 59  0000 L TNN
F 2 "MKRZero_V5.0:QFN50P700X700X90-49XN-EPSQ515" H 6200 38100 50  0001 C CNN
F 3 "" H 6200 38100 50  0001 C CNN
	1    6200 38100
	1    0    0    -1  
$EndComp
$Comp
L MKRZero_V5.0-eagle-import:GND #GND11
U 1 1 5518330F
P 12600 41300
AR Path="/5518330F" Ref="#GND11"  Part="1" 
AR Path="/5DA56B2A/5518330F" Ref="#GND011"  Part="1" 
F 0 "#GND011" H 12600 41300 50  0001 C CNN
F 1 "GND" H 12500 41200 59  0000 L BNN
F 2 "" H 12600 41300 50  0001 C CNN
F 3 "" H 12600 41300 50  0001 C CNN
	1    12600 41300
	1    0    0    -1  
$EndComp
$Comp
L MKRZero_V5.0-eagle-import:STRIP-14 J5
U 1 1 91F01FDB
P 12200 40300
AR Path="/91F01FDB" Ref="J5"  Part="1" 
AR Path="/5DA56B2A/91F01FDB" Ref="J5"  Part="1" 
F 0 "J5" H 12230 41020 59  0000 L BNN
F 1 "DNP" H 12200 39480 59  0001 L TNN
F 2 "MKRZero_V5.0:STRIP-14-MODULI-A11" H 12200 40300 50  0001 C CNN
F 3 "" H 12200 40300 50  0001 C CNN
	1    12200 40300
	1    0    0    -1  
$EndComp
$Comp
L MKRZero_V5.0-eagle-import:STRIP-14 J4
U 1 1 17C56013
P 11500 40400
AR Path="/17C56013" Ref="J4"  Part="1" 
AR Path="/5DA56B2A/17C56013" Ref="J4"  Part="1" 
F 0 "J4" H 11620 39580 59  0000 R TNN
F 1 "DNP" H 11500 39580 59  0001 L TNN
F 2 "MKRZero_V5.0:STRIP-14-MODULI-A11" H 11500 40400 50  0001 C CNN
F 3 "" H 11500 40400 50  0001 C CNN
	1    11500 40400
	-1   0    0    1   
$EndComp
$Comp
L MKRZero_V5.0-eagle-import:+5V #P+1
U 1 1 6A081B6E
P 12700 39700
AR Path="/6A081B6E" Ref="#P+1"  Part="1" 
AR Path="/5DA56B2A/6A081B6E" Ref="#P+01"  Part="1" 
F 0 "#P+01" H 12700 39700 50  0001 C CNN
F 1 "+5V" V 12700 39720 59  0000 L CNN
F 2 "" H 12700 39700 50  0001 C CNN
F 3 "" H 12700 39700 50  0001 C CNN
	1    12700 39700
	0    1    1    0   
$EndComp
$Comp
L MKRZero_V5.0-eagle-import:VIN #U$1
U 1 1 89E33A62
P 12700 39800
AR Path="/89E33A62" Ref="#U$1"  Part="1" 
AR Path="/5DA56B2A/89E33A62" Ref="#U$01"  Part="1" 
F 0 "#U$01" H 12700 39800 50  0001 C CNN
F 1 "VIN" V 12700 39820 59  0000 L CNN
F 2 "" H 12700 39800 50  0001 C CNN
F 3 "" H 12700 39800 50  0001 C CNN
	1    12700 39800
	0    1    1    0   
$EndComp
$Comp
L MKRZero_V5.0-eagle-import:+3V3 #+3V1
U 1 1 7D977A11
P 12700 39900
AR Path="/7D977A11" Ref="#+3V1"  Part="1" 
AR Path="/5DA56B2A/7D977A11" Ref="#+3V01"  Part="1" 
F 0 "#+3V01" H 12700 39900 50  0001 C CNN
F 1 "+3V3" V 12700 39920 59  0000 L CNN
F 2 "" H 12700 39900 50  0001 C CNN
F 3 "" H 12700 39900 50  0001 C CNN
	1    12700 39900
	0    1    1    0   
$EndComp
$Comp
L MKRZero_V5.0-eagle-import:R-0402 R22
U 1 1 414EA4CD
P 13300 39700
AR Path="/414EA4CD" Ref="R22"  Part="1" 
AR Path="/5DA56B2A/414EA4CD" Ref="R22"  Part="1" 
F 0 "R22" H 13190 39710 59  0000 R BNN
F 1 "DNP" H 13410 39710 59  0000 L BNN
F 2 "MKRZero_V5.0:0402-1005X55N" H 13300 39700 50  0001 C CNN
F 3 "" H 13300 39700 50  0001 C CNN
	1    13300 39700
	0    -1   -1   0   
$EndComp
$Comp
L MKRZero_V5.0-eagle-import:R-0402 R23
U 1 1 BF2322D4
P 13400 39700
AR Path="/BF2322D4" Ref="R23"  Part="1" 
AR Path="/5DA56B2A/BF2322D4" Ref="R23"  Part="1" 
F 0 "R23" H 13290 39710 59  0000 R BNN
F 1 "DNP" H 13510 39710 59  0000 L BNN
F 2 "MKRZero_V5.0:0402-1005X55N" H 13400 39700 50  0001 C CNN
F 3 "" H 13400 39700 50  0001 C CNN
	1    13400 39700
	0    -1   -1   0   
$EndComp
$Comp
L MKRZero_V5.0-eagle-import:+3V3 #+3V2
U 1 1 816AD438
P 13400 39100
AR Path="/816AD438" Ref="#+3V2"  Part="1" 
AR Path="/5DA56B2A/816AD438" Ref="#+3V02"  Part="1" 
F 0 "#+3V02" H 13400 39100 50  0001 C CNN
F 1 "+3V3" H 13400 39120 59  0000 C BNN
F 2 "" H 13400 39100 50  0001 C CNN
F 3 "" H 13400 39100 50  0001 C CNN
	1    13400 39100
	1    0    0    -1  
$EndComp
$Comp
L MKRZero_V5.0-eagle-import:ATECC508A-MAHDA-T U4
U 1 1 67303E88
P 13000 38000
AR Path="/67303E88" Ref="U4"  Part="1" 
AR Path="/5DA56B2A/67303E88" Ref="U4"  Part="1" 
F 0 "U4" H 13180 38320 59  0000 R BNN
F 1 "ATECC508A-DNP" H 13190 37780 59  0000 R TNN
F 2 "MKRZero_V5.0:SON50P300X200X60-9N-EP160X140" H 13000 38000 50  0001 C CNN
F 3 "" H 13000 38000 50  0001 C CNN
	1    13000 38000
	-1   0    0    -1  
$EndComp
$Comp
L MKRZero_V5.0-eagle-import:C-0402 C14
U 1 1 B051AF67
P 7700 42100
AR Path="/B051AF67" Ref="C14"  Part="1" 
AR Path="/5DA56B2A/B051AF67" Ref="C14"  Part="1" 
F 0 "C14" H 7820 42115 59  0000 L BNN
F 1 "100nF" H 7820 42085 59  0000 L TNN
F 2 "MKRZero_V5.0:0402-1005X55N" H 7700 42100 50  0001 C CNN
F 3 "" H 7700 42100 50  0001 C CNN
	1    7700 42100
	1    0    0    -1  
$EndComp
$Comp
L MKRZero_V5.0-eagle-import:C-0402 C12
U 1 1 B05A48D7
P 7200 42100
AR Path="/B05A48D7" Ref="C12"  Part="1" 
AR Path="/5DA56B2A/B05A48D7" Ref="C12"  Part="1" 
F 0 "C12" H 7320 42115 59  0000 L BNN
F 1 "4.7uF" H 7320 42085 59  0000 L TNN
F 2 "MKRZero_V5.0:0402-1005X55N" H 7200 42100 50  0001 C CNN
F 3 "" H 7200 42100 50  0001 C CNN
	1    7200 42100
	1    0    0    -1  
$EndComp
$Comp
L MKRZero_V5.0-eagle-import:GND #GND7
U 1 1 C2693486
P 7200 42400
AR Path="/C2693486" Ref="#GND7"  Part="1" 
AR Path="/5DA56B2A/C2693486" Ref="#GND07"  Part="1" 
F 0 "#GND07" H 7200 42400 50  0001 C CNN
F 1 "GND" H 7100 42300 59  0000 L BNN
F 2 "" H 7200 42400 50  0001 C CNN
F 3 "" H 7200 42400 50  0001 C CNN
	1    7200 42400
	1    0    0    -1  
$EndComp
$Comp
L MKRZero_V5.0-eagle-import:GND #GND8
U 1 1 E3161DBF
P 7700 42400
AR Path="/E3161DBF" Ref="#GND8"  Part="1" 
AR Path="/5DA56B2A/E3161DBF" Ref="#GND08"  Part="1" 
F 0 "#GND08" H 7700 42400 50  0001 C CNN
F 1 "GND" H 7600 42300 59  0000 L BNN
F 2 "" H 7700 42400 50  0001 C CNN
F 3 "" H 7700 42400 50  0001 C CNN
	1    7700 42400
	1    0    0    -1  
$EndComp
$Comp
L MKRZero_V5.0-eagle-import:ZX62AB-5PA(11) J1
U 1 1 931E45A6
P 2200 35300
AR Path="/931E45A6" Ref="J1"  Part="1" 
AR Path="/5DA56B2A/931E45A6" Ref="J1"  Part="1" 
F 0 "J1" H 2300 35830 59  0000 C BNN
F 1 " ZX62-AB-5PA(31) " H 2300 35740 59  0000 C BNN
F 2 "MKRZero_V5.0:USBMICRO-ZX62-AB-5PA" H 2200 35300 50  0001 C CNN
F 3 "" H 2200 35300 50  0001 C CNN
	1    2200 35300
	-1   0    0    -1  
$EndComp
$Comp
L MKRZero_V5.0-eagle-import:BLM18PG471SN1D L2
U 1 1 B1AD6528
P 4200 34300
AR Path="/B1AD6528" Ref="L2"  Part="1" 
AR Path="/5DA56B2A/B1AD6528" Ref="L2"  Part="1" 
F 0 "L2" H 4200 34460 59  0000 C BNN
F 1 "BLM18PG471SN1D" H 4200 34370 59  0000 C BNN
F 2 "MKRZero_V5.0:0603-1608X90N" H 4200 34300 50  0001 C CNN
F 3 "" H 4200 34300 50  0001 C CNN
	1    4200 34300
	1    0    0    -1  
$EndComp
$Comp
L MKRZero_V5.0-eagle-import:PRTR5V0U2X,215 D1
U 1 1 C78C3FBD
P 3000 35800
AR Path="/C78C3FBD" Ref="D1"  Part="1" 
AR Path="/5DA56B2A/C78C3FBD" Ref="D1"  Part="1" 
F 0 "D1" H 3000 35400 59  0000 L BNN
F 1 "PRTR5V0U2X,215" H 3000 35300 59  0000 L BNN
F 2 "MKRZero_V5.0:SOT190P230X110-4N" H 3000 35800 50  0001 C CNN
F 3 "" H 3000 35800 50  0001 C CNN
	1    3000 35800
	1    0    0    -1  
$EndComp
$Comp
L MKRZero_V5.0-eagle-import:C-0402 C11
U 1 1 9CC4DFFD
P 4000 37600
AR Path="/9CC4DFFD" Ref="C11"  Part="1" 
AR Path="/5DA56B2A/9CC4DFFD" Ref="C11"  Part="1" 
F 0 "C11" V 4011 37699 59  0000 L TNN
F 1 "20pF" V 4010 37500 59  0000 R TNN
F 2 "MKRZero_V5.0:0402-1005X55N" H 4000 37600 50  0001 C CNN
F 3 "" H 4000 37600 50  0001 C CNN
	1    4000 37600
	0    -1   -1   0   
$EndComp
$Comp
L MKRZero_V5.0-eagle-import:ABS07-32.768KHZ-T Y1
U 1 1 597F414A
P 4400 37800
AR Path="/597F414A" Ref="Y1"  Part="1" 
AR Path="/5DA56B2A/597F414A" Ref="Y1"  Part="1" 
F 0 "Y1" V 4412 37900 59  0000 L TNN
F 1 "32.768KHz" V 4387 37900 59  0000 L BNN
F 2 "MKRZero_V5.0:QUARZO-ABS07" H 4400 37800 50  0001 C CNN
F 3 "" H 4400 37800 50  0001 C CNN
	1    4400 37800
	0    -1   -1   0   
$EndComp
$Comp
L MKRZero_V5.0-eagle-import:R-0402 R15
U 1 1 454A290A
P 3700 40600
AR Path="/454A290A" Ref="R15"  Part="1" 
AR Path="/5DA56B2A/454A290A" Ref="R15"  Part="1" 
F 0 "R15" H 3700 40650 59  0000 C BNN
F 1 "39R" H 3700 40550 59  0000 C TNN
F 2 "MKRZero_V5.0:0402-1005X55N" H 3700 40600 50  0001 C CNN
F 3 "" H 3700 40600 50  0001 C CNN
	1    3700 40600
	1    0    0    -1  
$EndComp
$Comp
L MKRZero_V5.0-eagle-import:LED-0603 DL3
U 1 1 A7A59857
P 8400 36800
AR Path="/A7A59857" Ref="DL3"  Part="1" 
AR Path="/5DA56B2A/A7A59857" Ref="DL3"  Part="1" 
F 0 "DL3" V 8390 36630 59  0000 R BNN
F 1 "YELLOW" V 8475 36750 59  0000 C TNN
F 2 "MKRZero_V5.0:LEDC1608X80N-AK" H 8400 36800 50  0001 C CNN
F 3 "" H 8400 36800 50  0001 C CNN
	1    8400 36800
	0    -1   1    0   
$EndComp
$Comp
L MKRZero_V5.0-eagle-import:VUSB #U$2
U 1 1 87B7DF34
P 4900 34100
AR Path="/87B7DF34" Ref="#U$2"  Part="1" 
AR Path="/5DA56B2A/87B7DF34" Ref="#U$02"  Part="1" 
F 0 "#U$02" H 4900 34100 50  0001 C CNN
F 1 "VUSB" H 4900 34120 59  0000 C BNN
F 2 "" H 4900 34100 50  0001 C CNN
F 3 "" H 4900 34100 50  0001 C CNN
	1    4900 34100
	1    0    0    -1  
$EndComp
$Comp
L MKRZero_V5.0-eagle-import:GND #GND9
U 1 1 FD0A31A1
P 2500 35700
AR Path="/FD0A31A1" Ref="#GND9"  Part="1" 
AR Path="/5DA56B2A/FD0A31A1" Ref="#GND09"  Part="1" 
F 0 "#GND09" H 2500 35700 50  0001 C CNN
F 1 "GND" H 2400 35600 59  0000 L BNN
F 2 "" H 2500 35700 50  0001 C CNN
F 3 "" H 2500 35700 50  0001 C CNN
	1    2500 35700
	1    0    0    -1  
$EndComp
$Comp
L MKRZero_V5.0-eagle-import:GND #GND10
U 1 1 0087CD10
P 2200 36800
AR Path="/0087CD10" Ref="#GND10"  Part="1" 
AR Path="/5DA56B2A/0087CD10" Ref="#GND010"  Part="1" 
F 0 "#GND010" H 2200 36800 50  0001 C CNN
F 1 "GND" H 2100 36700 59  0000 L BNN
F 2 "" H 2200 36800 50  0001 C CNN
F 3 "" H 2200 36800 50  0001 C CNN
	1    2200 36800
	1    0    0    -1  
$EndComp
$Comp
L MKRZero_V5.0-eagle-import:C-0402 C4
U 1 1 C7C7766E
P 3900 34500
AR Path="/C7C7766E" Ref="C4"  Part="1" 
AR Path="/5DA56B2A/C7C7766E" Ref="C4"  Part="1" 
F 0 "C4" H 4020 34515 59  0000 L BNN
F 1 "1nF" H 4020 34485 59  0000 L TNN
F 2 "MKRZero_V5.0:0402-1005X55N" H 3900 34500 50  0001 C CNN
F 3 "" H 3900 34500 50  0001 C CNN
	1    3900 34500
	1    0    0    -1  
$EndComp
$Comp
L MKRZero_V5.0-eagle-import:C-0402 C5
U 1 1 EFC1F888
P 4500 34500
AR Path="/EFC1F888" Ref="C5"  Part="1" 
AR Path="/5DA56B2A/EFC1F888" Ref="C5"  Part="1" 
F 0 "C5" H 4620 34515 59  0000 L BNN
F 1 "1nF" H 4620 34485 59  0000 L TNN
F 2 "MKRZero_V5.0:0402-1005X55N" H 4500 34500 50  0001 C CNN
F 3 "" H 4500 34500 50  0001 C CNN
	1    4500 34500
	1    0    0    -1  
$EndComp
$Comp
L MKRZero_V5.0-eagle-import:GND #GND12
U 1 1 8C4C494A
P 3900 34800
AR Path="/8C4C494A" Ref="#GND12"  Part="1" 
AR Path="/5DA56B2A/8C4C494A" Ref="#GND012"  Part="1" 
F 0 "#GND012" H 3900 34800 50  0001 C CNN
F 1 "GND" H 3800 34700 59  0000 L BNN
F 2 "" H 3900 34800 50  0001 C CNN
F 3 "" H 3900 34800 50  0001 C CNN
	1    3900 34800
	1    0    0    -1  
$EndComp
$Comp
L MKRZero_V5.0-eagle-import:GND #GND13
U 1 1 85B66688
P 4500 34800
AR Path="/85B66688" Ref="#GND13"  Part="1" 
AR Path="/5DA56B2A/85B66688" Ref="#GND013"  Part="1" 
F 0 "#GND013" H 4500 34800 50  0001 C CNN
F 1 "GND" H 4400 34700 59  0000 L BNN
F 2 "" H 4500 34800 50  0001 C CNN
F 3 "" H 4500 34800 50  0001 C CNN
	1    4500 34800
	1    0    0    -1  
$EndComp
$Comp
L MKRZero_V5.0-eagle-import:C-0402 C9
U 1 1 3DAA2418
P 4000 38000
AR Path="/3DAA2418" Ref="C9"  Part="1" 
AR Path="/5DA56B2A/3DAA2418" Ref="C9"  Part="1" 
F 0 "C9" V 3980 38100 59  0000 L BNN
F 1 "20pF" V 3980 37900 59  0000 R BNN
F 2 "MKRZero_V5.0:0402-1005X55N" H 4000 38000 50  0001 C CNN
F 3 "" H 4000 38000 50  0001 C CNN
	1    4000 38000
	0    -1   -1   0   
$EndComp
$Comp
L MKRZero_V5.0-eagle-import:GND #GND14
U 1 1 B9C9B342
P 3500 38000
AR Path="/B9C9B342" Ref="#GND14"  Part="1" 
AR Path="/5DA56B2A/B9C9B342" Ref="#GND014"  Part="1" 
F 0 "#GND014" H 3500 38000 50  0001 C CNN
F 1 "GND" H 3400 37900 59  0000 L BNN
F 2 "" H 3500 38000 50  0001 C CNN
F 3 "" H 3500 38000 50  0001 C CNN
	1    3500 38000
	1    0    0    -1  
$EndComp
$Comp
L MKRZero_V5.0-eagle-import:GND #GND15
U 1 1 7499CEA7
P 2800 40800
AR Path="/7499CEA7" Ref="#GND15"  Part="1" 
AR Path="/5DA56B2A/7499CEA7" Ref="#GND015"  Part="1" 
F 0 "#GND015" H 2800 40800 50  0001 C CNN
F 1 "GND" H 2700 40700 59  0000 L BNN
F 2 "" H 2800 40800 50  0001 C CNN
F 3 "" H 2800 40800 50  0001 C CNN
	1    2800 40800
	1    0    0    -1  
$EndComp
$Comp
L MKRZero_V5.0-eagle-import:GND #GND16
U 1 1 12C6E2A1
P 3900 41900
AR Path="/12C6E2A1" Ref="#GND16"  Part="1" 
AR Path="/5DA56B2A/12C6E2A1" Ref="#GND016"  Part="1" 
F 0 "#GND016" H 3900 41900 50  0001 C CNN
F 1 "GND" H 3800 41800 59  0000 L BNN
F 2 "" H 3900 41900 50  0001 C CNN
F 3 "" H 3900 41900 50  0001 C CNN
	1    3900 41900
	1    0    0    -1  
$EndComp
$Comp
L MKRZero_V5.0-eagle-import:+3V3 #+3V8
U 1 1 7BD3A1AE
P 2800 40000
AR Path="/7BD3A1AE" Ref="#+3V8"  Part="1" 
AR Path="/5DA56B2A/7BD3A1AE" Ref="#+3V08"  Part="1" 
F 0 "#+3V08" H 2800 40000 50  0001 C CNN
F 1 "+3V3" H 2800 40020 59  0000 C BNN
F 2 "" H 2800 40000 50  0001 C CNN
F 3 "" H 2800 40000 50  0001 C CNN
	1    2800 40000
	1    0    0    -1  
$EndComp
$Comp
L MKRZero_V5.0-eagle-import:R-0402 R13
U 1 1 602EE61A
P 3700 41100
AR Path="/602EE61A" Ref="R13"  Part="1" 
AR Path="/5DA56B2A/602EE61A" Ref="R13"  Part="1" 
F 0 "R13" H 3700 41150 59  0000 C BNN
F 1 "330R" H 3700 41050 59  0000 C TNN
F 2 "MKRZero_V5.0:0402-1005X55N" H 3700 41100 50  0001 C CNN
F 3 "" H 3700 41100 50  0001 C CNN
	1    3700 41100
	1    0    0    -1  
$EndComp
$Comp
L MKRZero_V5.0-eagle-import:C-0402 C7
U 1 1 64A99F0A
P 3900 41500
AR Path="/64A99F0A" Ref="C7"  Part="1" 
AR Path="/5DA56B2A/64A99F0A" Ref="C7"  Part="1" 
F 0 "C7" H 4020 41515 59  0000 L BNN
F 1 "100nF" H 4020 41485 59  0000 L TNN
F 2 "MKRZero_V5.0:0402-1005X55N" H 3900 41500 50  0001 C CNN
F 3 "" H 3900 41500 50  0001 C CNN
	1    3900 41500
	1    0    0    -1  
$EndComp
$Comp
L MKRZero_V5.0-eagle-import:GND #GND17
U 1 1 CBB20165
P 3400 41900
AR Path="/CBB20165" Ref="#GND17"  Part="1" 
AR Path="/5DA56B2A/CBB20165" Ref="#GND017"  Part="1" 
F 0 "#GND017" H 3400 41900 50  0001 C CNN
F 1 "GND" H 3300 41800 59  0000 L BNN
F 2 "" H 3400 41900 50  0001 C CNN
F 3 "" H 3400 41900 50  0001 C CNN
	1    3400 41900
	1    0    0    -1  
$EndComp
$Comp
L MKRZero_V5.0-eagle-import:R-0402 R20
U 1 1 5CD1C902
P 4100 41100
AR Path="/5CD1C902" Ref="R20"  Part="1" 
AR Path="/5DA56B2A/5CD1C902" Ref="R20"  Part="1" 
F 0 "R20" H 4100 41150 59  0000 C BNN
F 1 "330R" H 4100 41050 59  0000 C TNN
F 2 "MKRZero_V5.0:0402-1005X55N" H 4100 41100 50  0001 C CNN
F 3 "" H 4100 41100 50  0001 C CNN
	1    4100 41100
	1    0    0    -1  
$EndComp
$Comp
L MKRZero_V5.0-eagle-import:GND #GND21
U 1 1 FF2A2D77
P 9600 35950
AR Path="/FF2A2D77" Ref="#GND21"  Part="1" 
AR Path="/5DA56B2A/FF2A2D77" Ref="#GND021"  Part="1" 
F 0 "#GND021" H 9600 35950 50  0001 C CNN
F 1 "GND" H 9500 35850 59  0000 L BNN
F 2 "" H 9600 35950 50  0001 C CNN
F 3 "" H 9600 35950 50  0001 C CNN
	1    9600 35950
	1    0    0    -1  
$EndComp
$Comp
L MKRZero_V5.0-eagle-import:R-0402 R18
U 1 1 0B854E4C
P 8100 36800
AR Path="/0B854E4C" Ref="R18"  Part="1" 
AR Path="/5DA56B2A/0B854E4C" Ref="R18"  Part="1" 
F 0 "R18" H 8100 36850 59  0000 C BNN
F 1 "330R" H 8100 36750 59  0000 C TNN
F 2 "MKRZero_V5.0:0402-1005X55N" H 8100 36800 50  0001 C CNN
F 3 "" H 8100 36800 50  0001 C CNN
	1    8100 36800
	1    0    0    -1  
$EndComp
$Comp
L MKRZero_V5.0-eagle-import:SM05B-SRSS-TB J7
U 1 1 916830BC
P 11700 37900
AR Path="/916830BC" Ref="J7"  Part="1" 
AR Path="/5DA56B2A/916830BC" Ref="J7"  Part="1" 
F 0 "J7" H 11600 38320 59  0000 L BNN
F 1 "SM05B-SRSS-TB" H 11600 38220 59  0000 L BNN
F 2 "MKRZero_V5.0:SM05B-SRSS-TB" H 11700 37900 50  0001 C CNN
F 3 "" H 11700 37900 50  0001 C CNN
	1    11700 37900
	1    0    0    -1  
$EndComp
$Comp
L MKRZero_V5.0-eagle-import:GND #GND18
U 1 1 195191A6
P 11400 38500
AR Path="/195191A6" Ref="#GND18"  Part="1" 
AR Path="/5DA56B2A/195191A6" Ref="#GND018"  Part="1" 
F 0 "#GND018" H 11400 38500 50  0001 C CNN
F 1 "GND" H 11300 38400 59  0000 L BNN
F 2 "" H 11400 38500 50  0001 C CNN
F 3 "" H 11400 38500 50  0001 C CNN
	1    11400 38500
	1    0    0    -1  
$EndComp
$Comp
L MKRZero_V5.0-eagle-import:R-0402 R7
U 1 1 9948B25F
P 3800 39800
AR Path="/9948B25F" Ref="R7"  Part="1" 
AR Path="/5DA56B2A/9948B25F" Ref="R7"  Part="1" 
F 0 "R7" H 3690 39810 59  0000 R BNN
F 1 "1K" H 3910 39810 59  0000 L BNN
F 2 "MKRZero_V5.0:0402-1005X55N" H 3800 39800 50  0001 C CNN
F 3 "" H 3800 39800 50  0001 C CNN
	1    3800 39800
	0    -1   -1   0   
$EndComp
$Comp
L MKRZero_V5.0-eagle-import:R-0402 R16
U 1 1 17B3D618
P 3900 39800
AR Path="/17B3D618" Ref="R16"  Part="1" 
AR Path="/5DA56B2A/17B3D618" Ref="R16"  Part="1" 
F 0 "R16" H 3790 39810 59  0000 R BNN
F 1 "10K" H 4010 39810 59  0000 L BNN
F 2 "MKRZero_V5.0:0402-1005X55N" H 3900 39800 50  0001 C CNN
F 3 "" H 3900 39800 50  0001 C CNN
	1    3900 39800
	0    -1   -1   0   
$EndComp
$Comp
L MKRZero_V5.0-eagle-import:+3V3 #+3V13
U 1 1 AE02F8CA
P 3900 39200
AR Path="/AE02F8CA" Ref="#+3V13"  Part="1" 
AR Path="/5DA56B2A/AE02F8CA" Ref="#+3V013"  Part="1" 
F 0 "#+3V013" H 3900 39200 50  0001 C CNN
F 1 "+3V3" H 3900 39220 59  0000 C BNN
F 2 "" H 3900 39200 50  0001 C CNN
F 3 "" H 3900 39200 50  0001 C CNN
	1    3900 39200
	1    0    0    -1  
$EndComp
$Comp
L MKRZero_V5.0-eagle-import:PMEG2005EL D3
U 1 1 93886C31
P 4100 35400
AR Path="/93886C31" Ref="D3"  Part="1" 
AR Path="/5DA56B2A/93886C31" Ref="D3"  Part="1" 
F 0 "D3" H 4001 35390 59  0000 R TNN
F 1 "PMEG2005EL" H 4090 35485 59  0000 C BNN
F 2 "MKRZero_V5.0:SODFL1008X40N-882D" H 4100 35400 50  0001 C CNN
F 3 "" H 4100 35400 50  0001 C CNN
	1    4100 35400
	-1   0    0    1   
$EndComp
$Comp
L MKRZero_V5.0-eagle-import:+5V #P+3
U 1 1 48C2C5DB
P 11400 37500
AR Path="/48C2C5DB" Ref="#P+3"  Part="1" 
AR Path="/5DA56B2A/48C2C5DB" Ref="#P+03"  Part="1" 
F 0 "#P+03" H 11400 37500 50  0001 C CNN
F 1 "+5V" H 11400 37520 59  0000 C BNN
F 2 "" H 11400 37500 50  0001 C CNN
F 3 "" H 11400 37500 50  0001 C CNN
	1    11400 37500
	1    0    0    -1  
$EndComp
$Comp
L MKRZero_V5.0-eagle-import:C-0402 C1
U 1 1 09ADF4B9
P 8650 34150
AR Path="/09ADF4B9" Ref="C1"  Part="1" 
AR Path="/5DA56B2A/09ADF4B9" Ref="C1"  Part="1" 
F 0 "C1" H 8770 34165 59  0000 L BNN
F 1 "100nF" H 8770 34125 59  0000 L TNN
F 2 "MKRZero_V5.0:0402-1005X55N" H 8650 34150 50  0001 C CNN
F 3 "" H 8650 34150 50  0001 C CNN
	1    8650 34150
	0    -1   -1   0   
$EndComp
$Comp
L MKRZero_V5.0-eagle-import:R-0402 R17
U 1 1 59AFAF3F
P 8100 34400
AR Path="/59AFAF3F" Ref="R17"  Part="1" 
AR Path="/5DA56B2A/59AFAF3F" Ref="R17"  Part="1" 
F 0 "R17" V 8110 34350 59  0000 R TNN
F 1 "100K" V 8090 34350 59  0000 R BNN
F 2 "MKRZero_V5.0:0402-1005X55N" H 8100 34400 50  0001 C CNN
F 3 "" H 8100 34400 50  0001 C CNN
	1    8100 34400
	0    -1   -1   0   
$EndComp
$Comp
L MKRZero_V5.0-eagle-import:+3V3 #+3V9
U 1 1 4A62666F
P 8100 34100
AR Path="/4A62666F" Ref="#+3V9"  Part="1" 
AR Path="/5DA56B2A/4A62666F" Ref="#+3V09"  Part="1" 
F 0 "#+3V09" H 8100 34100 50  0001 C CNN
F 1 "+3V3" H 8100 34120 59  0000 C BNN
F 2 "" H 8100 34100 50  0001 C CNN
F 3 "" H 8100 34100 50  0001 C CNN
	1    8100 34100
	1    0    0    -1  
$EndComp
$Comp
L MKRZero_V5.0-eagle-import:GND #GND22
U 1 1 A44C21B7
P 8400 35700
AR Path="/A44C21B7" Ref="#GND22"  Part="1" 
AR Path="/5DA56B2A/A44C21B7" Ref="#GND022"  Part="1" 
F 0 "#GND022" H 8400 35700 50  0001 C CNN
F 1 "GND" H 8300 35600 59  0000 L BNN
F 2 "" H 8400 35700 50  0001 C CNN
F 3 "" H 8400 35700 50  0001 C CNN
	1    8400 35700
	1    0    0    -1  
$EndComp
$Comp
L MKRZero_V5.0-eagle-import:CAPACITORS-0805 C6
U 1 1 3C82BFBC
P 2200 36500
AR Path="/3C82BFBC" Ref="C6"  Part="1" 
AR Path="/5DA56B2A/3C82BFBC" Ref="C6"  Part="1" 
F 0 "C6" V 2200 36603 59  0000 L CNN
F 1 "4.7nF" V 2300 36597 59  0000 L CNN
F 2 "MKRZero_V5.0:C0805" H 2200 36500 50  0001 C CNN
F 3 "" H 2200 36500 50  0001 C CNN
F 4 "1KV" V 2405 36597 59  0001 L CNN "VOLTAGE"
	1    2200 36500
	0    1    1    0   
$EndComp
$Comp
L MKRZero_V5.0-eagle-import:R-0402 R2
U 1 1 851B3FB9
P 2600 36500
AR Path="/851B3FB9" Ref="R2"  Part="1" 
AR Path="/5DA56B2A/851B3FB9" Ref="R2"  Part="1" 
F 0 "R2" V 2640 36430 59  0000 R CNN
F 1 "1M" V 2540 36430 59  0000 R CNN
F 2 "MKRZero_V5.0:0402-1005X55N" H 2600 36500 50  0001 C CNN
F 3 "" H 2600 36500 50  0001 C CNN
	1    2600 36500
	0    -1   -1   0   
$EndComp
$Comp
L MKRZero_V5.0-eagle-import:GND #GND19
U 1 1 F278BC0E
P 2600 36800
AR Path="/F278BC0E" Ref="#GND19"  Part="1" 
AR Path="/5DA56B2A/F278BC0E" Ref="#GND019"  Part="1" 
F 0 "#GND019" H 2600 36800 50  0001 C CNN
F 1 "GND" H 2500 36700 59  0000 L BNN
F 2 "" H 2600 36800 50  0001 C CNN
F 3 "" H 2600 36800 50  0001 C CNN
	1    2600 36800
	1    0    0    -1  
$EndComp
$Comp
L MKRZero_V5.0-eagle-import:MF-FSMF050X-2 F2
U 1 1 3EAE4237
P 3300 34300
AR Path="/3EAE4237" Ref="F2"  Part="1" 
AR Path="/5DA56B2A/3EAE4237" Ref="F2"  Part="1" 
F 0 "F2" V 3379 34300 59  0000 C TNN
F 1 "MF-FSMF050X-2" V 3225 34300 59  0000 C BNN
F 2 "MKRZero_V5.0:0603-F1608X100N" H 3300 34300 50  0001 C CNN
F 3 "" H 3300 34300 50  0001 C CNN
	1    3300 34300
	0    -1   -1   0   
$EndComp
$Comp
L MKRZero_V5.0-eagle-import:2X3_SMD_MALE J8
U 1 1 BC411E6C
P 3200 40300
AR Path="/BC411E6C" Ref="J8"  Part="1" 
AR Path="/5DA56B2A/BC411E6C" Ref="J8"  Part="1" 
F 0 "J8" H 3050 40530 59  0000 L BNN
F 1 "2X3_SMD_MALE" H 3050 40000 59  0000 L BNN
F 2 "MKRZero_V5.0:2X3_SMT" H 3200 40300 50  0001 C CNN
F 3 "" H 3200 40300 50  0001 C CNN
	1    3200 40300
	1    0    0    -1  
$EndComp
$Comp
L MKRZero_V5.0-eagle-import:TPB2,54 PA28
U 1 1 B6EE9323
P 7300 37000
AR Path="/B6EE9323" Ref="PA28"  Part="1" 
AR Path="/5DA56B2A/B6EE9323" Ref="PA28"  Part="1" 
F 0 "PA28" H 7240 37020 59  0000 L BNN
F 1 "TPB2,54" H 7300 37000 50  0001 C CNN
F 2 "MKRZero_V5.0:B2,54" H 7300 37000 50  0001 C CNN
F 3 "" H 7300 37000 50  0001 C CNN
	1    7300 37000
	0    1    1    0   
$EndComp
$Comp
L MKRZero_V5.0-eagle-import:PTR1B1,27 D-
U 1 1 CC3F8970
P 3400 34800
AR Path="/CC3F8970" Ref="D-"  Part="1" 
AR Path="/5DA56B2A/CC3F8970" Ref="D-1"  Part="1" 
F 0 "D-1" V 3360 34550 59  0000 L BNN
F 1 "PTR1B1,27" H 3400 34800 50  0001 C CNN
F 2 "MKRZero_V5.0:B1,27" H 3400 34800 50  0001 C CNN
F 3 "" H 3400 34800 50  0001 C CNN
	1    3400 34800
	-1   0    0    1   
$EndComp
$Comp
L MKRZero_V5.0-eagle-import:PTR1B1,27 D+
U 1 1 B1944827
P 3500 35000
AR Path="/B1944827" Ref="D+"  Part="1" 
AR Path="/5DA56B2A/B1944827" Ref="D+1"  Part="1" 
F 0 "D+1" V 3460 34750 59  0000 L BNN
F 1 "PTR1B1,27" H 3500 35000 50  0001 C CNN
F 2 "MKRZero_V5.0:B1,27" H 3500 35000 50  0001 C CNN
F 3 "" H 3500 35000 50  0001 C CNN
	1    3500 35000
	-1   0    0    1   
$EndComp
$Comp
L MKRZero_V5.0-eagle-import:AMPHENOL_114-00841-68 J3
U 1 1 B665FDA9
P 9200 35000
AR Path="/B665FDA9" Ref="J3"  Part="1" 
AR Path="/5DA56B2A/B665FDA9" Ref="J3"  Part="1" 
F 0 "J3" H 8650 35500 42  0000 L BNN
F 1 "AMPHENOL_114-00841-68" H 8900 35500 42  0000 L BNN
F 2 "MKRZero_V5.0:AMPHENOL_114-00841-68" H 9200 35000 50  0001 C CNN
F 3 "" H 9200 35000 50  0001 C CNN
	1    9200 35000
	1    0    0    -1  
$EndComp
$Comp
L MKRZero_V5.0-eagle-import:GND #GND20
U 1 1 E53A484A
P 9600 34000
AR Path="/E53A484A" Ref="#GND20"  Part="1" 
AR Path="/5DA56B2A/E53A484A" Ref="#GND020"  Part="1" 
F 0 "#GND020" H 9600 34000 50  0001 C CNN
F 1 "GND" H 9500 33900 59  0000 L BNN
F 2 "" H 9600 34000 50  0001 C CNN
F 3 "" H 9600 34000 50  0001 C CNN
	1    9600 34000
	-1   0    0    1   
$EndComp
$Comp
L MKRZero_V5.0-eagle-import:+3V3 #+3V14
U 1 1 04853D9A
P 8400 33850
AR Path="/04853D9A" Ref="#+3V14"  Part="1" 
AR Path="/5DA56B2A/04853D9A" Ref="#+3V014"  Part="1" 
F 0 "#+3V014" H 8400 33850 50  0001 C CNN
F 1 "+3V3" H 8400 33870 59  0000 C BNN
F 2 "" H 8400 33850 50  0001 C CNN
F 3 "" H 8400 33850 50  0001 C CNN
	1    8400 33850
	1    0    0    -1  
$EndComp
$Comp
L MKRZero_V5.0-eagle-import:GND #GND25
U 1 1 F212C7DE
P 8950 34150
AR Path="/F212C7DE" Ref="#GND25"  Part="1" 
AR Path="/5DA56B2A/F212C7DE" Ref="#GND025"  Part="1" 
F 0 "#GND025" H 8950 34150 50  0001 C CNN
F 1 "GND" H 8850 34050 59  0000 L BNN
F 2 "" H 8950 34150 50  0001 C CNN
F 3 "" H 8950 34150 50  0001 C CNN
	1    8950 34150
	0    -1   -1   0   
$EndComp
$Comp
L MKRZero_V5.0-eagle-import:PTR1B1,27 VUSB
U 1 1 CAFED08E
P 2800 34000
AR Path="/CAFED08E" Ref="VUSB"  Part="1" 
AR Path="/5DA56B2A/CAFED08E" Ref="VUSB1"  Part="1" 
F 0 "VUSB1" V 2760 33750 59  0000 L BNN
F 1 "PTR1B1,27" H 2800 34000 50  0001 C CNN
F 2 "MKRZero_V5.0:B1,27" H 2800 34000 50  0001 C CNN
F 3 "" H 2800 34000 50  0001 C CNN
	1    2800 34000
	-1   0    0    1   
$EndComp
$Comp
L MKRZero_V5.0-eagle-import:PTR1B1,27 USB_ID
U 1 1 756C797F
P 3700 35900
AR Path="/756C797F" Ref="USB_ID"  Part="1" 
AR Path="/5DA56B2A/756C797F" Ref="USB_ID1"  Part="1" 
F 0 "USB_ID1" V 3660 35650 59  0000 L BNN
F 1 "PTR1B1,27" H 3700 35900 50  0001 C CNN
F 2 "MKRZero_V5.0:B1,27" H 3700 35900 50  0001 C CNN
F 3 "" H 3700 35900 50  0001 C CNN
	1    3700 35900
	1    0    0    -1  
$EndComp
$Comp
L MKRZero_V5.0-eagle-import:R-0402 R9
U 1 1 54C472F1
P 7700 37300
AR Path="/54C472F1" Ref="R9"  Part="1" 
AR Path="/5DA56B2A/54C472F1" Ref="R9"  Part="1" 
F 0 "R9" H 7700 37350 59  0000 C BNN
F 1 "1M2" H 7700 37250 59  0000 C TNN
F 2 "MKRZero_V5.0:0402-1005X55N" H 7700 37300 50  0001 C CNN
F 3 "" H 7700 37300 50  0001 C CNN
	1    7700 37300
	0    -1   -1   0   
$EndComp
$Comp
L MKRZero_V5.0-eagle-import:R-0402 R19
U 1 1 F3993C53
P 8000 37100
AR Path="/F3993C53" Ref="R19"  Part="1" 
AR Path="/5DA56B2A/F3993C53" Ref="R19"  Part="1" 
F 0 "R19" H 8000 37150 59  0000 C BNN
F 1 "330k" H 8000 37050 59  0000 C TNN
F 2 "MKRZero_V5.0:0402-1005X55N" H 8000 37100 50  0001 C CNN
F 3 "" H 8000 37100 50  0001 C CNN
	1    8000 37100
	1    0    0    -1  
$EndComp
$Comp
L MKRZero_V5.0-eagle-import:GND #GND26
U 1 1 3890F70B
P 7700 37600
AR Path="/3890F70B" Ref="#GND26"  Part="1" 
AR Path="/5DA56B2A/3890F70B" Ref="#GND026"  Part="1" 
F 0 "#GND026" H 7700 37600 50  0001 C CNN
F 1 "GND" H 7600 37500 59  0000 L BNN
F 2 "" H 7700 37600 50  0001 C CNN
F 3 "" H 7700 37600 50  0001 C CNN
	1    7700 37600
	1    0    0    -1  
$EndComp
$Comp
L MKRZero_V5.0-eagle-import:C-0402 C13
U 1 1 CC542157
P 7250 37350
AR Path="/CC542157" Ref="C13"  Part="1" 
AR Path="/5DA56B2A/CC542157" Ref="C13"  Part="1" 
F 0 "C13" H 7370 37365 59  0000 L BNN
F 1 "100nF" H 7370 37325 59  0000 L TNN
F 2 "MKRZero_V5.0:0402-1005X55N" H 7250 37350 50  0001 C CNN
F 3 "" H 7250 37350 50  0001 C CNN
	1    7250 37350
	1    0    0    -1  
$EndComp
$Comp
L MKRZero_V5.0-eagle-import:GND #GND27
U 1 1 F8638A93
P 7250 37600
AR Path="/F8638A93" Ref="#GND27"  Part="1" 
AR Path="/5DA56B2A/F8638A93" Ref="#GND027"  Part="1" 
F 0 "#GND027" H 7250 37600 50  0001 C CNN
F 1 "GND" H 7150 37500 59  0000 L BNN
F 2 "" H 7250 37600 50  0001 C CNN
F 3 "" H 7250 37600 50  0001 C CNN
	1    7250 37600
	1    0    0    -1  
$EndComp
$Comp
L MKRZero_V5.0-eagle-import:PTR1B1,27 ESDA
U 1 1 274E4120
P 11200 37600
AR Path="/274E4120" Ref="ESDA"  Part="1" 
AR Path="/5DA56B2A/274E4120" Ref="ESDA1"  Part="1" 
F 0 "ESDA1" V 11160 37350 59  0000 L BNN
F 1 "PTR1B1,27" H 11200 37600 50  0001 C CNN
F 2 "MKRZero_V5.0:B1,27" H 11200 37600 50  0001 C CNN
F 3 "" H 11200 37600 50  0001 C CNN
	1    11200 37600
	-1   0    0    1   
$EndComp
$Comp
L MKRZero_V5.0-eagle-import:PTR1B1,27 ESCL
U 1 1 4C88DDE2
P 11000 37600
AR Path="/4C88DDE2" Ref="ESCL"  Part="1" 
AR Path="/5DA56B2A/4C88DDE2" Ref="ESCL1"  Part="1" 
F 0 "ESCL1" V 10960 37350 59  0000 L BNN
F 1 "PTR1B1,27" H 11000 37600 50  0001 C CNN
F 2 "MKRZero_V5.0:B1,27" H 11000 37600 50  0001 C CNN
F 3 "" H 11000 37600 50  0001 C CNN
	1    11000 37600
	-1   0    0    1   
$EndComp
$Comp
L MKRZero_V5.0-eagle-import:PTR1B1,27 EWK
U 1 1 A4D3A75E
P 10800 37600
AR Path="/A4D3A75E" Ref="EWK"  Part="1" 
AR Path="/5DA56B2A/A4D3A75E" Ref="EWK1"  Part="1" 
F 0 "EWK1" V 10760 37350 59  0000 L BNN
F 1 "PTR1B1,27" H 10800 37600 50  0001 C CNN
F 2 "MKRZero_V5.0:B1,27" H 10800 37600 50  0001 C CNN
F 3 "" H 10800 37600 50  0001 C CNN
	1    10800 37600
	-1   0    0    1   
$EndComp
$Comp
L MKRZero_V5.0-eagle-import:GND #GND28
U 1 1 D1DF28FE
P 8800 36800
AR Path="/D1DF28FE" Ref="#GND28"  Part="1" 
AR Path="/5DA56B2A/D1DF28FE" Ref="#GND028"  Part="1" 
F 0 "#GND028" H 8800 36800 50  0001 C CNN
F 1 "GND" H 8700 36700 59  0000 L BNN
F 2 "" H 8800 36800 50  0001 C CNN
F 3 "" H 8800 36800 50  0001 C CNN
	1    8800 36800
	0    -1   -1   0   
$EndComp
$Comp
L MKRZero_V5.0-eagle-import:PUSHBUTTON2 U$9
U 1 1 9E0009A5
P 3400 41400
AR Path="/9E0009A5" Ref="U$9"  Part="1" 
AR Path="/5DA56B2A/9E0009A5" Ref="U$9"  Part="1" 
F 0 "U$9" V 3150 41300 59  0000 L BNN
F 1 "PUSHBUTTON2" V 3250 41525 59  0000 L BNN
F 2 "MKRZero_V5.0:C&K_PTS820_NOPEGS" H 3400 41400 50  0001 C CNN
F 3 "" H 3400 41400 50  0001 C CNN
	1    3400 41400
	1    0    0    -1  
$EndComp
$Comp
L MKRZero_V5.0-eagle-import:A3-FRAME FRAME1
U 1 1 212F7FCB
P 800 43400
AR Path="/212F7FCB" Ref="FRAME1"  Part="1" 
AR Path="/5DA56B2A/212F7FCB" Ref="FRAME1"  Part="1" 
F 0 "FRAME1" H 800 43400 50  0001 C CNN
F 1 "DNP" H 800 43400 50  0001 C CNN
F 2 "MKRZero_V5.0:FRAME" H 800 43400 50  0001 C CNN
F 3 "" H 800 43400 50  0001 C CNN
	1    800  43400
	1    0    0    -1  
$EndComp
Wire Notes Line
	11400 41200 12300 41200
Wire Notes Line
	11650 39100 11650 39000
Wire Notes Line
	11650 39000 11650 38900
Wire Notes Line
	11650 38900 12050 38900
Wire Notes Line
	12050 38900 12050 39000
Wire Notes Line
	12050 39000 12050 39100
Wire Notes Line
	12050 39100 11650 39100
Wire Notes Line
	11250 39200 11350 39200
Wire Notes Line
	11350 39200 11440 39200
Wire Notes Line
	11440 39200 11440 39400
Wire Notes Line
	11440 39400 11350 39400
Wire Notes Line
	11350 39400 11250 39400
Wire Notes Line
	11250 39400 11250 39200
Wire Notes Line
	11350 41150 11350 39400
Wire Notes Line
	12050 39000 12300 39000
Wire Notes Line
	11400 39000 11650 39000
Wire Notes Line
	11350 39200 11350 39050
Text Notes 12700 40190 0    59   ~ 0
14 <- TX
Text Notes 12700 40290 0    59   ~ 0
13 -> RX
Text Notes 12700 40390 0    59   ~ 0
12 SCL
Text Notes 12700 40090 0    59   ~ 0
RESET
Text Notes 12700 40490 0    59   ~ 0
11 SDA
Text Notes 12700 40990 0    59   ~ 0
6
Text Notes 12700 40890 0    59   ~ 0
7
Text Notes 12700 40790 0    59   ~ 0
8 MOSI
Text Notes 12700 40690 0    59   ~ 0
9 SCK
Text Notes 12700 40590 0    59   ~ 0
10 MISO
Text Notes 10800 39690 0    59   ~ 0
AREF
Text Notes 10800 39790 0    59   ~ 0
DAC0/A0
Text Notes 10800 39890 0    59   ~ 0
A1
Text Notes 10800 39990 0    59   ~ 0
A2
Text Notes 10800 40090 0    59   ~ 0
A3
Text Notes 10800 40190 0    59   ~ 0
A4
Text Notes 10800 40290 0    59   ~ 0
A5
Text Notes 10800 40390 0    59   ~ 0
A6
Text Notes 10800 40490 0    59   ~ 0
0
Text Notes 10800 40590 0    59   ~ 0
1
Text Notes 10800 40690 0    59   ~ 0
~~2
Text Notes 10800 40790 0    59   ~ 0
~~3
Text Notes 10800 40890 0    59   ~ 0
~~4
Text Notes 10800 40990 0    59   ~ 0
~~5
Text Notes 3100 41400 0    127  ~ 0
RESET
Text Notes 13400 37600 0    85   ~ 0
Crypto\nAuth
Wire Notes Line
	12450 39150 12450 39450
Wire Notes Line
	12250 39450 12250 39150
Wire Notes Line
	12250 39150 12450 39150
Wire Notes Line
	12250 39450 12350 39450
Wire Notes Line
	12350 39450 12450 39450
Wire Notes Line
	12350 39150 12350 39050
Text Notes 8900 34500 0    85   ~ 0
micro SD
Wire Notes Line
	12350 41150 12350 39450
Wire Notes Line
	11400 41200 11350 41150
Wire Notes Line
	12300 41200 12350 41150
Wire Notes Line
	11400 39000 11350 39050
Wire Notes Line
	12350 39050 12300 39000
Text Notes 14350 42600 0    59   ~ 0
Arturo Guadalupi
$EndSCHEMATC
