EESchema Schematic File Version 4
EELAYER 30 0
EELAYER END
$Descr A4 11693 8268
encoding utf-8
Sheet 1 3
Title ""
Date ""
Rev ""
Comp ""
Comment1 ""
Comment2 ""
Comment3 ""
Comment4 ""
$EndDescr
$Sheet
S 1000 1000 500  150 
U 5DA56B2A
F0 "MKRZero_V5.0_1" 50
F1 "MKRZero_V5.0_1.sch" 50
$EndSheet
$Sheet
S 3000 1000 500  150 
U 5DA56FA4
F0 "MKRZero_V5.0_2" 50
F1 "MKRZero_V5.0_2.sch" 50
$EndSheet
$EndSCHEMATC
