(module CHIPLED_0805 (layer F.Cu) (tedit 0)
  (descr "<b>CHIPLED</b><p>\nSource: http://www.osram.convergy.de/ ... LG_R971.pdf")
  (fp_text reference LED1 (at -1.27 1.27 90) (layer F.SilkS) hide
    (effects (font (size 1.2065 1.2065) (thickness 0.1016)) (justify left bottom))
  )
  (fp_text value Green (at 2.54 1.27 90) (layer F.Fab) hide
    (effects (font (size 1.2065 1.2065) (thickness 0.1016)) (justify left bottom))
  )
  (fp_circle (center -0.45 -0.85) (end -0.347 -0.85) (layer F.Fab) (width 0.1016))
  (fp_arc (start 0 -0.979199) (end -0.35 -0.925) (angle -162.394521) (layer F.Fab) (width 0.1016))
  (fp_arc (start 0 0.979199) (end -0.35 0.925) (angle 162.394521) (layer F.Fab) (width 0.1016))
  (fp_line (start 0.575 -0.525) (end 0.575 0.525) (layer F.Fab) (width 0.1016))
  (fp_line (start -0.575 0.5) (end -0.575 -0.925) (layer F.Fab) (width 0.1016))
  (fp_poly (pts (xy 0.3 -0.5) (xy 0.625 -0.5) (xy 0.625 -1) (xy 0.3 -1)) (layer F.Fab) (width 0))
  (fp_poly (pts (xy -0.325 -0.5) (xy -0.175 -0.5) (xy -0.175 -0.75) (xy -0.325 -0.75)) (layer F.Fab) (width 0))
  (fp_poly (pts (xy 0.175 -0.5) (xy 0.325 -0.5) (xy 0.325 -0.75) (xy 0.175 -0.75)) (layer F.Fab) (width 0))
  (fp_poly (pts (xy -0.2 -0.5) (xy 0.2 -0.5) (xy 0.2 -0.675) (xy -0.2 -0.675)) (layer F.Fab) (width 0))
  (fp_poly (pts (xy 0.3 1) (xy 0.625 1) (xy 0.625 0.5) (xy 0.3 0.5)) (layer F.Fab) (width 0))
  (fp_poly (pts (xy -0.625 1) (xy -0.3 1) (xy -0.3 0.5) (xy -0.625 0.5)) (layer F.Fab) (width 0))
  (fp_poly (pts (xy 0.175 0.75) (xy 0.325 0.75) (xy 0.325 0.5) (xy 0.175 0.5)) (layer F.Fab) (width 0))
  (fp_poly (pts (xy -0.325 0.75) (xy -0.175 0.75) (xy -0.175 0.5) (xy -0.325 0.5)) (layer F.Fab) (width 0))
  (fp_poly (pts (xy -0.2 0.675) (xy 0.2 0.675) (xy 0.2 0.5) (xy -0.2 0.5)) (layer F.Fab) (width 0))
  (fp_poly (pts (xy -0.1 0) (xy 0.1 0) (xy 0.1 -0.2) (xy -0.1 -0.2)) (layer F.SilkS) (width 0))
  (fp_poly (pts (xy -0.6 -0.5) (xy -0.3 -0.5) (xy -0.3 -0.8) (xy -0.6 -0.8)) (layer F.Fab) (width 0))
  (fp_poly (pts (xy -0.625 -0.925) (xy -0.3 -0.925) (xy -0.3 -1) (xy -0.625 -1)) (layer F.Fab) (width 0))
  (pad A smd rect (at 0 1.05) (size 1.2 1.2) (layers F.Cu F.Paste F.Mask)
    (solder_mask_margin 0.0508))
  (pad C smd rect (at 0 -1.05) (size 1.2 1.2) (layers F.Cu F.Paste F.Mask)
    (solder_mask_margin 0.0508))
)
