(module INTEGRATEDCIRCUITS_TQFP48-7X7 (layer F.Cu) (tedit 0)
  (fp_text reference IC1 (at -3.06 -5.235) (layer F.SilkS) hide
    (effects (font (size 0.9652 0.9652) (thickness 0.08128)) (justify left bottom))
  )
  (fp_text value SAMD21G18A-AUT (at -2.695 6.5651) (layer F.Fab) hide
    (effects (font (size 0.9652 0.9652) (thickness 0.08128)) (justify left bottom))
  )
  (fp_circle (center -2.921 -2.921) (end -2.779013 -2.921) (layer F.SilkS) (width 0.127))
  (fp_line (start -3.5 -3) (end -3 -3.5) (layer F.SilkS) (width 0.2032))
  (fp_line (start -3 -3.5) (end 3 -3.5) (layer F.SilkS) (width 0.2032))
  (fp_line (start 3 -3.5) (end 3.5 -3) (layer F.SilkS) (width 0.2032))
  (fp_line (start 3.5 -3) (end 3.5 3) (layer F.SilkS) (width 0.2032))
  (fp_line (start 3.5 3) (end 3 3.5) (layer F.SilkS) (width 0.2032))
  (fp_line (start 3 3.5) (end -3 3.5) (layer F.SilkS) (width 0.2032))
  (fp_line (start -3 3.5) (end -3.5 3) (layer F.SilkS) (width 0.2032))
  (fp_line (start -3.5 3) (end -3.5 -3) (layer F.SilkS) (width 0.2032))
  (fp_poly (pts (xy -4.25 -2.6) (xy -3.5 -2.6) (xy -3.5 -2.9) (xy -4.25 -2.9)) (layer F.Fab) (width 0))
  (fp_poly (pts (xy -4.25 -2.1) (xy -3.5 -2.1) (xy -3.5 -2.4) (xy -4.25 -2.4)) (layer F.Fab) (width 0))
  (fp_poly (pts (xy -4.25 -1.6) (xy -3.5 -1.6) (xy -3.5 -1.9) (xy -4.25 -1.9)) (layer F.Fab) (width 0))
  (fp_poly (pts (xy -4.25 -1.1) (xy -3.5 -1.1) (xy -3.5 -1.4) (xy -4.25 -1.4)) (layer F.Fab) (width 0))
  (fp_poly (pts (xy -4.25 -0.6) (xy -3.5 -0.6) (xy -3.5 -0.9) (xy -4.25 -0.9)) (layer F.Fab) (width 0))
  (fp_poly (pts (xy -4.25 -0.1) (xy -3.5 -0.1) (xy -3.5 -0.4) (xy -4.25 -0.4)) (layer F.Fab) (width 0))
  (fp_poly (pts (xy -4.25 0.4) (xy -3.5 0.4) (xy -3.5 0.1) (xy -4.25 0.1)) (layer F.Fab) (width 0))
  (fp_poly (pts (xy -4.25 0.9) (xy -3.5 0.9) (xy -3.5 0.6) (xy -4.25 0.6)) (layer F.Fab) (width 0))
  (fp_poly (pts (xy -4.25 1.4) (xy -3.5 1.4) (xy -3.5 1.1) (xy -4.25 1.1)) (layer F.Fab) (width 0))
  (fp_poly (pts (xy -4.25 1.9) (xy -3.5 1.9) (xy -3.5 1.6) (xy -4.25 1.6)) (layer F.Fab) (width 0))
  (fp_poly (pts (xy -4.25 2.4) (xy -3.5 2.4) (xy -3.5 2.1) (xy -4.25 2.1)) (layer F.Fab) (width 0))
  (fp_poly (pts (xy -4.25 2.9) (xy -3.5 2.9) (xy -3.5 2.6) (xy -4.25 2.6)) (layer F.Fab) (width 0))
  (fp_poly (pts (xy -4.25 2.9) (xy -3.5 2.9) (xy -3.5 2.6) (xy -4.25 2.6)) (layer F.Fab) (width 0))
  (fp_poly (pts (xy -2.9 4.25) (xy -2.6 4.25) (xy -2.6 3.5) (xy -2.9 3.5)) (layer F.Fab) (width 0))
  (fp_poly (pts (xy -2.4 4.25) (xy -2.1 4.25) (xy -2.1 3.5) (xy -2.4 3.5)) (layer F.Fab) (width 0))
  (fp_poly (pts (xy -1.9 4.25) (xy -1.6 4.25) (xy -1.6 3.5) (xy -1.9 3.5)) (layer F.Fab) (width 0))
  (fp_poly (pts (xy -1.4 4.25) (xy -1.1 4.25) (xy -1.1 3.5) (xy -1.4 3.5)) (layer F.Fab) (width 0))
  (fp_poly (pts (xy -0.9 4.25) (xy -0.6 4.25) (xy -0.6 3.5) (xy -0.9 3.5)) (layer F.Fab) (width 0))
  (fp_poly (pts (xy 0.1 4.25) (xy 0.4 4.25) (xy 0.4 3.5) (xy 0.1 3.5)) (layer F.Fab) (width 0))
  (fp_poly (pts (xy -0.4 4.25) (xy -0.1 4.25) (xy -0.1 3.5) (xy -0.4 3.5)) (layer F.Fab) (width 0))
  (fp_poly (pts (xy 0.6 4.25) (xy 0.9 4.25) (xy 0.9 3.5) (xy 0.6 3.5)) (layer F.Fab) (width 0))
  (fp_poly (pts (xy 1.1 4.25) (xy 1.4 4.25) (xy 1.4 3.5) (xy 1.1 3.5)) (layer F.Fab) (width 0))
  (fp_poly (pts (xy 1.6 4.25) (xy 1.9 4.25) (xy 1.9 3.5) (xy 1.6 3.5)) (layer F.Fab) (width 0))
  (fp_poly (pts (xy 2.1 4.25) (xy 2.4 4.25) (xy 2.4 3.5) (xy 2.1 3.5)) (layer F.Fab) (width 0))
  (fp_poly (pts (xy 2.6 4.25) (xy 2.9 4.25) (xy 2.9 3.5) (xy 2.6 3.5)) (layer F.Fab) (width 0))
  (fp_poly (pts (xy 3.5 1.9) (xy 4.25 1.9) (xy 4.25 1.6) (xy 3.5 1.6)) (layer F.Fab) (width 0))
  (fp_poly (pts (xy 3.5 2.9) (xy 4.25 2.9) (xy 4.25 2.6) (xy 3.5 2.6)) (layer F.Fab) (width 0))
  (fp_poly (pts (xy 3.5 2.4) (xy 4.25 2.4) (xy 4.25 2.1) (xy 3.5 2.1)) (layer F.Fab) (width 0))
  (fp_poly (pts (xy 3.5 1.4) (xy 4.25 1.4) (xy 4.25 1.1) (xy 3.5 1.1)) (layer F.Fab) (width 0))
  (fp_poly (pts (xy 3.5 0.9) (xy 4.25 0.9) (xy 4.25 0.6) (xy 3.5 0.6)) (layer F.Fab) (width 0))
  (fp_poly (pts (xy 3.5 0.4) (xy 4.25 0.4) (xy 4.25 0.1) (xy 3.5 0.1)) (layer F.Fab) (width 0))
  (fp_poly (pts (xy 3.5 -0.1) (xy 4.25 -0.1) (xy 4.25 -0.4) (xy 3.5 -0.4)) (layer F.Fab) (width 0))
  (fp_poly (pts (xy 3.5 -0.6) (xy 4.25 -0.6) (xy 4.25 -0.9) (xy 3.5 -0.9)) (layer F.Fab) (width 0))
  (fp_poly (pts (xy 3.5 -1.1) (xy 4.25 -1.1) (xy 4.25 -1.4) (xy 3.5 -1.4)) (layer F.Fab) (width 0))
  (fp_poly (pts (xy 3.5 -1.6) (xy 4.25 -1.6) (xy 4.25 -1.9) (xy 3.5 -1.9)) (layer F.Fab) (width 0))
  (fp_poly (pts (xy 3.5 -2.1) (xy 4.25 -2.1) (xy 4.25 -2.4) (xy 3.5 -2.4)) (layer F.Fab) (width 0))
  (fp_poly (pts (xy 3.5 -2.6) (xy 4.25 -2.6) (xy 4.25 -2.9) (xy 3.5 -2.9)) (layer F.Fab) (width 0))
  (fp_poly (pts (xy -2.9 -3.5) (xy -2.6 -3.5) (xy -2.6 -4.25) (xy -2.9 -4.25)) (layer F.Fab) (width 0))
  (fp_poly (pts (xy -2.4 -3.5) (xy -2.1 -3.5) (xy -2.1 -4.25) (xy -2.4 -4.25)) (layer F.Fab) (width 0))
  (fp_poly (pts (xy -1.9 -3.5) (xy -1.6 -3.5) (xy -1.6 -4.25) (xy -1.9 -4.25)) (layer F.Fab) (width 0))
  (fp_poly (pts (xy -1.4 -3.5) (xy -1.1 -3.5) (xy -1.1 -4.25) (xy -1.4 -4.25)) (layer F.Fab) (width 0))
  (fp_poly (pts (xy -0.9 -3.5) (xy -0.6 -3.5) (xy -0.6 -4.25) (xy -0.9 -4.25)) (layer F.Fab) (width 0))
  (fp_poly (pts (xy -0.4 -3.5) (xy -0.1 -3.5) (xy -0.1 -4.25) (xy -0.4 -4.25)) (layer F.Fab) (width 0))
  (fp_poly (pts (xy 0.1 -3.5) (xy 0.4 -3.5) (xy 0.4 -4.25) (xy 0.1 -4.25)) (layer F.Fab) (width 0))
  (fp_poly (pts (xy 0.6 -3.5) (xy 0.9 -3.5) (xy 0.9 -4.25) (xy 0.6 -4.25)) (layer F.Fab) (width 0))
  (fp_poly (pts (xy 1.1 -3.5) (xy 1.4 -3.5) (xy 1.4 -4.25) (xy 1.1 -4.25)) (layer F.Fab) (width 0))
  (fp_poly (pts (xy 1.6 -3.5) (xy 1.9 -3.5) (xy 1.9 -4.25) (xy 1.6 -4.25)) (layer F.Fab) (width 0))
  (fp_poly (pts (xy 2.1 -3.5) (xy 2.4 -3.5) (xy 2.4 -4.25) (xy 2.1 -4.25)) (layer F.Fab) (width 0))
  (fp_poly (pts (xy 2.6 -3.5) (xy 2.9 -3.5) (xy 2.9 -4.25) (xy 2.6 -4.25)) (layer F.Fab) (width 0))
  (pad 1 smd rect (at -4.275 -2.75) (size 0.85 0.32) (layers F.Cu F.Paste F.Mask)
    (solder_mask_margin 0.0508))
  (pad 2 smd roundrect (at -4.275 -2.25) (size 0.85 0.32) (layers F.Cu F.Paste F.Mask) (roundrect_rratio 0.4)
    (solder_mask_margin 0.0508))
  (pad 3 smd roundrect (at -4.275 -1.75) (size 0.85 0.32) (layers F.Cu F.Paste F.Mask) (roundrect_rratio 0.4)
    (solder_mask_margin 0.0508))
  (pad 4 smd roundrect (at -4.275 -1.25) (size 0.85 0.32) (layers F.Cu F.Paste F.Mask) (roundrect_rratio 0.4)
    (solder_mask_margin 0.0508))
  (pad 5 smd roundrect (at -4.275 -0.75) (size 0.85 0.32) (layers F.Cu F.Paste F.Mask) (roundrect_rratio 0.4)
    (solder_mask_margin 0.0508))
  (pad 6 smd roundrect (at -4.275 -0.25) (size 0.85 0.32) (layers F.Cu F.Paste F.Mask) (roundrect_rratio 0.4)
    (solder_mask_margin 0.0508))
  (pad 7 smd roundrect (at -4.275 0.25) (size 0.85 0.32) (layers F.Cu F.Paste F.Mask) (roundrect_rratio 0.4)
    (solder_mask_margin 0.0508))
  (pad 8 smd roundrect (at -4.275 0.75) (size 0.85 0.32) (layers F.Cu F.Paste F.Mask) (roundrect_rratio 0.4)
    (solder_mask_margin 0.0508))
  (pad 9 smd roundrect (at -4.275 1.25) (size 0.85 0.32) (layers F.Cu F.Paste F.Mask) (roundrect_rratio 0.4)
    (solder_mask_margin 0.0508))
  (pad 10 smd roundrect (at -4.275 1.75) (size 0.85 0.32) (layers F.Cu F.Paste F.Mask) (roundrect_rratio 0.4)
    (solder_mask_margin 0.0508))
  (pad 11 smd roundrect (at -4.275 2.25) (size 0.85 0.32) (layers F.Cu F.Paste F.Mask) (roundrect_rratio 0.4)
    (solder_mask_margin 0.0508))
  (pad 12 smd roundrect (at -4.275 2.75) (size 0.85 0.32) (layers F.Cu F.Paste F.Mask) (roundrect_rratio 0.4)
    (solder_mask_margin 0.0508))
  (pad 13 smd roundrect (at -2.75 4.275 90) (size 0.85 0.32) (layers F.Cu F.Paste F.Mask) (roundrect_rratio 0.4)
    (solder_mask_margin 0.0508))
  (pad 14 smd roundrect (at -2.25 4.275 90) (size 0.85 0.32) (layers F.Cu F.Paste F.Mask) (roundrect_rratio 0.4)
    (solder_mask_margin 0.0508))
  (pad 15 smd roundrect (at -1.75 4.275 90) (size 0.85 0.32) (layers F.Cu F.Paste F.Mask) (roundrect_rratio 0.4)
    (solder_mask_margin 0.0508))
  (pad 16 smd roundrect (at -1.25 4.275 90) (size 0.85 0.32) (layers F.Cu F.Paste F.Mask) (roundrect_rratio 0.4)
    (solder_mask_margin 0.0508))
  (pad 17 smd roundrect (at -0.75 4.275 90) (size 0.85 0.32) (layers F.Cu F.Paste F.Mask) (roundrect_rratio 0.4)
    (solder_mask_margin 0.0508))
  (pad 18 smd roundrect (at -0.25 4.275 90) (size 0.85 0.32) (layers F.Cu F.Paste F.Mask) (roundrect_rratio 0.4)
    (solder_mask_margin 0.0508))
  (pad 19 smd roundrect (at 0.25 4.275 90) (size 0.85 0.32) (layers F.Cu F.Paste F.Mask) (roundrect_rratio 0.4)
    (solder_mask_margin 0.0508))
  (pad 20 smd roundrect (at 0.75 4.275 90) (size 0.85 0.32) (layers F.Cu F.Paste F.Mask) (roundrect_rratio 0.4)
    (solder_mask_margin 0.0508))
  (pad 21 smd roundrect (at 1.25 4.275 90) (size 0.85 0.32) (layers F.Cu F.Paste F.Mask) (roundrect_rratio 0.4)
    (solder_mask_margin 0.0508))
  (pad 22 smd roundrect (at 1.75 4.275 90) (size 0.85 0.32) (layers F.Cu F.Paste F.Mask) (roundrect_rratio 0.4)
    (solder_mask_margin 0.0508))
  (pad 23 smd roundrect (at 2.25 4.275 90) (size 0.85 0.32) (layers F.Cu F.Paste F.Mask) (roundrect_rratio 0.4)
    (solder_mask_margin 0.0508))
  (pad 24 smd roundrect (at 2.75 4.275 90) (size 0.85 0.32) (layers F.Cu F.Paste F.Mask) (roundrect_rratio 0.4)
    (solder_mask_margin 0.0508))
  (pad 25 smd roundrect (at 4.275 2.75) (size 0.85 0.32) (layers F.Cu F.Paste F.Mask) (roundrect_rratio 0.4)
    (solder_mask_margin 0.0508))
  (pad 26 smd roundrect (at 4.275 2.25) (size 0.85 0.32) (layers F.Cu F.Paste F.Mask) (roundrect_rratio 0.4)
    (solder_mask_margin 0.0508))
  (pad 27 smd roundrect (at 4.275 1.75) (size 0.85 0.32) (layers F.Cu F.Paste F.Mask) (roundrect_rratio 0.4)
    (solder_mask_margin 0.0508))
  (pad 28 smd roundrect (at 4.275 1.25) (size 0.85 0.32) (layers F.Cu F.Paste F.Mask) (roundrect_rratio 0.4)
    (solder_mask_margin 0.0508))
  (pad 29 smd roundrect (at 4.275 0.75) (size 0.85 0.32) (layers F.Cu F.Paste F.Mask) (roundrect_rratio 0.4)
    (solder_mask_margin 0.0508))
  (pad 30 smd roundrect (at 4.275 0.25) (size 0.85 0.32) (layers F.Cu F.Paste F.Mask) (roundrect_rratio 0.4)
    (solder_mask_margin 0.0508))
  (pad 31 smd roundrect (at 4.275 -0.25) (size 0.85 0.32) (layers F.Cu F.Paste F.Mask) (roundrect_rratio 0.4)
    (solder_mask_margin 0.0508))
  (pad 32 smd roundrect (at 4.275 -0.75) (size 0.85 0.32) (layers F.Cu F.Paste F.Mask) (roundrect_rratio 0.4)
    (solder_mask_margin 0.0508))
  (pad 33 smd roundrect (at 4.275 -1.25) (size 0.85 0.32) (layers F.Cu F.Paste F.Mask) (roundrect_rratio 0.4)
    (solder_mask_margin 0.0508))
  (pad 34 smd roundrect (at 4.275 -1.75) (size 0.85 0.32) (layers F.Cu F.Paste F.Mask) (roundrect_rratio 0.4)
    (solder_mask_margin 0.0508))
  (pad 35 smd roundrect (at 4.275 -2.25) (size 0.85 0.32) (layers F.Cu F.Paste F.Mask) (roundrect_rratio 0.4)
    (solder_mask_margin 0.0508))
  (pad 36 smd roundrect (at 4.275 -2.75) (size 0.85 0.32) (layers F.Cu F.Paste F.Mask) (roundrect_rratio 0.4)
    (solder_mask_margin 0.0508))
  (pad 37 smd roundrect (at 2.75 -4.275 90) (size 0.85 0.32) (layers F.Cu F.Paste F.Mask) (roundrect_rratio 0.4)
    (solder_mask_margin 0.0508))
  (pad 38 smd roundrect (at 2.25 -4.275 90) (size 0.85 0.32) (layers F.Cu F.Paste F.Mask) (roundrect_rratio 0.4)
    (solder_mask_margin 0.0508))
  (pad 39 smd roundrect (at 1.75 -4.275 90) (size 0.85 0.32) (layers F.Cu F.Paste F.Mask) (roundrect_rratio 0.4)
    (solder_mask_margin 0.0508))
  (pad 40 smd roundrect (at 1.25 -4.275 90) (size 0.85 0.32) (layers F.Cu F.Paste F.Mask) (roundrect_rratio 0.4)
    (solder_mask_margin 0.0508))
  (pad 41 smd roundrect (at 0.75 -4.275 90) (size 0.85 0.32) (layers F.Cu F.Paste F.Mask) (roundrect_rratio 0.4)
    (solder_mask_margin 0.0508))
  (pad 42 smd roundrect (at 0.25 -4.275 90) (size 0.85 0.32) (layers F.Cu F.Paste F.Mask) (roundrect_rratio 0.4)
    (solder_mask_margin 0.0508))
  (pad 43 smd roundrect (at -0.25 -4.275 90) (size 0.85 0.32) (layers F.Cu F.Paste F.Mask) (roundrect_rratio 0.4)
    (solder_mask_margin 0.0508))
  (pad 44 smd roundrect (at -0.75 -4.275 90) (size 0.85 0.32) (layers F.Cu F.Paste F.Mask) (roundrect_rratio 0.4)
    (solder_mask_margin 0.0508))
  (pad 45 smd roundrect (at -1.25 -4.275 90) (size 0.85 0.32) (layers F.Cu F.Paste F.Mask) (roundrect_rratio 0.4)
    (solder_mask_margin 0.0508))
  (pad 46 smd roundrect (at -1.75 -4.275 90) (size 0.85 0.32) (layers F.Cu F.Paste F.Mask) (roundrect_rratio 0.4)
    (solder_mask_margin 0.0508))
  (pad 47 smd roundrect (at -2.25 -4.275 90) (size 0.85 0.32) (layers F.Cu F.Paste F.Mask) (roundrect_rratio 0.4)
    (solder_mask_margin 0.0508))
  (pad 48 smd roundrect (at -2.75 -4.275 90) (size 0.85 0.32) (layers F.Cu F.Paste F.Mask) (roundrect_rratio 0.4)
    (solder_mask_margin 0.0508))
)
