(module NEMA17_HOLE_PATTERN_2 (layer F.Cu) (tedit 0)
  (fp_text reference U$2 (at 0 0) (layer F.SilkS) hide
    (effects (font (size 1.27 1.27) (thickness 0.15)))
  )
  (fp_text value NEMA17_HOLE_PATTERNNEW (at 0 0) (layer F.SilkS) hide
    (effects (font (size 1.27 1.27) (thickness 0.15)))
  )
  (fp_circle (center 0 0) (end 0.508 0) (layer F.SilkS) (width 0.127))
  (fp_circle (center -15.5 -15.5) (end -13.875 -15.5) (layer Dwgs.User) (width 3.25))
  (fp_circle (center 15.5 -15.5) (end 17.125 -15.5) (layer Dwgs.User) (width 3.25))
  (fp_circle (center 15.5 15.5) (end 17.125 15.5) (layer Dwgs.User) (width 3.25))
  (fp_circle (center 15.5 -15.5) (end 17.125 -15.5) (layer Dwgs.User) (width 3.25))
  (fp_circle (center 15.5 15.5) (end 17.125 15.5) (layer Dwgs.User) (width 3.25))
  (fp_circle (center -15.5 -15.5) (end -13.875 -15.5) (layer Dwgs.User) (width 3.25))
  (fp_line (start -21.15 21.15) (end 21.15 21.15) (layer Dwgs.User) (width 0.127))
  (fp_line (start 21.15 21.15) (end 21.15 -21.15) (layer Dwgs.User) (width 0.127))
  (fp_line (start 21.15 -21.15) (end -21.15 -21.15) (layer Dwgs.User) (width 0.127))
  (fp_line (start -21.15 -21.15) (end -21.15 21.15) (layer Dwgs.User) (width 0.127))
  (fp_line (start 0 0) (end 0 -0.676) (layer F.SilkS) (width 0.127))
  (fp_line (start 0 0) (end 0.676 0) (layer F.SilkS) (width 0.127))
  (fp_line (start 0 0) (end 0 0.676) (layer F.SilkS) (width 0.127))
  (fp_line (start 0 0) (end -0.676 0) (layer F.SilkS) (width 0.127))
  (fp_poly (pts (xy 21.5 21.5) (xy 21.5 10.5) (xy 21.5 10) (xy 21.5 9.5)
    (xy 9.5 21.5)) (layer Dwgs.User) (width 0))
  (fp_poly (pts (xy 21.5 -21.5) (xy 10.5 -21.5) (xy 10 -21.5) (xy 9.5 -21.5)
    (xy 21.5 -9.5)) (layer Dwgs.User) (width 0))
  (fp_poly (pts (xy -21.5 -21.5) (xy -21.5 -10.5) (xy -21.5 -10) (xy -21.5 -9.5)
    (xy -9.5 -21.5)) (layer Dwgs.User) (width 0))
  (fp_poly (pts (xy -18 -26.5) (xy -18 -15.5) (xy -18 -15) (xy -18 -14.5)) (layer Dwgs.User) (width 0))
  (fp_poly (pts (xy 21.5 -21.5) (xy 10.5 -21.5) (xy 10 -21.5) (xy 9.5 -21.5)
    (xy 21.5 -9.5)) (layer Dwgs.User) (width 0))
  (fp_poly (pts (xy -21.5 -21.5) (xy -21.5 -10.5) (xy -21.5 -10) (xy -21.5 -9.5)
    (xy -9.5 -21.5)) (layer Dwgs.User) (width 0))
  (fp_poly (pts (xy -21.5 21.5) (xy -10.5 21.5) (xy -10 21.5) (xy -9.5 21.5)
    (xy -21.5 9.5)) (layer Dwgs.User) (width 0))
  (fp_poly (pts (xy 21.5 21.5) (xy 21.5 10.5) (xy 21.5 10) (xy 21.5 9.5)
    (xy 9.5 21.5)) (layer Dwgs.User) (width 0))
  (fp_poly (pts (xy -21.5 21.5) (xy -10.5 21.5) (xy -10 21.5) (xy -9.5 21.5)
    (xy -21.5 9.5)) (layer Dwgs.User) (width 0))
  (pad "" np_thru_hole circle (at -15.5 -15.5) (size 3.2 3.2) (drill 3.2) (layers *.Cu *.Mask))
  (pad "" np_thru_hole circle (at -15.5 15.5) (size 3.2 3.2) (drill 3.2) (layers *.Cu *.Mask))
  (pad "" np_thru_hole circle (at 15.5 15.5) (size 3.2 3.2) (drill 3.2) (layers *.Cu *.Mask))
  (pad "" np_thru_hole circle (at 15.5 -15.5) (size 3.2 3.2) (drill 3.2) (layers *.Cu *.Mask))
)
