(module PANASONIC_D (layer F.Cu) (tedit 0)
  (fp_text reference C12 (at -1.75 -1) (layer F.SilkS) hide
    (effects (font (size 0.9652 0.9652) (thickness 0.08128)) (justify right top))
  )
  (fp_text value 100uF (at -1.75 1.975) (layer F.Fab) hide
    (effects (font (size 0.9652 0.9652) (thickness 0.08128)) (justify right top))
  )
  (fp_circle (center 0 0) (end 3.1 0) (layer F.Fab) (width 0.1016))
  (fp_line (start -3.25 -3.25) (end 1.55 -3.25) (layer F.Fab) (width 0.1016))
  (fp_line (start 1.55 -3.25) (end 3.25 -1.55) (layer F.Fab) (width 0.1016))
  (fp_line (start 3.25 -1.55) (end 3.25 1.55) (layer F.Fab) (width 0.1016))
  (fp_line (start 3.25 1.55) (end 1.55 3.25) (layer F.Fab) (width 0.1016))
  (fp_line (start 1.55 3.25) (end -3.25 3.25) (layer F.Fab) (width 0.1016))
  (fp_line (start -3.25 3.25) (end -3.25 -3.25) (layer F.Fab) (width 0.1016))
  (fp_line (start -3.25 -0.95) (end -3.25 -3.25) (layer F.SilkS) (width 0.1016))
  (fp_line (start -3.25 -3.25) (end 1.55 -3.25) (layer F.SilkS) (width 0.1016))
  (fp_line (start 1.55 -3.25) (end 3.25 -1.55) (layer F.SilkS) (width 0.1016))
  (fp_line (start 3.25 -1.55) (end 3.25 -0.95) (layer F.SilkS) (width 0.1016))
  (fp_line (start 3.25 0.95) (end 3.25 1.55) (layer F.SilkS) (width 0.1016))
  (fp_line (start 3.25 1.55) (end 1.55 3.25) (layer F.SilkS) (width 0.1016))
  (fp_line (start 1.55 3.25) (end -3.25 3.25) (layer F.SilkS) (width 0.1016))
  (fp_line (start -3.25 3.25) (end -3.25 0.95) (layer F.SilkS) (width 0.1016))
  (fp_arc (start 0 0) (end 2.95 -0.95) (angle -144.299363) (layer F.SilkS) (width 0.1016))
  (fp_arc (start 0 0) (end -2.95 0.95) (angle -144.299363) (layer F.SilkS) (width 0.1016))
  (fp_line (start -2.1 -2.25) (end -2.1 2.2) (layer F.Fab) (width 0.1016))
  (fp_poly (pts (xy -3.65 0.35) (xy -3.05 0.35) (xy -3.05 -0.35) (xy -3.65 -0.35)) (layer F.Fab) (width 0))
  (fp_poly (pts (xy 3.05 0.35) (xy 3.65 0.35) (xy 3.65 -0.35) (xy 3.05 -0.35)) (layer F.Fab) (width 0))
  (fp_poly (pts (xy -2.15 -2.15) (xy -2.6 -1.6) (xy -2.9 -0.9) (xy -3.05 0)
    (xy -2.9 0.95) (xy -2.55 1.65) (xy -2.15 2.15) (xy -2.15 -2.1)) (layer F.Fab) (width 0))
  (pad + smd rect (at 2.4 0) (size 3 1.4) (layers F.Cu F.Paste F.Mask)
    (solder_mask_margin 0.0508))
  (pad - smd rect (at -2.4 0) (size 3 1.4) (layers F.Cu F.Paste F.Mask)
    (solder_mask_margin 0.0508))
)
