(module PTH_2.54MM_01X03 (layer F.Cu) (tedit 0)
  (descr "<b>Description:</b> Package for 2.54MM Pitch Header 3 Position. Based on 4UCON 00834.<br>")
  (fp_text reference V+ (at -3.79 -1.5 -180) (layer F.SilkS)
    (effects (font (size 0.77216 0.77216) (thickness 0.123545)) (justify left bottom))
  )
  (fp_text value "" (at 0 0) (layer F.SilkS) hide
    (effects (font (size 1.27 1.27) (thickness 0.15)) (justify right top))
  )
  (fp_line (start -3.79 -1.25) (end 3.79 -1.25) (layer F.SilkS) (width 0.127))
  (fp_line (start 3.79 -1.25) (end 3.79 1.25) (layer F.SilkS) (width 0.127))
  (fp_line (start 3.79 1.25) (end -3.79 1.25) (layer F.SilkS) (width 0.127))
  (fp_line (start -3.79 1.25) (end -3.79 -1.25) (layer F.SilkS) (width 0.127))
  (fp_text user >LABEL02 (at 2.54 1.27 90) (layer F.SilkS)
    (effects (font (size 0.77216 0.77216) (thickness 0.130048)) (justify right))
  )
  (fp_text user >LABEL00 (at -2.54 1.27 90) (layer F.SilkS)
    (effects (font (size 0.77216 0.77216) (thickness 0.130048)) (justify right top))
  )
  (fp_text user >LABEL01 (at 0 1.27 90) (layer F.SilkS)
    (effects (font (size 0.77216 0.77216) (thickness 0.130048)) (justify right))
  )
  (fp_poly (pts (xy -4.445 1.905) (xy -3.81 1.905) (xy -3.175 1.27) (xy -3.81 0.635)
    (xy -4.445 1.27)) (layer F.SilkS) (width 0))
  (pad P$1 thru_hole circle (at -2.54 0) (size 1.5 1.5) (drill 1) (layers *.Cu *.Mask)
    (solder_mask_margin 0.0508))
  (pad P$2 thru_hole circle (at 0 0) (size 1.5 1.5) (drill 1) (layers *.Cu *.Mask)
    (solder_mask_margin 0.0508))
  (pad P$3 thru_hole circle (at 2.54 0) (size 1.5 1.5) (drill 1) (layers *.Cu *.Mask)
    (solder_mask_margin 0.0508))
)
