(module R0402-VISHAY (layer F.Cu) (tedit 0)
  (fp_text reference R6 (at 0 0) (layer F.SilkS) hide
    (effects (font (size 1.27 1.27) (thickness 0.15)) (justify right top))
  )
  (fp_text value 10K (at 0 0) (layer F.SilkS) hide
    (effects (font (size 1.27 1.27) (thickness 0.15)) (justify right top))
  )
  (fp_line (start -0.25 -0.2) (end 0.25 -0.2) (layer F.Fab) (width 0.1))
  (fp_line (start 0.25 0.2) (end -0.25 0.2) (layer F.Fab) (width 0.1))
  (fp_poly (pts (xy -0.5 0.25) (xy -0.25 0.25) (xy -0.25 -0.25) (xy -0.5 -0.25)) (layer F.Fab) (width 0))
  (fp_poly (pts (xy 0.25 0.25) (xy 0.5 0.25) (xy 0.5 -0.25) (xy 0.25 -0.25)) (layer F.Fab) (width 0))
  (pad 1 smd rect (at -0.45 0) (size 0.4 0.6) (layers F.Cu F.Paste F.Mask)
    (solder_mask_margin 0.0508))
  (pad 2 smd rect (at 0.45 0) (size 0.4 0.6) (layers F.Cu F.Paste F.Mask)
    (solder_mask_margin 0.0508))
)
