(module SCREWTERMINAL-5MM-2 (layer F.Cu) (tedit 0)
  (fp_text reference MOTOR_POWER (at -1.27 -2.54) (layer F.SilkS) hide
    (effects (font (size 0.38608 0.38608) (thickness 0.032512)) (justify left bottom))
  )
  (fp_text value "" (at -1.27 -1.27) (layer F.Fab)
    (effects (font (size 0.38608 0.38608) (thickness 0.030886)) (justify left bottom))
  )
  (fp_circle (center 2.5 -3.7) (end 2.7828 -3.7) (layer F.Fab) (width 0.127))
  (fp_line (start -3.1 -4.2) (end 8.1 -4.2) (layer F.SilkS) (width 0.2032))
  (fp_line (start 8.1 -4.2) (end 8.1 2.3) (layer F.SilkS) (width 0.2032))
  (fp_line (start 8.1 2.3) (end 8.1 3.3) (layer F.SilkS) (width 0.2032))
  (fp_line (start 8.1 3.3) (end -3.1 3.3) (layer F.SilkS) (width 0.2032))
  (fp_line (start -3.1 3.3) (end -3.1 2.3) (layer F.SilkS) (width 0.2032))
  (fp_line (start -3.1 2.3) (end -3.1 -4.2) (layer F.SilkS) (width 0.2032))
  (fp_line (start 8.1 2.3) (end -3.1 2.3) (layer F.SilkS) (width 0.2032))
  (fp_line (start -3.1 1.35) (end -3.7 1.35) (layer F.Fab) (width 0.2032))
  (fp_line (start -3.7 1.35) (end -3.7 2.35) (layer F.Fab) (width 0.2032))
  (fp_line (start -3.7 2.35) (end -3.1 2.35) (layer F.Fab) (width 0.2032))
  (fp_line (start 8.1 -4) (end 8.7 -4) (layer F.Fab) (width 0.2032))
  (fp_line (start 8.7 -4) (end 8.7 -3) (layer F.Fab) (width 0.2032))
  (fp_line (start 8.7 -3) (end 8.1 -3) (layer F.Fab) (width 0.2032))
  (pad 1 thru_hole rect (at 0 0) (size 2.032 2.032) (drill 1.3) (layers *.Cu *.Mask)
    (solder_mask_margin 0.0508))
  (pad 2 thru_hole circle (at 5 0) (size 2.032 2.032) (drill 1.3) (layers *.Cu *.Mask)
    (solder_mask_margin 0.0508))
)
