(module SHORT_ALL-50 (layer F.Cu) (tedit 0)
  (descr "Short, all layers, 50mil width")
  (fp_text reference SH1 (at 0.381 0.889 -90) (layer F.Fab)
    (effects (font (size 0.7239 0.7239) (thickness 0.07239)) (justify left bottom))
  )
  (fp_text value SHORT-HA5 (at 0 0) (layer F.SilkS) hide
    (effects (font (size 1.27 1.27) (thickness 0.15)) (justify right top))
  )
  (fp_poly (pts (xy -0.254 -0.381) (xy 0.254 -0.381) (xy 0.254 -0.635) (xy -0.254 -0.635)) (layer F.Cu) (width 0))
  (fp_poly (pts (xy -0.254 0.635) (xy 0.254 0.635) (xy 0.254 0.381) (xy -0.254 0.381)) (layer F.Cu) (width 0))
  (fp_poly (pts (xy -0.254 -0.381) (xy 0.254 -0.381) (xy 0.254 -0.635) (xy -0.254 -0.635)) (layer B.Cu) (width 0))
  (fp_poly (pts (xy -0.254 0.635) (xy 0.254 0.635) (xy 0.254 0.381) (xy -0.254 0.381)) (layer B.Cu) (width 0))
  (pad 1 thru_hole circle (at -0.635 0) (size 1.524 1.524) (drill 0.7366) (layers *.Cu *.Mask)
    (solder_mask_margin 0.0508))
  (pad 2 thru_hole circle (at 0.635 0) (size 1.524 1.524) (drill 0.7366) (layers *.Cu *.Mask)
    (solder_mask_margin 0.0508))
)
