(module RESONATOR-SMD-1_1 (layer F.Cu) (tedit 0)
  (fp_text reference Q1 (at 0 0) (layer F.SilkS) hide
    (effects (font (size 1.27 1.27) (thickness 0.15)))
  )
  (fp_text value 8/16/20MHz (at 0 0) (layer F.SilkS) hide
    (effects (font (size 1.27 1.27) (thickness 0.15)))
  )
  (fp_line (start 1.871118 -0.660159) (end 1.871118 0.63984) (layer F.SilkS) (width 0.2032))
  (fp_line (start -1.87874 0.63984) (end -1.87874 -0.660159) (layer F.SilkS) (width 0.2032))
  (fp_line (start -1.6 -0.65) (end 1.6 -0.65) (layer F.Fab) (width 0.127))
  (fp_line (start 1.6 -0.65) (end 1.6 0.65) (layer F.Fab) (width 0.127))
  (fp_line (start 1.6 0.65) (end -1.6 0.65) (layer F.Fab) (width 0.127))
  (fp_line (start -1.6 0.65) (end -1.6 -0.65) (layer F.Fab) (width 0.127))
  (fp_text user >Name (at -1.016 -1.27) (layer F.SilkS)
    (effects (font (size 0.38608 0.38608) (thickness 0.032512)) (justify left bottom))
  )
  (fp_text user >Value (at -0.9525 1.5875) (layer F.Fab)
    (effects (font (size 0.38608 0.38608) (thickness 0.032512)) (justify left bottom))
  )
  (fp_poly (pts (xy -1.633262 0.640637) (xy 1.643337 0.640637) (xy 1.643337 0.618793) (xy -1.633262 0.618793)) (layer Dwgs.User) (width 0))
  (fp_poly (pts (xy -1.633262 0.618793) (xy -1.611418 0.618793) (xy -1.611418 0.59695) (xy -1.633262 0.59695)) (layer Dwgs.User) (width 0))
  (fp_poly (pts (xy -1.414821 0.618793) (xy -0.99979 0.618793) (xy -0.99979 0.59695) (xy -1.414821 0.59695)) (layer Dwgs.User) (width 0))
  (fp_poly (pts (xy -0.213403 0.618793) (xy 0.201634 0.618793) (xy 0.201634 0.59695) (xy -0.213403 0.59695)) (layer Dwgs.User) (width 0))
  (fp_poly (pts (xy 0.988018 0.618793) (xy 1.40305 0.618793) (xy 1.40305 0.59695) (xy 0.988018 0.59695)) (layer Dwgs.User) (width 0))
  (fp_poly (pts (xy 1.621493 0.618793) (xy 1.643337 0.618793) (xy 1.643337 0.59695) (xy 1.621493 0.59695)) (layer Dwgs.User) (width 0))
  (fp_poly (pts (xy -1.633262 0.59695) (xy -1.611418 0.59695) (xy -1.611418 0.575106) (xy -1.633262 0.575106)) (layer Dwgs.User) (width 0))
  (fp_poly (pts (xy -1.414821 0.59695) (xy -0.99979 0.59695) (xy -0.99979 0.575106) (xy -1.414821 0.575106)) (layer Dwgs.User) (width 0))
  (fp_poly (pts (xy -0.213403 0.59695) (xy 0.201634 0.59695) (xy 0.201634 0.575106) (xy -0.213403 0.575106)) (layer Dwgs.User) (width 0))
  (fp_poly (pts (xy 0.988018 0.59695) (xy 1.40305 0.59695) (xy 1.40305 0.575106) (xy 0.988018 0.575106)) (layer Dwgs.User) (width 0))
  (fp_poly (pts (xy 1.621493 0.59695) (xy 1.643337 0.59695) (xy 1.643337 0.575106) (xy 1.621493 0.575106)) (layer Dwgs.User) (width 0))
  (fp_poly (pts (xy -1.633262 0.575106) (xy -1.611418 0.575106) (xy -1.611418 0.553262) (xy -1.633262 0.553262)) (layer Dwgs.User) (width 0))
  (fp_poly (pts (xy -1.414821 0.575106) (xy -0.99979 0.575106) (xy -0.99979 0.553262) (xy -1.414821 0.553262)) (layer Dwgs.User) (width 0))
  (fp_poly (pts (xy -0.213403 0.575106) (xy 0.201634 0.575106) (xy 0.201634 0.553262) (xy -0.213403 0.553262)) (layer Dwgs.User) (width 0))
  (fp_poly (pts (xy 0.988018 0.575106) (xy 1.40305 0.575106) (xy 1.40305 0.553262) (xy 0.988018 0.553262)) (layer Dwgs.User) (width 0))
  (fp_poly (pts (xy 1.621493 0.575106) (xy 1.643337 0.575106) (xy 1.643337 0.553262) (xy 1.621493 0.553262)) (layer Dwgs.User) (width 0))
  (fp_poly (pts (xy -1.633262 0.553262) (xy -1.611418 0.553262) (xy -1.611418 0.531418) (xy -1.633262 0.531418)) (layer Dwgs.User) (width 0))
  (fp_poly (pts (xy -1.414821 0.553262) (xy -0.99979 0.553262) (xy -0.99979 0.531418) (xy -1.414821 0.531418)) (layer Dwgs.User) (width 0))
  (fp_poly (pts (xy -0.213403 0.553262) (xy 0.201634 0.553262) (xy 0.201634 0.531418) (xy -0.213403 0.531418)) (layer Dwgs.User) (width 0))
  (fp_poly (pts (xy 0.988018 0.553262) (xy 1.40305 0.553262) (xy 1.40305 0.531418) (xy 0.988018 0.531418)) (layer Dwgs.User) (width 0))
  (fp_poly (pts (xy 1.621493 0.553262) (xy 1.643337 0.553262) (xy 1.643337 0.531418) (xy 1.621493 0.531418)) (layer Dwgs.User) (width 0))
  (fp_poly (pts (xy -1.633262 0.531418) (xy -1.611418 0.531418) (xy -1.611418 0.509575) (xy -1.633262 0.509575)) (layer Dwgs.User) (width 0))
  (fp_poly (pts (xy -1.414821 0.531418) (xy -0.99979 0.531418) (xy -0.99979 0.509575) (xy -1.414821 0.509575)) (layer Dwgs.User) (width 0))
  (fp_poly (pts (xy -0.213403 0.531418) (xy 0.201634 0.531418) (xy 0.201634 0.509575) (xy -0.213403 0.509575)) (layer Dwgs.User) (width 0))
  (fp_poly (pts (xy 0.988018 0.531418) (xy 1.40305 0.531418) (xy 1.40305 0.509575) (xy 0.988018 0.509575)) (layer Dwgs.User) (width 0))
  (fp_poly (pts (xy 1.621493 0.531418) (xy 1.643337 0.531418) (xy 1.643337 0.509575) (xy 1.621493 0.509575)) (layer Dwgs.User) (width 0))
  (fp_poly (pts (xy -1.633262 0.509575) (xy -1.611418 0.509575) (xy -1.611418 0.487731) (xy -1.633262 0.487731)) (layer Dwgs.User) (width 0))
  (fp_poly (pts (xy -1.414821 0.509575) (xy -0.99979 0.509575) (xy -0.99979 0.487731) (xy -1.414821 0.487731)) (layer Dwgs.User) (width 0))
  (fp_poly (pts (xy -0.213403 0.509575) (xy 0.201634 0.509575) (xy 0.201634 0.487731) (xy -0.213403 0.487731)) (layer Dwgs.User) (width 0))
  (fp_poly (pts (xy 0.988018 0.509575) (xy 1.40305 0.509575) (xy 1.40305 0.487731) (xy 0.988018 0.487731)) (layer Dwgs.User) (width 0))
  (fp_poly (pts (xy 1.621493 0.509575) (xy 1.643337 0.509575) (xy 1.643337 0.487731) (xy 1.621493 0.487731)) (layer Dwgs.User) (width 0))
  (fp_poly (pts (xy -1.633262 0.487731) (xy -1.611418 0.487731) (xy -1.611418 0.465887) (xy -1.633262 0.465887)) (layer Dwgs.User) (width 0))
  (fp_poly (pts (xy -1.414821 0.487731) (xy -0.99979 0.487731) (xy -0.99979 0.465887) (xy -1.414821 0.465887)) (layer Dwgs.User) (width 0))
  (fp_poly (pts (xy -0.213403 0.487731) (xy 0.201634 0.487731) (xy 0.201634 0.465887) (xy -0.213403 0.465887)) (layer Dwgs.User) (width 0))
  (fp_poly (pts (xy 0.988018 0.487731) (xy 1.40305 0.487731) (xy 1.40305 0.465887) (xy 0.988018 0.465887)) (layer Dwgs.User) (width 0))
  (fp_poly (pts (xy 1.621493 0.487731) (xy 1.643337 0.487731) (xy 1.643337 0.465887) (xy 1.621493 0.465887)) (layer Dwgs.User) (width 0))
  (fp_poly (pts (xy -1.633262 0.465887) (xy -1.611418 0.465887) (xy -1.611418 0.444043) (xy -1.633262 0.444043)) (layer Dwgs.User) (width 0))
  (fp_poly (pts (xy -1.414821 0.465887) (xy -0.99979 0.465887) (xy -0.99979 0.444043) (xy -1.414821 0.444043)) (layer Dwgs.User) (width 0))
  (fp_poly (pts (xy -0.213403 0.465887) (xy 0.201634 0.465887) (xy 0.201634 0.444043) (xy -0.213403 0.444043)) (layer Dwgs.User) (width 0))
  (fp_poly (pts (xy 0.988018 0.465887) (xy 1.40305 0.465887) (xy 1.40305 0.444043) (xy 0.988018 0.444043)) (layer Dwgs.User) (width 0))
  (fp_poly (pts (xy 1.621493 0.465887) (xy 1.643337 0.465887) (xy 1.643337 0.444043) (xy 1.621493 0.444043)) (layer Dwgs.User) (width 0))
  (fp_poly (pts (xy -1.633262 0.44404) (xy -1.611418 0.44404) (xy -1.611418 0.422196) (xy -1.633262 0.422196)) (layer Dwgs.User) (width 0))
  (fp_poly (pts (xy -1.414821 0.44404) (xy -0.99979 0.44404) (xy -0.99979 0.422196) (xy -1.414821 0.422196)) (layer Dwgs.User) (width 0))
  (fp_poly (pts (xy -0.213403 0.44404) (xy 0.201634 0.44404) (xy 0.201634 0.422196) (xy -0.213403 0.422196)) (layer Dwgs.User) (width 0))
  (fp_poly (pts (xy 0.988018 0.44404) (xy 1.40305 0.44404) (xy 1.40305 0.422196) (xy 0.988018 0.422196)) (layer Dwgs.User) (width 0))
  (fp_poly (pts (xy 1.621493 0.44404) (xy 1.643337 0.44404) (xy 1.643337 0.422196) (xy 1.621493 0.422196)) (layer Dwgs.User) (width 0))
  (fp_poly (pts (xy -1.633262 0.422196) (xy -1.611418 0.422196) (xy -1.611418 0.400353) (xy -1.633262 0.400353)) (layer Dwgs.User) (width 0))
  (fp_poly (pts (xy -1.414821 0.422196) (xy -0.99979 0.422196) (xy -0.99979 0.400353) (xy -1.414821 0.400353)) (layer Dwgs.User) (width 0))
  (fp_poly (pts (xy -0.213403 0.422196) (xy 0.201634 0.422196) (xy 0.201634 0.400353) (xy -0.213403 0.400353)) (layer Dwgs.User) (width 0))
  (fp_poly (pts (xy 0.988018 0.422196) (xy 1.40305 0.422196) (xy 1.40305 0.400353) (xy 0.988018 0.400353)) (layer Dwgs.User) (width 0))
  (fp_poly (pts (xy 1.621493 0.422196) (xy 1.643337 0.422196) (xy 1.643337 0.400353) (xy 1.621493 0.400353)) (layer Dwgs.User) (width 0))
  (fp_poly (pts (xy -1.633262 0.400353) (xy -1.611418 0.400353) (xy -1.611418 0.378509) (xy -1.633262 0.378509)) (layer Dwgs.User) (width 0))
  (fp_poly (pts (xy -1.414821 0.400353) (xy -0.99979 0.400353) (xy -0.99979 0.378509) (xy -1.414821 0.378509)) (layer Dwgs.User) (width 0))
  (fp_poly (pts (xy -0.213403 0.400353) (xy 0.201634 0.400353) (xy 0.201634 0.378509) (xy -0.213403 0.378509)) (layer Dwgs.User) (width 0))
  (fp_poly (pts (xy 0.988018 0.400353) (xy 1.40305 0.400353) (xy 1.40305 0.378509) (xy 0.988018 0.378509)) (layer Dwgs.User) (width 0))
  (fp_poly (pts (xy 1.621493 0.400353) (xy 1.643337 0.400353) (xy 1.643337 0.378509) (xy 1.621493 0.378509)) (layer Dwgs.User) (width 0))
  (fp_poly (pts (xy -1.633262 0.378509) (xy -1.611418 0.378509) (xy -1.611418 0.356665) (xy -1.633262 0.356665)) (layer Dwgs.User) (width 0))
  (fp_poly (pts (xy -1.414821 0.378509) (xy -0.99979 0.378509) (xy -0.99979 0.356665) (xy -1.414821 0.356665)) (layer Dwgs.User) (width 0))
  (fp_poly (pts (xy -0.213403 0.378509) (xy 0.201634 0.378509) (xy 0.201634 0.356665) (xy -0.213403 0.356665)) (layer Dwgs.User) (width 0))
  (fp_poly (pts (xy 0.988018 0.378509) (xy 1.40305 0.378509) (xy 1.40305 0.356665) (xy 0.988018 0.356665)) (layer Dwgs.User) (width 0))
  (fp_poly (pts (xy 1.621493 0.378509) (xy 1.643337 0.378509) (xy 1.643337 0.356665) (xy 1.621493 0.356665)) (layer Dwgs.User) (width 0))
  (fp_poly (pts (xy -1.633262 0.356665) (xy -1.611418 0.356665) (xy -1.611418 0.334821) (xy -1.633262 0.334821)) (layer Dwgs.User) (width 0))
  (fp_poly (pts (xy -1.414821 0.356665) (xy -0.99979 0.356665) (xy -0.99979 0.334821) (xy -1.414821 0.334821)) (layer Dwgs.User) (width 0))
  (fp_poly (pts (xy -0.213403 0.356665) (xy 0.201634 0.356665) (xy 0.201634 0.334821) (xy -0.213403 0.334821)) (layer Dwgs.User) (width 0))
  (fp_poly (pts (xy 0.988018 0.356665) (xy 1.40305 0.356665) (xy 1.40305 0.334821) (xy 0.988018 0.334821)) (layer Dwgs.User) (width 0))
  (fp_poly (pts (xy 1.621493 0.356665) (xy 1.643337 0.356665) (xy 1.643337 0.334821) (xy 1.621493 0.334821)) (layer Dwgs.User) (width 0))
  (fp_poly (pts (xy -1.633262 0.334821) (xy -1.611418 0.334821) (xy -1.611418 0.312978) (xy -1.633262 0.312978)) (layer Dwgs.User) (width 0))
  (fp_poly (pts (xy -1.414821 0.334821) (xy -0.99979 0.334821) (xy -0.99979 0.312978) (xy -1.414821 0.312978)) (layer Dwgs.User) (width 0))
  (fp_poly (pts (xy -0.213403 0.334821) (xy 0.201634 0.334821) (xy 0.201634 0.312978) (xy -0.213403 0.312978)) (layer Dwgs.User) (width 0))
  (fp_poly (pts (xy 0.988018 0.334821) (xy 1.40305 0.334821) (xy 1.40305 0.312978) (xy 0.988018 0.312978)) (layer Dwgs.User) (width 0))
  (fp_poly (pts (xy 1.621493 0.334821) (xy 1.643337 0.334821) (xy 1.643337 0.312978) (xy 1.621493 0.312978)) (layer Dwgs.User) (width 0))
  (fp_poly (pts (xy -1.633262 0.312978) (xy -1.611418 0.312978) (xy -1.611418 0.291134) (xy -1.633262 0.291134)) (layer Dwgs.User) (width 0))
  (fp_poly (pts (xy -1.414821 0.312978) (xy -0.99979 0.312978) (xy -0.99979 0.291134) (xy -1.414821 0.291134)) (layer Dwgs.User) (width 0))
  (fp_poly (pts (xy -0.213403 0.312978) (xy 0.201634 0.312978) (xy 0.201634 0.291134) (xy -0.213403 0.291134)) (layer Dwgs.User) (width 0))
  (fp_poly (pts (xy 0.988018 0.312978) (xy 1.40305 0.312978) (xy 1.40305 0.291134) (xy 0.988018 0.291134)) (layer Dwgs.User) (width 0))
  (fp_poly (pts (xy 1.621493 0.312978) (xy 1.643337 0.312978) (xy 1.643337 0.291134) (xy 1.621493 0.291134)) (layer Dwgs.User) (width 0))
  (fp_poly (pts (xy -1.633262 0.291134) (xy -1.611418 0.291134) (xy -1.611418 0.26929) (xy -1.633262 0.26929)) (layer Dwgs.User) (width 0))
  (fp_poly (pts (xy -1.414821 0.291134) (xy -0.99979 0.291134) (xy -0.99979 0.26929) (xy -1.414821 0.26929)) (layer Dwgs.User) (width 0))
  (fp_poly (pts (xy -0.213403 0.291134) (xy 0.201634 0.291134) (xy 0.201634 0.26929) (xy -0.213403 0.26929)) (layer Dwgs.User) (width 0))
  (fp_poly (pts (xy 0.988018 0.291134) (xy 1.40305 0.291134) (xy 1.40305 0.26929) (xy 0.988018 0.26929)) (layer Dwgs.User) (width 0))
  (fp_poly (pts (xy 1.621493 0.291134) (xy 1.643337 0.291134) (xy 1.643337 0.26929) (xy 1.621493 0.26929)) (layer Dwgs.User) (width 0))
  (fp_poly (pts (xy -1.633262 0.26929) (xy -1.611418 0.26929) (xy -1.611418 0.247446) (xy -1.633262 0.247446)) (layer Dwgs.User) (width 0))
  (fp_poly (pts (xy -1.414821 0.26929) (xy -0.99979 0.26929) (xy -0.99979 0.247446) (xy -1.414821 0.247446)) (layer Dwgs.User) (width 0))
  (fp_poly (pts (xy -0.213403 0.26929) (xy 0.201634 0.26929) (xy 0.201634 0.247446) (xy -0.213403 0.247446)) (layer Dwgs.User) (width 0))
  (fp_poly (pts (xy 0.988018 0.26929) (xy 1.40305 0.26929) (xy 1.40305 0.247446) (xy 0.988018 0.247446)) (layer Dwgs.User) (width 0))
  (fp_poly (pts (xy 1.621493 0.26929) (xy 1.643337 0.26929) (xy 1.643337 0.247446) (xy 1.621493 0.247446)) (layer Dwgs.User) (width 0))
  (fp_poly (pts (xy -1.633262 0.247446) (xy -1.611418 0.247446) (xy -1.611418 0.225603) (xy -1.633262 0.225603)) (layer Dwgs.User) (width 0))
  (fp_poly (pts (xy -1.414821 0.247446) (xy -0.99979 0.247446) (xy -0.99979 0.225603) (xy -1.414821 0.225603)) (layer Dwgs.User) (width 0))
  (fp_poly (pts (xy -0.213403 0.247446) (xy 0.201634 0.247446) (xy 0.201634 0.225603) (xy -0.213403 0.225603)) (layer Dwgs.User) (width 0))
  (fp_poly (pts (xy 0.988018 0.247446) (xy 1.40305 0.247446) (xy 1.40305 0.225603) (xy 0.988018 0.225603)) (layer Dwgs.User) (width 0))
  (fp_poly (pts (xy 1.621493 0.247446) (xy 1.643337 0.247446) (xy 1.643337 0.225603) (xy 1.621493 0.225603)) (layer Dwgs.User) (width 0))
  (fp_poly (pts (xy -1.633262 0.225603) (xy -1.611418 0.225603) (xy -1.611418 0.203759) (xy -1.633262 0.203759)) (layer Dwgs.User) (width 0))
  (fp_poly (pts (xy -1.414821 0.225603) (xy -0.99979 0.225603) (xy -0.99979 0.203759) (xy -1.414821 0.203759)) (layer Dwgs.User) (width 0))
  (fp_poly (pts (xy -0.213403 0.225603) (xy 0.201634 0.225603) (xy 0.201634 0.203759) (xy -0.213403 0.203759)) (layer Dwgs.User) (width 0))
  (fp_poly (pts (xy 0.988018 0.225603) (xy 1.40305 0.225603) (xy 1.40305 0.203759) (xy 0.988018 0.203759)) (layer Dwgs.User) (width 0))
  (fp_poly (pts (xy 1.621493 0.225603) (xy 1.643337 0.225603) (xy 1.643337 0.203759) (xy 1.621493 0.203759)) (layer Dwgs.User) (width 0))
  (fp_poly (pts (xy -1.633262 0.203759) (xy -1.611418 0.203759) (xy -1.611418 0.181915) (xy -1.633262 0.181915)) (layer Dwgs.User) (width 0))
  (fp_poly (pts (xy -1.414821 0.203759) (xy -0.99979 0.203759) (xy -0.99979 0.181915) (xy -1.414821 0.181915)) (layer Dwgs.User) (width 0))
  (fp_poly (pts (xy -0.213403 0.203759) (xy 0.201634 0.203759) (xy 0.201634 0.181915) (xy -0.213403 0.181915)) (layer Dwgs.User) (width 0))
  (fp_poly (pts (xy 0.988018 0.203759) (xy 1.40305 0.203759) (xy 1.40305 0.181915) (xy 0.988018 0.181915)) (layer Dwgs.User) (width 0))
  (fp_poly (pts (xy 1.621493 0.203759) (xy 1.643337 0.203759) (xy 1.643337 0.181915) (xy 1.621493 0.181915)) (layer Dwgs.User) (width 0))
  (fp_poly (pts (xy -1.633262 0.181912) (xy -1.611418 0.181912) (xy -1.611418 0.160068) (xy -1.633262 0.160068)) (layer Dwgs.User) (width 0))
  (fp_poly (pts (xy -1.414821 0.181912) (xy -0.99979 0.181912) (xy -0.99979 0.160068) (xy -1.414821 0.160068)) (layer Dwgs.User) (width 0))
  (fp_poly (pts (xy -0.213403 0.181912) (xy 0.201634 0.181912) (xy 0.201634 0.160068) (xy -0.213403 0.160068)) (layer Dwgs.User) (width 0))
  (fp_poly (pts (xy 0.988018 0.181912) (xy 1.40305 0.181912) (xy 1.40305 0.160068) (xy 0.988018 0.160068)) (layer Dwgs.User) (width 0))
  (fp_poly (pts (xy 1.621493 0.181912) (xy 1.643337 0.181912) (xy 1.643337 0.160068) (xy 1.621493 0.160068)) (layer Dwgs.User) (width 0))
  (fp_poly (pts (xy -1.633262 0.160068) (xy -1.611418 0.160068) (xy -1.611418 0.138225) (xy -1.633262 0.138225)) (layer Dwgs.User) (width 0))
  (fp_poly (pts (xy -1.414821 0.160068) (xy -0.99979 0.160068) (xy -0.99979 0.138225) (xy -1.414821 0.138225)) (layer Dwgs.User) (width 0))
  (fp_poly (pts (xy -0.213403 0.160068) (xy 0.201634 0.160068) (xy 0.201634 0.138225) (xy -0.213403 0.138225)) (layer Dwgs.User) (width 0))
  (fp_poly (pts (xy 0.988018 0.160068) (xy 1.40305 0.160068) (xy 1.40305 0.138225) (xy 0.988018 0.138225)) (layer Dwgs.User) (width 0))
  (fp_poly (pts (xy 1.621493 0.160068) (xy 1.643337 0.160068) (xy 1.643337 0.138225) (xy 1.621493 0.138225)) (layer Dwgs.User) (width 0))
  (fp_poly (pts (xy -1.633262 0.138225) (xy -1.611418 0.138225) (xy -1.611418 0.116381) (xy -1.633262 0.116381)) (layer Dwgs.User) (width 0))
  (fp_poly (pts (xy -1.414821 0.138225) (xy -0.99979 0.138225) (xy -0.99979 0.116381) (xy -1.414821 0.116381)) (layer Dwgs.User) (width 0))
  (fp_poly (pts (xy -0.213403 0.138225) (xy 0.201634 0.138225) (xy 0.201634 0.116381) (xy -0.213403 0.116381)) (layer Dwgs.User) (width 0))
  (fp_poly (pts (xy 0.988018 0.138225) (xy 1.40305 0.138225) (xy 1.40305 0.116381) (xy 0.988018 0.116381)) (layer Dwgs.User) (width 0))
  (fp_poly (pts (xy 1.621493 0.138225) (xy 1.643337 0.138225) (xy 1.643337 0.116381) (xy 1.621493 0.116381)) (layer Dwgs.User) (width 0))
  (fp_poly (pts (xy -1.633262 0.116381) (xy -1.611418 0.116381) (xy -1.611418 0.094537) (xy -1.633262 0.094537)) (layer Dwgs.User) (width 0))
  (fp_poly (pts (xy -1.414821 0.116381) (xy -0.99979 0.116381) (xy -0.99979 0.094537) (xy -1.414821 0.094537)) (layer Dwgs.User) (width 0))
  (fp_poly (pts (xy -0.213403 0.116381) (xy 0.201634 0.116381) (xy 0.201634 0.094537) (xy -0.213403 0.094537)) (layer Dwgs.User) (width 0))
  (fp_poly (pts (xy 0.988018 0.116381) (xy 1.40305 0.116381) (xy 1.40305 0.094537) (xy 0.988018 0.094537)) (layer Dwgs.User) (width 0))
  (fp_poly (pts (xy 1.621493 0.116381) (xy 1.643337 0.116381) (xy 1.643337 0.094537) (xy 1.621493 0.094537)) (layer Dwgs.User) (width 0))
  (fp_poly (pts (xy -1.633262 0.094537) (xy -1.611418 0.094537) (xy -1.611418 0.072693) (xy -1.633262 0.072693)) (layer Dwgs.User) (width 0))
  (fp_poly (pts (xy -1.414821 0.094537) (xy -0.99979 0.094537) (xy -0.99979 0.072693) (xy -1.414821 0.072693)) (layer Dwgs.User) (width 0))
  (fp_poly (pts (xy -0.213403 0.094537) (xy 0.201634 0.094537) (xy 0.201634 0.072693) (xy -0.213403 0.072693)) (layer Dwgs.User) (width 0))
  (fp_poly (pts (xy 0.988018 0.094537) (xy 1.40305 0.094537) (xy 1.40305 0.072693) (xy 0.988018 0.072693)) (layer Dwgs.User) (width 0))
  (fp_poly (pts (xy 1.621493 0.094537) (xy 1.643337 0.094537) (xy 1.643337 0.072693) (xy 1.621493 0.072693)) (layer Dwgs.User) (width 0))
  (fp_poly (pts (xy -1.633262 0.072693) (xy -1.611418 0.072693) (xy -1.611418 0.05085) (xy -1.633262 0.05085)) (layer Dwgs.User) (width 0))
  (fp_poly (pts (xy -1.414821 0.072693) (xy -0.99979 0.072693) (xy -0.99979 0.05085) (xy -1.414821 0.05085)) (layer Dwgs.User) (width 0))
  (fp_poly (pts (xy -0.213403 0.072693) (xy 0.201634 0.072693) (xy 0.201634 0.05085) (xy -0.213403 0.05085)) (layer Dwgs.User) (width 0))
  (fp_poly (pts (xy 0.988018 0.072693) (xy 1.40305 0.072693) (xy 1.40305 0.05085) (xy 0.988018 0.05085)) (layer Dwgs.User) (width 0))
  (fp_poly (pts (xy 1.621493 0.072693) (xy 1.643337 0.072693) (xy 1.643337 0.05085) (xy 1.621493 0.05085)) (layer Dwgs.User) (width 0))
  (fp_poly (pts (xy -1.633262 0.05085) (xy -1.611418 0.05085) (xy -1.611418 0.029006) (xy -1.633262 0.029006)) (layer Dwgs.User) (width 0))
  (fp_poly (pts (xy -1.414821 0.05085) (xy -0.99979 0.05085) (xy -0.99979 0.029006) (xy -1.414821 0.029006)) (layer Dwgs.User) (width 0))
  (fp_poly (pts (xy -0.213403 0.05085) (xy 0.201634 0.05085) (xy 0.201634 0.029006) (xy -0.213403 0.029006)) (layer Dwgs.User) (width 0))
  (fp_poly (pts (xy 0.988018 0.05085) (xy 1.40305 0.05085) (xy 1.40305 0.029006) (xy 0.988018 0.029006)) (layer Dwgs.User) (width 0))
  (fp_poly (pts (xy 1.621493 0.05085) (xy 1.643337 0.05085) (xy 1.643337 0.029006) (xy 1.621493 0.029006)) (layer Dwgs.User) (width 0))
  (fp_poly (pts (xy -1.633262 0.029006) (xy -1.611418 0.029006) (xy -1.611418 0.007162) (xy -1.633262 0.007162)) (layer Dwgs.User) (width 0))
  (fp_poly (pts (xy -1.414821 0.029006) (xy -0.99979 0.029006) (xy -0.99979 0.007162) (xy -1.414821 0.007162)) (layer Dwgs.User) (width 0))
  (fp_poly (pts (xy -0.213403 0.029006) (xy 0.201634 0.029006) (xy 0.201634 0.007162) (xy -0.213403 0.007162)) (layer Dwgs.User) (width 0))
  (fp_poly (pts (xy 0.988018 0.029006) (xy 1.40305 0.029006) (xy 1.40305 0.007162) (xy 0.988018 0.007162)) (layer Dwgs.User) (width 0))
  (fp_poly (pts (xy 1.621493 0.029006) (xy 1.643337 0.029006) (xy 1.643337 0.007162) (xy 1.621493 0.007162)) (layer Dwgs.User) (width 0))
  (fp_poly (pts (xy -1.633262 0.007162) (xy -1.611418 0.007162) (xy -1.611418 -0.014681) (xy -1.633262 -0.014681)) (layer Dwgs.User) (width 0))
  (fp_poly (pts (xy -1.414821 0.007162) (xy -0.99979 0.007162) (xy -0.99979 -0.014681) (xy -1.414821 -0.014681)) (layer Dwgs.User) (width 0))
  (fp_poly (pts (xy -0.213403 0.007162) (xy 0.201634 0.007162) (xy 0.201634 -0.014681) (xy -0.213403 -0.014681)) (layer Dwgs.User) (width 0))
  (fp_poly (pts (xy 0.988018 0.007162) (xy 1.40305 0.007162) (xy 1.40305 -0.014681) (xy 0.988018 -0.014681)) (layer Dwgs.User) (width 0))
  (fp_poly (pts (xy 1.621493 0.007162) (xy 1.643337 0.007162) (xy 1.643337 -0.014681) (xy 1.621493 -0.014681)) (layer Dwgs.User) (width 0))
  (fp_poly (pts (xy -1.633262 -0.014681) (xy -1.611418 -0.014681) (xy -1.611418 -0.036525) (xy -1.633262 -0.036525)) (layer Dwgs.User) (width 0))
  (fp_poly (pts (xy -1.414821 -0.014681) (xy -0.99979 -0.014681) (xy -0.99979 -0.036525) (xy -1.414821 -0.036525)) (layer Dwgs.User) (width 0))
  (fp_poly (pts (xy -0.213403 -0.014681) (xy 0.201634 -0.014681) (xy 0.201634 -0.036525) (xy -0.213403 -0.036525)) (layer Dwgs.User) (width 0))
  (fp_poly (pts (xy 0.988018 -0.014681) (xy 1.40305 -0.014681) (xy 1.40305 -0.036525) (xy 0.988018 -0.036525)) (layer Dwgs.User) (width 0))
  (fp_poly (pts (xy 1.621493 -0.014681) (xy 1.643337 -0.014681) (xy 1.643337 -0.036525) (xy 1.621493 -0.036525)) (layer Dwgs.User) (width 0))
  (fp_poly (pts (xy -1.633262 -0.036525) (xy -1.611418 -0.036525) (xy -1.611418 -0.058368) (xy -1.633262 -0.058368)) (layer Dwgs.User) (width 0))
  (fp_poly (pts (xy -1.414821 -0.036525) (xy -0.99979 -0.036525) (xy -0.99979 -0.058368) (xy -1.414821 -0.058368)) (layer Dwgs.User) (width 0))
  (fp_poly (pts (xy -0.213403 -0.036525) (xy 0.201634 -0.036525) (xy 0.201634 -0.058368) (xy -0.213403 -0.058368)) (layer Dwgs.User) (width 0))
  (fp_poly (pts (xy 0.988018 -0.036525) (xy 1.40305 -0.036525) (xy 1.40305 -0.058368) (xy 0.988018 -0.058368)) (layer Dwgs.User) (width 0))
  (fp_poly (pts (xy 1.621493 -0.036525) (xy 1.643337 -0.036525) (xy 1.643337 -0.058368) (xy 1.621493 -0.058368)) (layer Dwgs.User) (width 0))
  (fp_poly (pts (xy -1.633262 -0.058368) (xy -1.611418 -0.058368) (xy -1.611418 -0.080212) (xy -1.633262 -0.080212)) (layer Dwgs.User) (width 0))
  (fp_poly (pts (xy -1.414821 -0.058368) (xy -0.99979 -0.058368) (xy -0.99979 -0.080212) (xy -1.414821 -0.080212)) (layer Dwgs.User) (width 0))
  (fp_poly (pts (xy -0.213403 -0.058368) (xy 0.201634 -0.058368) (xy 0.201634 -0.080212) (xy -0.213403 -0.080212)) (layer Dwgs.User) (width 0))
  (fp_poly (pts (xy 0.988018 -0.058368) (xy 1.40305 -0.058368) (xy 1.40305 -0.080212) (xy 0.988018 -0.080212)) (layer Dwgs.User) (width 0))
  (fp_poly (pts (xy 1.621493 -0.058368) (xy 1.643337 -0.058368) (xy 1.643337 -0.080212) (xy 1.621493 -0.080212)) (layer Dwgs.User) (width 0))
  (fp_poly (pts (xy -1.633262 -0.080212) (xy -1.611418 -0.080212) (xy -1.611418 -0.102056) (xy -1.633262 -0.102056)) (layer Dwgs.User) (width 0))
  (fp_poly (pts (xy -1.414821 -0.080212) (xy -0.99979 -0.080212) (xy -0.99979 -0.102056) (xy -1.414821 -0.102056)) (layer Dwgs.User) (width 0))
  (fp_poly (pts (xy -0.213403 -0.080212) (xy 0.201634 -0.080212) (xy 0.201634 -0.102056) (xy -0.213403 -0.102056)) (layer Dwgs.User) (width 0))
  (fp_poly (pts (xy 0.988018 -0.080212) (xy 1.40305 -0.080212) (xy 1.40305 -0.102056) (xy 0.988018 -0.102056)) (layer Dwgs.User) (width 0))
  (fp_poly (pts (xy 1.621493 -0.080212) (xy 1.643337 -0.080212) (xy 1.643337 -0.102056) (xy 1.621493 -0.102056)) (layer Dwgs.User) (width 0))
  (fp_poly (pts (xy -1.633262 -0.102059) (xy -1.611418 -0.102059) (xy -1.611418 -0.123903) (xy -1.633262 -0.123903)) (layer Dwgs.User) (width 0))
  (fp_poly (pts (xy -1.414821 -0.102059) (xy -0.99979 -0.102059) (xy -0.99979 -0.123903) (xy -1.414821 -0.123903)) (layer Dwgs.User) (width 0))
  (fp_poly (pts (xy -0.213403 -0.102059) (xy 0.201634 -0.102059) (xy 0.201634 -0.123903) (xy -0.213403 -0.123903)) (layer Dwgs.User) (width 0))
  (fp_poly (pts (xy 0.988018 -0.102059) (xy 1.40305 -0.102059) (xy 1.40305 -0.123903) (xy 0.988018 -0.123903)) (layer Dwgs.User) (width 0))
  (fp_poly (pts (xy 1.621493 -0.102059) (xy 1.643337 -0.102059) (xy 1.643337 -0.123903) (xy 1.621493 -0.123903)) (layer Dwgs.User) (width 0))
  (fp_poly (pts (xy -1.633262 -0.123903) (xy -1.611418 -0.123903) (xy -1.611418 -0.145746) (xy -1.633262 -0.145746)) (layer Dwgs.User) (width 0))
  (fp_poly (pts (xy -1.414821 -0.123903) (xy -0.99979 -0.123903) (xy -0.99979 -0.145746) (xy -1.414821 -0.145746)) (layer Dwgs.User) (width 0))
  (fp_poly (pts (xy -0.213403 -0.123903) (xy 0.201634 -0.123903) (xy 0.201634 -0.145746) (xy -0.213403 -0.145746)) (layer Dwgs.User) (width 0))
  (fp_poly (pts (xy 0.988018 -0.123903) (xy 1.40305 -0.123903) (xy 1.40305 -0.145746) (xy 0.988018 -0.145746)) (layer Dwgs.User) (width 0))
  (fp_poly (pts (xy 1.621493 -0.123903) (xy 1.643337 -0.123903) (xy 1.643337 -0.145746) (xy 1.621493 -0.145746)) (layer Dwgs.User) (width 0))
  (fp_poly (pts (xy -1.633262 -0.145746) (xy -1.611418 -0.145746) (xy -1.611418 -0.16759) (xy -1.633262 -0.16759)) (layer Dwgs.User) (width 0))
  (fp_poly (pts (xy -1.414821 -0.145746) (xy -0.99979 -0.145746) (xy -0.99979 -0.16759) (xy -1.414821 -0.16759)) (layer Dwgs.User) (width 0))
  (fp_poly (pts (xy -0.213403 -0.145746) (xy 0.201634 -0.145746) (xy 0.201634 -0.16759) (xy -0.213403 -0.16759)) (layer Dwgs.User) (width 0))
  (fp_poly (pts (xy 0.988018 -0.145746) (xy 1.40305 -0.145746) (xy 1.40305 -0.16759) (xy 0.988018 -0.16759)) (layer Dwgs.User) (width 0))
  (fp_poly (pts (xy 1.621493 -0.145746) (xy 1.643337 -0.145746) (xy 1.643337 -0.16759) (xy 1.621493 -0.16759)) (layer Dwgs.User) (width 0))
  (fp_poly (pts (xy -1.633262 -0.16759) (xy -1.611418 -0.16759) (xy -1.611418 -0.189434) (xy -1.633262 -0.189434)) (layer Dwgs.User) (width 0))
  (fp_poly (pts (xy -1.414821 -0.16759) (xy -0.99979 -0.16759) (xy -0.99979 -0.189434) (xy -1.414821 -0.189434)) (layer Dwgs.User) (width 0))
  (fp_poly (pts (xy -0.213403 -0.16759) (xy 0.201634 -0.16759) (xy 0.201634 -0.189434) (xy -0.213403 -0.189434)) (layer Dwgs.User) (width 0))
  (fp_poly (pts (xy 0.988018 -0.16759) (xy 1.40305 -0.16759) (xy 1.40305 -0.189434) (xy 0.988018 -0.189434)) (layer Dwgs.User) (width 0))
  (fp_poly (pts (xy 1.621493 -0.16759) (xy 1.643337 -0.16759) (xy 1.643337 -0.189434) (xy 1.621493 -0.189434)) (layer Dwgs.User) (width 0))
  (fp_poly (pts (xy -1.633262 -0.189434) (xy -1.611418 -0.189434) (xy -1.611418 -0.211278) (xy -1.633262 -0.211278)) (layer Dwgs.User) (width 0))
  (fp_poly (pts (xy -1.414821 -0.189434) (xy -0.99979 -0.189434) (xy -0.99979 -0.211278) (xy -1.414821 -0.211278)) (layer Dwgs.User) (width 0))
  (fp_poly (pts (xy -0.213403 -0.189434) (xy 0.201634 -0.189434) (xy 0.201634 -0.211278) (xy -0.213403 -0.211278)) (layer Dwgs.User) (width 0))
  (fp_poly (pts (xy 0.988018 -0.189434) (xy 1.40305 -0.189434) (xy 1.40305 -0.211278) (xy 0.988018 -0.211278)) (layer Dwgs.User) (width 0))
  (fp_poly (pts (xy 1.621493 -0.189434) (xy 1.643337 -0.189434) (xy 1.643337 -0.211278) (xy 1.621493 -0.211278)) (layer Dwgs.User) (width 0))
  (fp_poly (pts (xy -1.633262 -0.211278) (xy -1.611418 -0.211278) (xy -1.611418 -0.233121) (xy -1.633262 -0.233121)) (layer Dwgs.User) (width 0))
  (fp_poly (pts (xy -1.414821 -0.211278) (xy -0.99979 -0.211278) (xy -0.99979 -0.233121) (xy -1.414821 -0.233121)) (layer Dwgs.User) (width 0))
  (fp_poly (pts (xy -0.213403 -0.211278) (xy 0.201634 -0.211278) (xy 0.201634 -0.233121) (xy -0.213403 -0.233121)) (layer Dwgs.User) (width 0))
  (fp_poly (pts (xy 0.988018 -0.211278) (xy 1.40305 -0.211278) (xy 1.40305 -0.233121) (xy 0.988018 -0.233121)) (layer Dwgs.User) (width 0))
  (fp_poly (pts (xy 1.621493 -0.211278) (xy 1.643337 -0.211278) (xy 1.643337 -0.233121) (xy 1.621493 -0.233121)) (layer Dwgs.User) (width 0))
  (fp_poly (pts (xy -1.633262 -0.233121) (xy -1.611418 -0.233121) (xy -1.611418 -0.254965) (xy -1.633262 -0.254965)) (layer Dwgs.User) (width 0))
  (fp_poly (pts (xy -1.414821 -0.233121) (xy -0.99979 -0.233121) (xy -0.99979 -0.254965) (xy -1.414821 -0.254965)) (layer Dwgs.User) (width 0))
  (fp_poly (pts (xy -0.213403 -0.233121) (xy 0.201634 -0.233121) (xy 0.201634 -0.254965) (xy -0.213403 -0.254965)) (layer Dwgs.User) (width 0))
  (fp_poly (pts (xy 0.988018 -0.233121) (xy 1.40305 -0.233121) (xy 1.40305 -0.254965) (xy 0.988018 -0.254965)) (layer Dwgs.User) (width 0))
  (fp_poly (pts (xy 1.621493 -0.233121) (xy 1.643337 -0.233121) (xy 1.643337 -0.254965) (xy 1.621493 -0.254965)) (layer Dwgs.User) (width 0))
  (fp_poly (pts (xy -1.633262 -0.254965) (xy -1.611418 -0.254965) (xy -1.611418 -0.276809) (xy -1.633262 -0.276809)) (layer Dwgs.User) (width 0))
  (fp_poly (pts (xy -1.414821 -0.254965) (xy -0.99979 -0.254965) (xy -0.99979 -0.276809) (xy -1.414821 -0.276809)) (layer Dwgs.User) (width 0))
  (fp_poly (pts (xy -0.213403 -0.254965) (xy 0.201634 -0.254965) (xy 0.201634 -0.276809) (xy -0.213403 -0.276809)) (layer Dwgs.User) (width 0))
  (fp_poly (pts (xy 0.988018 -0.254965) (xy 1.40305 -0.254965) (xy 1.40305 -0.276809) (xy 0.988018 -0.276809)) (layer Dwgs.User) (width 0))
  (fp_poly (pts (xy 1.621493 -0.254965) (xy 1.643337 -0.254965) (xy 1.643337 -0.276809) (xy 1.621493 -0.276809)) (layer Dwgs.User) (width 0))
  (fp_poly (pts (xy -1.633262 -0.276809) (xy -1.611418 -0.276809) (xy -1.611418 -0.298653) (xy -1.633262 -0.298653)) (layer Dwgs.User) (width 0))
  (fp_poly (pts (xy -1.414821 -0.276809) (xy -0.99979 -0.276809) (xy -0.99979 -0.298653) (xy -1.414821 -0.298653)) (layer Dwgs.User) (width 0))
  (fp_poly (pts (xy -0.213403 -0.276809) (xy 0.201634 -0.276809) (xy 0.201634 -0.298653) (xy -0.213403 -0.298653)) (layer Dwgs.User) (width 0))
  (fp_poly (pts (xy 0.988018 -0.276809) (xy 1.40305 -0.276809) (xy 1.40305 -0.298653) (xy 0.988018 -0.298653)) (layer Dwgs.User) (width 0))
  (fp_poly (pts (xy 1.621493 -0.276809) (xy 1.643337 -0.276809) (xy 1.643337 -0.298653) (xy 1.621493 -0.298653)) (layer Dwgs.User) (width 0))
  (fp_poly (pts (xy -1.633262 -0.298653) (xy -1.611418 -0.298653) (xy -1.611418 -0.320496) (xy -1.633262 -0.320496)) (layer Dwgs.User) (width 0))
  (fp_poly (pts (xy -1.414821 -0.298653) (xy -0.99979 -0.298653) (xy -0.99979 -0.320496) (xy -1.414821 -0.320496)) (layer Dwgs.User) (width 0))
  (fp_poly (pts (xy -0.213403 -0.298653) (xy 0.201634 -0.298653) (xy 0.201634 -0.320496) (xy -0.213403 -0.320496)) (layer Dwgs.User) (width 0))
  (fp_poly (pts (xy 0.988018 -0.298653) (xy 1.40305 -0.298653) (xy 1.40305 -0.320496) (xy 0.988018 -0.320496)) (layer Dwgs.User) (width 0))
  (fp_poly (pts (xy 1.621493 -0.298653) (xy 1.643337 -0.298653) (xy 1.643337 -0.320496) (xy 1.621493 -0.320496)) (layer Dwgs.User) (width 0))
  (fp_poly (pts (xy -1.633262 -0.320496) (xy -1.611418 -0.320496) (xy -1.611418 -0.34234) (xy -1.633262 -0.34234)) (layer Dwgs.User) (width 0))
  (fp_poly (pts (xy -1.414821 -0.320496) (xy -0.99979 -0.320496) (xy -0.99979 -0.34234) (xy -1.414821 -0.34234)) (layer Dwgs.User) (width 0))
  (fp_poly (pts (xy -0.213403 -0.320496) (xy 0.201634 -0.320496) (xy 0.201634 -0.34234) (xy -0.213403 -0.34234)) (layer Dwgs.User) (width 0))
  (fp_poly (pts (xy 0.988018 -0.320496) (xy 1.40305 -0.320496) (xy 1.40305 -0.34234) (xy 0.988018 -0.34234)) (layer Dwgs.User) (width 0))
  (fp_poly (pts (xy 1.621493 -0.320496) (xy 1.643337 -0.320496) (xy 1.643337 -0.34234) (xy 1.621493 -0.34234)) (layer Dwgs.User) (width 0))
  (fp_poly (pts (xy -1.633262 -0.34234) (xy -1.611418 -0.34234) (xy -1.611418 -0.364184) (xy -1.633262 -0.364184)) (layer Dwgs.User) (width 0))
  (fp_poly (pts (xy -1.414821 -0.34234) (xy -0.99979 -0.34234) (xy -0.99979 -0.364184) (xy -1.414821 -0.364184)) (layer Dwgs.User) (width 0))
  (fp_poly (pts (xy -0.213403 -0.34234) (xy 0.201634 -0.34234) (xy 0.201634 -0.364184) (xy -0.213403 -0.364184)) (layer Dwgs.User) (width 0))
  (fp_poly (pts (xy 0.988018 -0.34234) (xy 1.40305 -0.34234) (xy 1.40305 -0.364184) (xy 0.988018 -0.364184)) (layer Dwgs.User) (width 0))
  (fp_poly (pts (xy 1.621493 -0.34234) (xy 1.643337 -0.34234) (xy 1.643337 -0.364184) (xy 1.621493 -0.364184)) (layer Dwgs.User) (width 0))
  (fp_poly (pts (xy -1.633262 -0.364187) (xy -1.611418 -0.364187) (xy -1.611418 -0.386031) (xy -1.633262 -0.386031)) (layer Dwgs.User) (width 0))
  (fp_poly (pts (xy -1.414821 -0.364187) (xy -0.99979 -0.364187) (xy -0.99979 -0.386031) (xy -1.414821 -0.386031)) (layer Dwgs.User) (width 0))
  (fp_poly (pts (xy -0.213403 -0.364187) (xy 0.201634 -0.364187) (xy 0.201634 -0.386031) (xy -0.213403 -0.386031)) (layer Dwgs.User) (width 0))
  (fp_poly (pts (xy 0.988018 -0.364187) (xy 1.40305 -0.364187) (xy 1.40305 -0.386031) (xy 0.988018 -0.386031)) (layer Dwgs.User) (width 0))
  (fp_poly (pts (xy 1.621493 -0.364187) (xy 1.643337 -0.364187) (xy 1.643337 -0.386031) (xy 1.621493 -0.386031)) (layer Dwgs.User) (width 0))
  (fp_poly (pts (xy -1.633262 -0.386031) (xy -1.611418 -0.386031) (xy -1.611418 -0.407875) (xy -1.633262 -0.407875)) (layer Dwgs.User) (width 0))
  (fp_poly (pts (xy -1.414821 -0.386031) (xy -0.99979 -0.386031) (xy -0.99979 -0.407875) (xy -1.414821 -0.407875)) (layer Dwgs.User) (width 0))
  (fp_poly (pts (xy -0.213403 -0.386031) (xy 0.201634 -0.386031) (xy 0.201634 -0.407875) (xy -0.213403 -0.407875)) (layer Dwgs.User) (width 0))
  (fp_poly (pts (xy 0.988018 -0.386031) (xy 1.40305 -0.386031) (xy 1.40305 -0.407875) (xy 0.988018 -0.407875)) (layer Dwgs.User) (width 0))
  (fp_poly (pts (xy 1.621493 -0.386031) (xy 1.643337 -0.386031) (xy 1.643337 -0.407875) (xy 1.621493 -0.407875)) (layer Dwgs.User) (width 0))
  (fp_poly (pts (xy -1.633262 -0.407875) (xy -1.611418 -0.407875) (xy -1.611418 -0.429718) (xy -1.633262 -0.429718)) (layer Dwgs.User) (width 0))
  (fp_poly (pts (xy -1.414821 -0.407875) (xy -0.99979 -0.407875) (xy -0.99979 -0.429718) (xy -1.414821 -0.429718)) (layer Dwgs.User) (width 0))
  (fp_poly (pts (xy -0.213403 -0.407875) (xy 0.201634 -0.407875) (xy 0.201634 -0.429718) (xy -0.213403 -0.429718)) (layer Dwgs.User) (width 0))
  (fp_poly (pts (xy 0.988018 -0.407875) (xy 1.40305 -0.407875) (xy 1.40305 -0.429718) (xy 0.988018 -0.429718)) (layer Dwgs.User) (width 0))
  (fp_poly (pts (xy 1.621493 -0.407875) (xy 1.643337 -0.407875) (xy 1.643337 -0.429718) (xy 1.621493 -0.429718)) (layer Dwgs.User) (width 0))
  (fp_poly (pts (xy -1.633262 -0.429718) (xy -1.611418 -0.429718) (xy -1.611418 -0.451562) (xy -1.633262 -0.451562)) (layer Dwgs.User) (width 0))
  (fp_poly (pts (xy -1.414821 -0.429718) (xy -0.99979 -0.429718) (xy -0.99979 -0.451562) (xy -1.414821 -0.451562)) (layer Dwgs.User) (width 0))
  (fp_poly (pts (xy -0.213403 -0.429718) (xy 0.201634 -0.429718) (xy 0.201634 -0.451562) (xy -0.213403 -0.451562)) (layer Dwgs.User) (width 0))
  (fp_poly (pts (xy 0.988018 -0.429718) (xy 1.40305 -0.429718) (xy 1.40305 -0.451562) (xy 0.988018 -0.451562)) (layer Dwgs.User) (width 0))
  (fp_poly (pts (xy 1.621493 -0.429718) (xy 1.643337 -0.429718) (xy 1.643337 -0.451562) (xy 1.621493 -0.451562)) (layer Dwgs.User) (width 0))
  (fp_poly (pts (xy -1.633262 -0.451562) (xy -1.611418 -0.451562) (xy -1.611418 -0.473406) (xy -1.633262 -0.473406)) (layer Dwgs.User) (width 0))
  (fp_poly (pts (xy -1.414821 -0.451562) (xy -0.99979 -0.451562) (xy -0.99979 -0.473406) (xy -1.414821 -0.473406)) (layer Dwgs.User) (width 0))
  (fp_poly (pts (xy -0.213403 -0.451562) (xy 0.201634 -0.451562) (xy 0.201634 -0.473406) (xy -0.213403 -0.473406)) (layer Dwgs.User) (width 0))
  (fp_poly (pts (xy 0.988018 -0.451562) (xy 1.40305 -0.451562) (xy 1.40305 -0.473406) (xy 0.988018 -0.473406)) (layer Dwgs.User) (width 0))
  (fp_poly (pts (xy 1.621493 -0.451562) (xy 1.643337 -0.451562) (xy 1.643337 -0.473406) (xy 1.621493 -0.473406)) (layer Dwgs.User) (width 0))
  (fp_poly (pts (xy -1.633262 -0.473406) (xy -1.611418 -0.473406) (xy -1.611418 -0.49525) (xy -1.633262 -0.49525)) (layer Dwgs.User) (width 0))
  (fp_poly (pts (xy -1.414821 -0.473406) (xy -0.99979 -0.473406) (xy -0.99979 -0.49525) (xy -1.414821 -0.49525)) (layer Dwgs.User) (width 0))
  (fp_poly (pts (xy -0.213403 -0.473406) (xy 0.201634 -0.473406) (xy 0.201634 -0.49525) (xy -0.213403 -0.49525)) (layer Dwgs.User) (width 0))
  (fp_poly (pts (xy 0.988018 -0.473406) (xy 1.40305 -0.473406) (xy 1.40305 -0.49525) (xy 0.988018 -0.49525)) (layer Dwgs.User) (width 0))
  (fp_poly (pts (xy 1.621493 -0.473406) (xy 1.643337 -0.473406) (xy 1.643337 -0.49525) (xy 1.621493 -0.49525)) (layer Dwgs.User) (width 0))
  (fp_poly (pts (xy -1.633262 -0.49525) (xy -1.611418 -0.49525) (xy -1.611418 -0.517093) (xy -1.633262 -0.517093)) (layer Dwgs.User) (width 0))
  (fp_poly (pts (xy -1.414821 -0.49525) (xy -0.99979 -0.49525) (xy -0.99979 -0.517093) (xy -1.414821 -0.517093)) (layer Dwgs.User) (width 0))
  (fp_poly (pts (xy -0.213403 -0.49525) (xy 0.201634 -0.49525) (xy 0.201634 -0.517093) (xy -0.213403 -0.517093)) (layer Dwgs.User) (width 0))
  (fp_poly (pts (xy 0.988018 -0.49525) (xy 1.40305 -0.49525) (xy 1.40305 -0.517093) (xy 0.988018 -0.517093)) (layer Dwgs.User) (width 0))
  (fp_poly (pts (xy 1.621493 -0.49525) (xy 1.643337 -0.49525) (xy 1.643337 -0.517093) (xy 1.621493 -0.517093)) (layer Dwgs.User) (width 0))
  (fp_poly (pts (xy -1.633262 -0.517093) (xy -1.611418 -0.517093) (xy -1.611418 -0.538937) (xy -1.633262 -0.538937)) (layer Dwgs.User) (width 0))
  (fp_poly (pts (xy -1.414821 -0.517093) (xy -0.99979 -0.517093) (xy -0.99979 -0.538937) (xy -1.414821 -0.538937)) (layer Dwgs.User) (width 0))
  (fp_poly (pts (xy -0.213403 -0.517093) (xy 0.201634 -0.517093) (xy 0.201634 -0.538937) (xy -0.213403 -0.538937)) (layer Dwgs.User) (width 0))
  (fp_poly (pts (xy 0.988018 -0.517093) (xy 1.40305 -0.517093) (xy 1.40305 -0.538937) (xy 0.988018 -0.538937)) (layer Dwgs.User) (width 0))
  (fp_poly (pts (xy 1.621493 -0.517093) (xy 1.643337 -0.517093) (xy 1.643337 -0.538937) (xy 1.621493 -0.538937)) (layer Dwgs.User) (width 0))
  (fp_poly (pts (xy -1.633262 -0.538937) (xy -1.611418 -0.538937) (xy -1.611418 -0.560781) (xy -1.633262 -0.560781)) (layer Dwgs.User) (width 0))
  (fp_poly (pts (xy -1.414821 -0.538937) (xy -0.99979 -0.538937) (xy -0.99979 -0.560781) (xy -1.414821 -0.560781)) (layer Dwgs.User) (width 0))
  (fp_poly (pts (xy -0.213403 -0.538937) (xy 0.201634 -0.538937) (xy 0.201634 -0.560781) (xy -0.213403 -0.560781)) (layer Dwgs.User) (width 0))
  (fp_poly (pts (xy 0.988018 -0.538937) (xy 1.40305 -0.538937) (xy 1.40305 -0.560781) (xy 0.988018 -0.560781)) (layer Dwgs.User) (width 0))
  (fp_poly (pts (xy 1.621493 -0.538937) (xy 1.643337 -0.538937) (xy 1.643337 -0.560781) (xy 1.621493 -0.560781)) (layer Dwgs.User) (width 0))
  (fp_poly (pts (xy -1.633262 -0.560781) (xy -1.611418 -0.560781) (xy -1.611418 -0.582625) (xy -1.633262 -0.582625)) (layer Dwgs.User) (width 0))
  (fp_poly (pts (xy -1.414821 -0.560781) (xy -0.99979 -0.560781) (xy -0.99979 -0.582625) (xy -1.414821 -0.582625)) (layer Dwgs.User) (width 0))
  (fp_poly (pts (xy -0.213403 -0.560781) (xy 0.201634 -0.560781) (xy 0.201634 -0.582625) (xy -0.213403 -0.582625)) (layer Dwgs.User) (width 0))
  (fp_poly (pts (xy 0.988018 -0.560781) (xy 1.40305 -0.560781) (xy 1.40305 -0.582625) (xy 0.988018 -0.582625)) (layer Dwgs.User) (width 0))
  (fp_poly (pts (xy 1.621493 -0.560781) (xy 1.643337 -0.560781) (xy 1.643337 -0.582625) (xy 1.621493 -0.582625)) (layer Dwgs.User) (width 0))
  (fp_poly (pts (xy -1.633262 -0.582625) (xy -1.611418 -0.582625) (xy -1.611418 -0.604468) (xy -1.633262 -0.604468)) (layer Dwgs.User) (width 0))
  (fp_poly (pts (xy -1.414821 -0.582625) (xy -0.99979 -0.582625) (xy -0.99979 -0.604468) (xy -1.414821 -0.604468)) (layer Dwgs.User) (width 0))
  (fp_poly (pts (xy -0.213403 -0.582625) (xy 0.201634 -0.582625) (xy 0.201634 -0.604468) (xy -0.213403 -0.604468)) (layer Dwgs.User) (width 0))
  (fp_poly (pts (xy 0.988018 -0.582625) (xy 1.40305 -0.582625) (xy 1.40305 -0.604468) (xy 0.988018 -0.604468)) (layer Dwgs.User) (width 0))
  (fp_poly (pts (xy 1.621493 -0.582625) (xy 1.643337 -0.582625) (xy 1.643337 -0.604468) (xy 1.621493 -0.604468)) (layer Dwgs.User) (width 0))
  (fp_poly (pts (xy -1.633262 -0.604468) (xy 1.643337 -0.604468) (xy 1.643337 -0.626312) (xy -1.633262 -0.626312)) (layer Dwgs.User) (width 0))
  (fp_poly (pts (xy -1.750059 0.769618) (xy 1.744981 0.769618) (xy 1.744981 -0.76454) (xy -1.750059 -0.76454)) (layer F.Mask) (width 0))
  (fp_line (start -1.2 0) (end -1.2 -1.016) (layer F.Cu) (width 0.254))
  (fp_line (start -1.2 1.016) (end -1.2 0) (layer F.Cu) (width 0.254))
  (fp_line (start 1.2 0) (end 1.2 -1.016) (layer F.Cu) (width 0.254))
  (fp_line (start 1.2 0) (end 1.2 1.016) (layer F.Cu) (width 0.254))
  (fp_line (start 0 0) (end 0 -1.016) (layer F.Cu) (width 0.254))
  (fp_line (start 0 0) (end 0 1.016) (layer F.Cu) (width 0.254))
  (pad 1 smd roundrect (at -1.2 0) (size 0.45 1.905) (layers F.Cu F.Paste F.Mask) (roundrect_rratio 0.5)
    (solder_mask_margin 0.1016))
  (pad 2 smd roundrect (at 0 0) (size 0.45 1.905) (layers F.Cu F.Paste F.Mask) (roundrect_rratio 0.5)
    (solder_mask_margin 0.1016))
  (pad 3 smd roundrect (at 1.2 0) (size 0.45 1.905) (layers F.Cu F.Paste F.Mask) (roundrect_rratio 0.5)
    (solder_mask_margin 0.1016))
)
