EESchema Schematic File Version 4
EELAYER 30 0
EELAYER END
$Descr User 11759 8846
encoding utf-8
Sheet 1 1
Title ""
Date ""
Rev ""
Comp ""
Comment1 ""
Comment2 ""
Comment3 ""
Comment4 ""
$EndDescr
Wire Wire Line
	4100 2100 4100 2000
Text Label 4100 2100 0    10   ~ 0
GND
Wire Wire Line
	4400 2100 4400 2000
Text Label 4400 2100 0    10   ~ 0
GND
Wire Wire Line
	5900 2400 5900 2500
Text Label 5900 2400 0    10   ~ 0
GND
Wire Wire Line
	6400 4200 6400 4100
Text Label 6400 4200 0    10   ~ 0
GND
Wire Wire Line
	6200 3000 6200 2900
Text Label 6200 3000 0    10   ~ 0
GND
Wire Wire Line
	8900 5200 8900 5100
Text Label 8900 5200 0    10   ~ 0
GND
Wire Wire Line
	2500 1800 2300 1800
Wire Wire Line
	2300 1800 2300 2100
Text Label 2500 1800 0    10   ~ 0
GND
Wire Wire Line
	2000 2100 2000 2000
Text Label 2000 2100 0    10   ~ 0
GND
Wire Wire Line
	3700 4400 3800 4400
Text Label 3800 4400 0    50   ~ 0
GND
Wire Wire Line
	4900 4200 4800 4200
Text Label 4800 4200 2    50   ~ 0
GND
Wire Wire Line
	6400 3200 6400 3000
Wire Wire Line
	6400 3000 6500 3000
Text Label 6400 3200 0    10   ~ 0
GND
Wire Wire Line
	6900 3900 6800 3900
Wire Wire Line
	6800 3900 6800 4000
Wire Wire Line
	6800 4000 6800 4100
Wire Wire Line
	6800 4100 6800 4200
Wire Wire Line
	6900 4000 6800 4000
Wire Wire Line
	6900 4100 6800 4100
Connection ~ 6800 4000
Connection ~ 6800 4100
Text Label 6900 3900 0    10   ~ 0
GND
Wire Wire Line
	2200 4500 2300 4500
Text Label 2300 4500 0    50   ~ 0
GND
Wire Wire Line
	2200 4400 2300 4400
Text Label 2300 4400 0    50   ~ 0
GND
Wire Wire Line
	3500 2500 3500 2600
Text Label 3500 2500 0    10   ~ 0
GND
Wire Wire Line
	6900 2500 6200 2500
Wire Wire Line
	6200 2500 6200 2600
Text Label 6500 2500 0    70   ~ 0
AREF
Wire Wire Line
	3700 4300 3800 4300
Text Label 3800 4300 0    50   ~ 0
RESET
Wire Wire Line
	4900 4300 4800 4300
Text Label 4800 4300 2    50   ~ 0
RESET
Wire Wire Line
	6900 1900 5900 1900
Wire Wire Line
	5900 1800 5900 1900
Wire Wire Line
	5900 2000 5900 1900
Wire Wire Line
	5900 1900 5700 1900
Connection ~ 5900 1900
Text Label 6300 1900 0    70   ~ 0
RESET
Wire Wire Line
	4900 4900 4800 4900
Text Label 4800 4900 2    50   ~ 0
SCK
Wire Wire Line
	8900 4200 8900 4300
Wire Wire Line
	8800 4200 8900 4200
Wire Wire Line
	8900 4200 9000 4200
Connection ~ 8900 4200
Text Label 9000 4200 0    50   ~ 0
SCK
Wire Wire Line
	4900 5000 4800 5000
Text Label 4800 5000 2    50   ~ 0
MISO
Wire Wire Line
	8800 4100 8900 4100
Text Label 8900 4100 0    50   ~ 0
MISO
Wire Wire Line
	4900 5100 4800 5100
Text Label 4800 5100 2    50   ~ 0
MOSI
Wire Wire Line
	8800 4000 8900 4000
Text Label 8900 4000 0    50   ~ 0
MOSI
Wire Wire Line
	8900 4700 8900 4800
Wire Wire Line
	3700 4100 3800 4100
Text Label 3800 4100 0    50   ~ 0
TXO
Wire Wire Line
	8800 2900 8900 2900
Text Label 8900 2900 0    50   ~ 0
TXO
Wire Wire Line
	2200 4800 2300 4800
Text Label 2300 4800 0    50   ~ 0
TXO
Wire Wire Line
	5900 1300 5900 1400
Text Label 5900 1300 0    10   ~ 0
VCC
Wire Wire Line
	6400 3700 6400 3800
Text Label 6400 3700 0    10   ~ 0
VCC
Wire Wire Line
	4900 4400 4800 4400
Text Label 4800 4400 2    50   ~ 0
VCC
Wire Wire Line
	6900 2100 6800 2100
Wire Wire Line
	6800 2100 6800 1800
Wire Wire Line
	6900 2200 6800 2200
Wire Wire Line
	6800 2200 6800 2100
Wire Wire Line
	6900 2300 6800 2300
Wire Wire Line
	6800 2300 6800 2200
Connection ~ 6800 2100
Connection ~ 6800 2200
Text Label 6900 2100 0    10   ~ 0
VCC
Wire Wire Line
	2200 4600 2300 4600
Text Label 2300 4600 0    50   ~ 0
VCC
Wire Wire Line
	9900 1800 9900 1700
Text Label 9900 1800 0    10   ~ 0
VCC
Wire Wire Line
	10200 1900 10200 1700
Text Label 10200 1900 0    10   ~ 0
VCC
Wire Wire Line
	4500 1500 4500 1600
Wire Wire Line
	4500 1600 4400 1600
Wire Wire Line
	4400 1600 4100 1600
Wire Wire Line
	4100 1600 4000 1600
Wire Wire Line
	4100 1700 4100 1600
Wire Wire Line
	4400 1700 4400 1600
Connection ~ 4100 1600
Connection ~ 4400 1600
Text Label 4500 1500 0    10   ~ 0
VCC
Wire Wire Line
	2400 1600 2500 1600
Wire Wire Line
	2500 2000 2400 2000
Wire Wire Line
	2400 2000 2400 1600
Wire Wire Line
	2000 1600 2400 1600
Wire Wire Line
	2000 1700 2000 1600
Wire Wire Line
	2000 1600 1900 1600
Connection ~ 2400 1600
Connection ~ 2000 1600
Text Label 1900 1600 2    50   ~ 0
RAW
Wire Wire Line
	4900 4100 4800 4100
Text Label 4800 4100 2    50   ~ 0
RAW
Wire Wire Line
	3700 5200 3800 5200
Text Label 3800 5200 0    50   ~ 0
D9
Wire Wire Line
	8800 3800 8900 3800
Text Label 8900 3800 0    50   ~ 0
D9
Wire Wire Line
	3700 5100 3800 5100
Text Label 3800 5100 0    50   ~ 0
D8
Wire Wire Line
	8800 3700 8900 3700
Text Label 8900 3700 0    50   ~ 0
D8
Wire Wire Line
	3700 6400 3600 6400
Text Label 3600 6400 2    50   ~ 0
A5
Wire Wire Line
	8800 2400 10200 2400
Wire Wire Line
	10200 2400 10200 2300
Text Label 8800 2400 0    10   ~ 0
A5
Wire Wire Line
	3700 6300 3600 6300
Text Label 3600 6300 2    50   ~ 0
A4
Wire Wire Line
	8800 2300 9900 2300
Wire Wire Line
	9900 2300 9900 2200
Text Label 8800 2300 0    10   ~ 0
A4
Wire Wire Line
	4900 4500 4800 4500
Text Label 4800 4500 2    50   ~ 0
A3
Wire Wire Line
	8800 2200 8900 2200
Text Label 8900 2200 0    50   ~ 0
A3
Wire Wire Line
	4900 4600 4800 4600
Text Label 4800 4600 2    50   ~ 0
A2
Wire Wire Line
	8800 2100 8900 2100
Text Label 8900 2100 0    50   ~ 0
A2
Wire Wire Line
	4900 4700 4800 4700
Text Label 4800 4700 2    50   ~ 0
A1
Wire Wire Line
	8800 2000 8900 2000
Text Label 8900 2000 0    50   ~ 0
A1
Wire Wire Line
	4900 4800 4800 4800
Text Label 4800 4800 2    50   ~ 0
A0
Wire Wire Line
	8800 1900 8900 1900
Text Label 8900 1900 0    50   ~ 0
A0
Wire Wire Line
	3700 4500 3800 4500
Text Label 3800 4500 0    50   ~ 0
D2
Wire Wire Line
	8800 3000 8900 3000
Text Label 8900 3000 0    50   ~ 0
D2
Wire Wire Line
	3700 4600 3800 4600
Text Label 3800 4600 0    50   ~ 0
D3
Wire Wire Line
	8800 3100 8900 3100
Text Label 8900 3100 0    50   ~ 0
D3
Wire Wire Line
	3700 4700 3800 4700
Text Label 3800 4700 0    50   ~ 0
D4
Wire Wire Line
	8800 3200 8900 3200
Text Label 8900 3200 0    50   ~ 0
D4
Wire Wire Line
	3700 4800 3800 4800
Text Label 3800 4800 0    50   ~ 0
D5
Wire Wire Line
	8800 3300 8900 3300
Text Label 8900 3300 0    50   ~ 0
D5
Wire Wire Line
	3700 4900 3800 4900
Text Label 3800 4900 0    50   ~ 0
D6
Wire Wire Line
	8800 3400 8900 3400
Text Label 8900 3400 0    50   ~ 0
D6
Wire Wire Line
	3700 5000 3800 5000
Text Label 3800 5000 0    50   ~ 0
D7
Wire Wire Line
	8800 3500 8900 3500
Text Label 8900 3500 0    50   ~ 0
D7
Wire Wire Line
	4900 5200 4800 5200
Text Label 4800 5200 2    50   ~ 0
D10
Wire Wire Line
	8800 3900 8900 3900
Text Label 8900 3900 0    50   ~ 0
D10
Wire Wire Line
	6800 3100 6900 3100
Wire Wire Line
	6800 2900 6900 2900
Wire Wire Line
	2200 4900 2300 4900
Text Label 2300 4900 0    50   ~ 0
DTR
Wire Wire Line
	5400 1900 5300 1900
Text Label 5300 1900 2    50   ~ 0
DTR
Wire Wire Line
	2200 4700 2300 4700
Text Label 2300 4700 0    50   ~ 0
RXI
Wire Wire Line
	3700 4200 3800 4200
Text Label 3800 4200 0    50   ~ 0
RXI
Wire Wire Line
	8800 2800 8900 2800
Text Label 8900 2800 0    50   ~ 0
RXI
Wire Wire Line
	8800 2500 8900 2500
Text Label 8900 2500 0    50   ~ 0
A6
Wire Wire Line
	4700 6300 4600 6300
Text Label 4600 6300 2    50   ~ 0
A6
Wire Wire Line
	8800 2600 8900 2600
Text Label 8900 2600 0    50   ~ 0
A7
Wire Wire Line
	4700 6400 4600 6400
Text Label 4600 6400 2    50   ~ 0
A7
Wire Wire Line
	3200 1600 3500 1600
Wire Wire Line
	3500 1600 3600 1600
Wire Wire Line
	3500 1700 3500 1600
Connection ~ 3500 1600
Wire Wire Line
	3500 2000 3500 2100
$Comp
L Arduino-Pro-Mini-eagle-import:CAP0603-CAP C10
U 1 1 6EEB2871
P 4400 1900
F 0 "C10" H 4460 2015 59  0000 L BNN
F 1 "0.1uF" H 4460 1815 59  0000 L BNN
F 2 "Arduino-Pro-Mini:0603-CAP" H 4400 1900 50  0001 C CNN
F 3 "" H 4400 1900 50  0001 C CNN
	1    4400 1900
	1    0    0    -1  
$EndComp
$Comp
L Arduino-Pro-Mini-eagle-import:FRAME-LETTER FRAME1
U 1 1 CC96BE83
P 1100 8000
F 0 "FRAME1" H 1100 8000 50  0001 C CNN
F 1 "FRAME-LETTER" H 1100 8000 50  0001 C CNN
F 2 "Arduino-Pro-Mini:CREATIVE_COMMONS" H 1100 8000 50  0001 C CNN
F 3 "" H 1100 8000 50  0001 C CNN
	1    1100 8000
	1    0    0    -1  
$EndComp
$Comp
L Arduino-Pro-Mini-eagle-import:FRAME-LETTER FRAME1
U 2 1 CC96BE8F
P 6900 8000
F 0 "FRAME1" H 6900 8000 50  0001 C CNN
F 1 "FRAME-LETTER" H 6900 8000 50  0001 C CNN
F 2 "Arduino-Pro-Mini:CREATIVE_COMMONS" H 6900 8000 50  0001 C CNN
F 3 "" H 6900 8000 50  0001 C CNN
	2    6900 8000
	1    0    0    -1  
$EndComp
$Comp
L Arduino-Pro-Mini-eagle-import:CAP_POL1206 C13
U 1 1 222DAB49
P 4100 1800
F 0 "C13" H 4140 1825 59  0000 L BNN
F 1 "10uF" H 4140 1635 59  0000 L BNN
F 2 "Arduino-Pro-Mini:EIA3216" H 4100 1800 50  0001 C CNN
F 3 "" H 4100 1800 50  0001 C CNN
	1    4100 1800
	1    0    0    -1  
$EndComp
$Comp
L Arduino-Pro-Mini-eagle-import:GND #GND025
U 1 1 F212C7DE
P 4100 2200
F 0 "#GND025" H 4100 2200 50  0001 C CNN
F 1 "GND" H 4000 2100 59  0000 L BNN
F 2 "" H 4100 2200 50  0001 C CNN
F 3 "" H 4100 2200 50  0001 C CNN
	1    4100 2200
	1    0    0    -1  
$EndComp
$Comp
L Arduino-Pro-Mini-eagle-import:GND #GND026
U 1 1 3890F70B
P 4400 2200
F 0 "#GND026" H 4400 2200 50  0001 C CNN
F 1 "GND" H 4300 2100 59  0000 L BNN
F 2 "" H 4400 2200 50  0001 C CNN
F 3 "" H 4400 2200 50  0001 C CNN
	1    4400 2200
	1    0    0    -1  
$EndComp
$Comp
L Arduino-Pro-Mini-eagle-import:RESISTOR0603-RES R11
U 1 1 B75FF5DF
P 3500 2300
F 0 "R11" H 3350 2359 59  0000 L BNN
F 1 "10K" H 3350 2170 59  0000 L BNN
F 2 "Arduino-Pro-Mini:0603-RES" H 3500 2300 50  0001 C CNN
F 3 "" H 3500 2300 50  0001 C CNN
	1    3500 2300
	0    -1   -1   0   
$EndComp
$Comp
L Arduino-Pro-Mini-eagle-import:LED LED1
U 1 1 1997B8BF
P 3500 1800
F 0 "LED1" V 3640 1620 59  0000 L BNN
F 1 "Red" V 3725 1620 59  0000 L BNN
F 2 "Arduino-Pro-Mini:0603-LED-ALT1" H 3500 1800 50  0001 C CNN
F 3 "" H 3500 1800 50  0001 C CNN
	1    3500 1800
	1    0    0    -1  
$EndComp
$Comp
L Arduino-Pro-Mini-eagle-import:GND #GND028
U 1 1 D1DF28FE
P 3500 2700
F 0 "#GND028" H 3500 2700 50  0001 C CNN
F 1 "GND" H 3400 2600 59  0000 L BNN
F 2 "" H 3500 2700 50  0001 C CNN
F 3 "" H 3500 2700 50  0001 C CNN
	1    3500 2700
	1    0    0    -1  
$EndComp
$Comp
L Arduino-Pro-Mini-eagle-import:RESISTOR0603-RES R2
U 1 1 0F3C4881
P 5900 1600
F 0 "R2" H 5750 1659 59  0000 L BNN
F 1 "10K" H 5750 1470 59  0000 L BNN
F 2 "Arduino-Pro-Mini:0603-RES" H 5900 1600 50  0001 C CNN
F 3 "" H 5900 1600 50  0001 C CNN
	1    5900 1600
	0    -1   -1   0   
$EndComp
$Comp
L Arduino-Pro-Mini-eagle-import:GND #GND03
U 1 1 21137572
P 5900 2600
F 0 "#GND03" H 5900 2600 50  0001 C CNN
F 1 "GND" H 5800 2500 59  0000 L BNN
F 2 "" H 5900 2600 50  0001 C CNN
F 3 "" H 5900 2600 50  0001 C CNN
	1    5900 2600
	1    0    0    -1  
$EndComp
$Comp
L Arduino-Pro-Mini-eagle-import:CAP0603-CAP C3
U 1 1 88676885
P 6400 3900
F 0 "C3" H 6360 3895 59  0000 R TNN
F 1 "0.1uF" H 6360 4065 59  0000 R TNN
F 2 "Arduino-Pro-Mini:0603-CAP" H 6400 3900 50  0001 C CNN
F 3 "" H 6400 3900 50  0001 C CNN
	1    6400 3900
	-1   0    0    1   
$EndComp
$Comp
L Arduino-Pro-Mini-eagle-import:GND #GND01
U 1 1 8DA2BB24
P 6400 4300
F 0 "#GND01" H 6400 4300 50  0001 C CNN
F 1 "GND" H 6300 4200 59  0000 L BNN
F 2 "" H 6400 4300 50  0001 C CNN
F 3 "" H 6400 4300 50  0001 C CNN
	1    6400 4300
	1    0    0    -1  
$EndComp
$Comp
L Arduino-Pro-Mini-eagle-import:CAP0603-CAP C1
U 1 1 AC59532D
P 6200 2700
F 0 "C1" H 6160 2695 59  0000 R TNN
F 1 "0.1uF" H 6160 2885 59  0000 R TNN
F 2 "Arduino-Pro-Mini:0603-CAP" H 6200 2700 50  0001 C CNN
F 3 "" H 6200 2700 50  0001 C CNN
	1    6200 2700
	-1   0    0    1   
$EndComp
$Comp
L Arduino-Pro-Mini-eagle-import:GND #GND07
U 1 1 C2693486
P 6200 3100
F 0 "#GND07" H 6200 3100 50  0001 C CNN
F 1 "GND" H 6100 3000 59  0000 L BNN
F 2 "" H 6200 3100 50  0001 C CNN
F 3 "" H 6200 3100 50  0001 C CNN
	1    6200 3100
	1    0    0    -1  
$EndComp
$Comp
L Arduino-Pro-Mini-eagle-import:RESISTOR0603-RES R6
U 1 1 A0406511
P 8900 4500
F 0 "R6" H 8750 4559 59  0000 L BNN
F 1 "330" H 8750 4370 59  0000 L BNN
F 2 "Arduino-Pro-Mini:0603-RES" H 8900 4500 50  0001 C CNN
F 3 "" H 8900 4500 50  0001 C CNN
	1    8900 4500
	0    1    1    0   
$EndComp
$Comp
L Arduino-Pro-Mini-eagle-import:LED D3
U 1 1 71BAFA1F
P 8900 4900
F 0 "D3" V 8670 4890 59  0000 R TNN
F 1 "Green" V 9045 4810 59  0000 L BNN
F 2 "Arduino-Pro-Mini:0603-LED-ALT1" H 8900 4900 50  0001 C CNN
F 3 "" H 8900 4900 50  0001 C CNN
	1    8900 4900
	1    0    0    -1  
$EndComp
$Comp
L Arduino-Pro-Mini-eagle-import:GND #GND08
U 1 1 E3161DBF
P 8900 5300
F 0 "#GND08" H 8900 5300 50  0001 C CNN
F 1 "GND" H 8800 5200 59  0000 L BNN
F 2 "" H 8900 5300 50  0001 C CNN
F 3 "" H 8900 5300 50  0001 C CNN
	1    8900 5300
	1    0    0    -1  
$EndComp
$Comp
L Arduino-Pro-Mini-eagle-import:LOGO-SFENEW U$11
U 1 1 ABBF7E6D
P 10600 7300
F 0 "U$11" H 10600 7300 50  0001 C CNN
F 1 "LOGO-SFENEW" H 10600 7300 50  0001 C CNN
F 2 "Arduino-Pro-Mini:SFE-NEW-WEBLOGO" H 10600 7300 50  0001 C CNN
F 3 "" H 10600 7300 50  0001 C CNN
	1    10600 7300
	1    0    0    -1  
$EndComp
$Comp
L Arduino-Pro-Mini-eagle-import:V_REG_LDOSMD U2
U 1 1 3133F18F
P 2900 1800
F 0 "U2" H 2600 2160 59  0000 L BNN
F 1 "MIC5205" H 2600 1350 59  0000 L BNN
F 2 "Arduino-Pro-Mini:SOT23-5" H 2900 1800 50  0001 C CNN
F 3 "" H 2900 1800 50  0001 C CNN
	1    2900 1800
	1    0    0    -1  
$EndComp
$Comp
L Arduino-Pro-Mini-eagle-import:CAP_POL1206 C19
U 1 1 7D85CFC1
P 2000 1800
F 0 "C19" H 2040 1825 59  0000 L BNN
F 1 "10uF" H 2040 1635 59  0000 L BNN
F 2 "Arduino-Pro-Mini:EIA3216" H 2000 1800 50  0001 C CNN
F 3 "" H 2000 1800 50  0001 C CNN
	1    2000 1800
	1    0    0    -1  
$EndComp
$Comp
L Arduino-Pro-Mini-eagle-import:GND #GND030
U 1 1 A606055F
P 2300 2200
F 0 "#GND030" H 2300 2200 50  0001 C CNN
F 1 "GND" H 2200 2100 59  0000 L BNN
F 2 "" H 2300 2200 50  0001 C CNN
F 3 "" H 2300 2200 50  0001 C CNN
	1    2300 2200
	1    0    0    -1  
$EndComp
$Comp
L Arduino-Pro-Mini-eagle-import:GND #GND032
U 1 1 FD501343
P 2000 2200
F 0 "#GND032" H 2000 2200 50  0001 C CNN
F 1 "GND" H 1900 2100 59  0000 L BNN
F 2 "" H 2000 2200 50  0001 C CNN
F 3 "" H 2000 2200 50  0001 C CNN
	1    2000 2200
	1    0    0    -1  
$EndComp
$Comp
L Arduino-Pro-Mini-eagle-import:3.3V #P+011
U 1 1 3FB621CB
P 5900 1300
F 0 "#P+011" H 5900 1300 50  0001 C CNN
F 1 "VCC" H 5860 1440 59  0000 L BNN
F 2 "" H 5900 1300 50  0001 C CNN
F 3 "" H 5900 1300 50  0001 C CNN
	1    5900 1300
	1    0    0    -1  
$EndComp
$Comp
L Arduino-Pro-Mini-eagle-import:3.3V #P+015
U 1 1 F19A89AC
P 6400 3700
F 0 "#P+015" H 6400 3700 50  0001 C CNN
F 1 "VCC" H 6260 3840 59  0000 L BNN
F 2 "" H 6400 3700 50  0001 C CNN
F 3 "" H 6400 3700 50  0001 C CNN
	1    6400 3700
	1    0    0    -1  
$EndComp
$Comp
L Arduino-Pro-Mini-eagle-import:M12PTH JP6
U 1 1 A21E5090
P 5300 4700
F 0 "JP6" H 5300 5330 59  0000 L BNN
F 1 "M12PTH" H 5300 3900 59  0000 L BNN
F 2 "Arduino-Pro-Mini:1X12" H 5300 4700 50  0001 C CNN
F 3 "" H 5300 4700 50  0001 C CNN
	1    5300 4700
	-1   0    0    1   
$EndComp
$Comp
L Arduino-Pro-Mini-eagle-import:M12PTH JP7
U 1 1 ADC4B3B7
P 3300 4600
F 0 "JP7" H 3300 5230 59  0000 L BNN
F 1 "M12PTH" H 3300 3800 59  0000 L BNN
F 2 "Arduino-Pro-Mini:1X12" H 3300 4600 50  0001 C CNN
F 3 "" H 3300 4600 50  0001 C CNN
	1    3300 4600
	1    0    0    -1  
$EndComp
$Comp
L Arduino-Pro-Mini-eagle-import:LOGO-SFESK U$1
U 1 1 89E33A62
P 10600 7300
F 0 "U$1" H 10600 7300 50  0001 C CNN
F 1 "LOGO-SFESK" H 10600 7300 50  0001 C CNN
F 2 "Arduino-Pro-Mini:SFE-LOGO-FLAME" H 10600 7300 50  0001 C CNN
F 3 "" H 10600 7300 50  0001 C CNN
	1    10600 7300
	1    0    0    -1  
$EndComp
$Comp
L Arduino-Pro-Mini-eagle-import:GND #GND04
U 1 1 12C122FD
P 6400 3300
F 0 "#GND04" H 6400 3300 50  0001 C CNN
F 1 "GND" H 6300 3200 59  0000 L BNN
F 2 "" H 6400 3300 50  0001 C CNN
F 3 "" H 6400 3300 50  0001 C CNN
	1    6400 3300
	1    0    0    -1  
$EndComp
$Comp
L Arduino-Pro-Mini-eagle-import:M02PTH JP2
U 1 1 BAFA783C
P 4000 6300
F 0 "JP2" H 3900 6530 59  0000 L BNN
F 1 "M02PTH" H 3900 6100 59  0000 L BNN
F 2 "Arduino-Pro-Mini:1X02" H 4000 6300 50  0001 C CNN
F 3 "" H 4000 6300 50  0001 C CNN
	1    4000 6300
	-1   0    0    1   
$EndComp
$Comp
L Arduino-Pro-Mini-eagle-import:ATMEGA168 U1
U 1 1 30CC1D52
P 7800 2900
F 0 "U1" H 7110 4030 59  0000 L BNN
F 1 "ATMEGA328" H 7100 1400 59  0000 L BNN
F 2 "Arduino-Pro-Mini:TQFP32-08" H 7800 2900 50  0001 C CNN
F 3 "" H 7800 2900 50  0001 C CNN
	1    7800 2900
	1    0    0    -1  
$EndComp
$Comp
L Arduino-Pro-Mini-eagle-import:3.3V #P+01
U 1 1 18F8CDF2
P 6800 1800
F 0 "#P+01" H 6800 1800 50  0001 C CNN
F 1 "VCC" H 6760 1940 59  0000 L BNN
F 2 "" H 6800 1800 50  0001 C CNN
F 3 "" H 6800 1800 50  0001 C CNN
	1    6800 1800
	1    0    0    -1  
$EndComp
$Comp
L Arduino-Pro-Mini-eagle-import:GND #GND05
U 1 1 5B6A58CA
P 6800 4300
F 0 "#GND05" H 6800 4300 50  0001 C CNN
F 1 "GND" H 6700 4200 59  0000 L BNN
F 2 "" H 6800 4300 50  0001 C CNN
F 3 "" H 6800 4300 50  0001 C CNN
	1    6800 4300
	1    0    0    -1  
$EndComp
$Comp
L Arduino-Pro-Mini-eagle-import:ARDUINO_SERIAL_PROGRAMPTH JP1
U 1 1 94C55D09
P 2000 4700
F 0 "JP1" H 1800 5130 59  0000 L BNN
F 1 "FTDI Basic" H 1800 4300 59  0000 L BNN
F 2 "Arduino-Pro-Mini:1X06" H 2000 4700 50  0001 C CNN
F 3 "" H 2000 4700 50  0001 C CNN
	1    2000 4700
	1    0    0    -1  
$EndComp
$Comp
L Arduino-Pro-Mini-eagle-import:CAP0603-CAP C2
U 1 1 C8DDE19D
P 5500 1900
F 0 "C2" H 5460 1895 59  0000 R TNN
F 1 "0.1uF" H 5460 2085 59  0000 R TNN
F 2 "Arduino-Pro-Mini:0603-CAP" H 5500 1900 50  0001 C CNN
F 3 "" H 5500 1900 50  0001 C CNN
	1    5500 1900
	0    1    1    0   
$EndComp
$Comp
L Arduino-Pro-Mini-eagle-import:OSHW-LOGOS U$3
U 1 1 6E1B97F5
P 10400 6200
F 0 "U$3" H 10400 6200 50  0001 C CNN
F 1 "OSHW-LOGOS" H 10400 6200 50  0001 C CNN
F 2 "Arduino-Pro-Mini:OSHW-LOGO-S" H 10400 6200 50  0001 C CNN
F 3 "" H 10400 6200 50  0001 C CNN
	1    10400 6200
	1    0    0    -1  
$EndComp
$Comp
L Arduino-Pro-Mini-eagle-import:RESISTOR0603-RES R1
U 1 1 54673866
P 9900 2000
F 0 "R1" H 9750 2059 59  0000 L BNN
F 1 "RESISTOR0603-RES" H 9750 1870 59  0000 L BNN
F 2 "Arduino-Pro-Mini:0603-RES" H 9900 2000 50  0001 C CNN
F 3 "" H 9900 2000 50  0001 C CNN
	1    9900 2000
	0    -1   -1   0   
$EndComp
$Comp
L Arduino-Pro-Mini-eagle-import:RESISTOR0603-RES R3
U 1 1 A00BD228
P 10200 2100
F 0 "R3" H 10050 2159 59  0000 L BNN
F 1 "RESISTOR0603-RES" H 10050 1970 59  0000 L BNN
F 2 "Arduino-Pro-Mini:0603-RES" H 10200 2100 50  0001 C CNN
F 3 "" H 10200 2100 50  0001 C CNN
	1    10200 2100
	0    -1   -1   0   
$EndComp
$Comp
L Arduino-Pro-Mini-eagle-import:3.3V #P+02
U 1 1 118BECF6
P 9900 1700
F 0 "#P+02" H 9900 1700 50  0001 C CNN
F 1 "VCC" H 9860 1840 59  0000 L BNN
F 2 "" H 9900 1700 50  0001 C CNN
F 3 "" H 9900 1700 50  0001 C CNN
	1    9900 1700
	1    0    0    -1  
$EndComp
$Comp
L Arduino-Pro-Mini-eagle-import:3.3V #P+03
U 1 1 3A321347
P 10200 1700
F 0 "#P+03" H 10200 1700 50  0001 C CNN
F 1 "VCC" H 10160 1840 59  0000 L BNN
F 2 "" H 10200 1700 50  0001 C CNN
F 3 "" H 10200 1700 50  0001 C CNN
	1    10200 1700
	1    0    0    -1  
$EndComp
$Comp
L Arduino-Pro-Mini-eagle-import:FIDUCIALUFIDUCIAL JP5
U 1 1 056852D9
P 10500 6900
F 0 "JP5" H 10500 6900 50  0001 C CNN
F 1 "FIDUCIALUFIDUCIAL" H 10500 6900 50  0001 C CNN
F 2 "Arduino-Pro-Mini:MICRO-FIDUCIAL" H 10500 6900 50  0001 C CNN
F 3 "" H 10500 6900 50  0001 C CNN
	1    10500 6900
	1    0    0    -1  
$EndComp
$Comp
L Arduino-Pro-Mini-eagle-import:FIDUCIALUFIDUCIAL JP8
U 1 1 357D3C8D
P 10500 6700
F 0 "JP8" H 10500 6700 50  0001 C CNN
F 1 "FIDUCIALUFIDUCIAL" H 10500 6700 50  0001 C CNN
F 2 "Arduino-Pro-Mini:MICRO-FIDUCIAL" H 10500 6700 50  0001 C CNN
F 3 "" H 10500 6700 50  0001 C CNN
	1    10500 6700
	1    0    0    -1  
$EndComp
$Comp
L Arduino-Pro-Mini-eagle-import:SOLDERJUMPERNC SJ1
U 1 1 666E743F
P 3800 1600
F 0 "SJ1" H 3700 1700 59  0000 L BNN
F 1 "SOLDERJUMPERNC" H 3700 1400 59  0000 L BNN
F 2 "Arduino-Pro-Mini:SJ_2S" H 3800 1600 50  0001 C CNN
F 3 "" H 3800 1600 50  0001 C CNN
	1    3800 1600
	1    0    0    -1  
$EndComp
$Comp
L Arduino-Pro-Mini-eagle-import:3.3V #P+04
U 1 1 376F1B08
P 4500 1500
F 0 "#P+04" H 4500 1500 50  0001 C CNN
F 1 "VCC" H 4460 1640 59  0000 L BNN
F 2 "" H 4500 1500 50  0001 C CNN
F 3 "" H 4500 1500 50  0001 C CNN
	1    4500 1500
	1    0    0    -1  
$EndComp
$Comp
L Arduino-Pro-Mini-eagle-import:SWITCH-MOMENTARY-2SMD-ALT01 S1
U 1 1 6784483A
P 5900 2200
F 0 "S1" H 5800 2300 59  0000 L BNN
F 1 "Reset" H 5800 2100 59  0000 L BNN
F 2 "Arduino-Pro-Mini:TACTILE-SWITCH-SMD-ALT01" H 5900 2200 50  0001 C CNN
F 3 "" H 5900 2200 50  0001 C CNN
	1    5900 2200
	0    -1   -1   0   
$EndComp
$Comp
L Arduino-Pro-Mini-eagle-import:M02PTH JP3
U 1 1 8182258E
P 5000 6300
F 0 "JP3" H 4900 6530 59  0000 L BNN
F 1 "M02PTH" H 4900 6100 59  0000 L BNN
F 2 "Arduino-Pro-Mini:1X02" H 5000 6300 50  0001 C CNN
F 3 "" H 5000 6300 50  0001 C CNN
	1    5000 6300
	-1   0    0    1   
$EndComp
$Comp
L Arduino-Pro-Mini-eagle-import:RESONATOR1_1 Q1
U 1 1 2058AEB9
P 6800 3000
F 0 "Q1" V 6650 2860 59  0000 L BNN
F 1 "8/16/20MHz" V 7020 2730 59  0000 L BNN
F 2 "Arduino-Pro-Mini:RESONATOR-SMD-1_1" H 6800 3000 50  0001 C CNN
F 3 "" H 6800 3000 50  0001 C CNN
	1    6800 3000
	0    1    1    0   
$EndComp
Wire Notes Line
	9400 1000 10780 1000
Wire Notes Line
	10780 1000 10780 2580
Wire Notes Line
	10780 2580 9400 2580
Wire Notes Line
	9400 2580 9400 1000
Wire Notes Line
	5400 5700 3200 5700
Wire Notes Line
	3200 5700 3200 6800
Wire Notes Line
	3200 6800 5400 6800
Wire Notes Line
	5400 6800 5400 5700
Text Notes 7630 7540 0    59   ~ 0
Original Arduino Mini Design by Team Arduino
Text Notes 7630 7640 0    59   ~ 0
Arduino Pro Mini Design by Spark Fun Electronics
Text Notes 1900 2600 0    59   ~ 0
Max Voltage Input: 16VDC
Text Notes 1900 2700 0    59   ~ 0
Max Current Output: 150mA
Text Notes 1700 3000 0    59   ~ 0
Board is marked with combination of
Text Notes 1700 3100 0    59   ~ 0
resonator frequency and regulator voltage.
Text Notes 1900 2500 0    59   ~ 0
VCC = 5V or 3.3V Output
Text Notes 9470 1200 0    59   ~ 0
Optional Pullups for I2C lines
Text Notes 3700 5900 0    59   ~ 0
Off Grid Breakout headers
Text Notes 10560 7710 0    59   ~ 0
14
Text Notes 3400 1000 0    59   ~ 0
Power isolation jumper
Text Notes 3330 1110 0    59   ~ 0
(for low power aplications)
Wire Notes Line
	3700 1200 3770 1400
Wire Notes Line
	3770 1400 3780 1340
Wire Notes Line
	3770 1400 3720 1370
$EndSCHEMATC
