(module 1X12_NO_SILK (layer F.Cu) (tedit 0)
  (fp_text reference JP2 (at 0 0) (layer F.SilkS) hide
    (effects (font (size 1.27 1.27) (thickness 0.15)) (justify right top))
  )
  (fp_text value "" (at 0 0) (layer F.SilkS) hide
    (effects (font (size 1.27 1.27) (thickness 0.15)) (justify right top))
  )
  (pad 1 thru_hole circle (at 0 0 90) (size 1.8796 1.8796) (drill 1.016) (layers *.Cu *.Mask)
    (solder_mask_margin 0.1016))
  (pad 2 thru_hole circle (at 2.54 0 90) (size 1.8796 1.8796) (drill 1.016) (layers *.Cu *.Mask)
    (solder_mask_margin 0.1016))
  (pad 3 thru_hole circle (at 5.08 0 90) (size 1.8796 1.8796) (drill 1.016) (layers *.Cu *.Mask)
    (solder_mask_margin 0.1016))
  (pad 4 thru_hole circle (at 7.62 0 90) (size 1.8796 1.8796) (drill 1.016) (layers *.Cu *.Mask)
    (solder_mask_margin 0.1016))
  (pad 5 thru_hole circle (at 10.16 0 90) (size 1.8796 1.8796) (drill 1.016) (layers *.Cu *.Mask)
    (solder_mask_margin 0.1016))
  (pad 6 thru_hole circle (at 12.7 0 90) (size 1.8796 1.8796) (drill 1.016) (layers *.Cu *.Mask)
    (solder_mask_margin 0.1016))
  (pad 7 thru_hole circle (at 15.24 0 90) (size 1.8796 1.8796) (drill 1.016) (layers *.Cu *.Mask)
    (solder_mask_margin 0.1016))
  (pad 8 thru_hole circle (at 17.78 0 90) (size 1.8796 1.8796) (drill 1.016) (layers *.Cu *.Mask)
    (solder_mask_margin 0.1016))
  (pad 9 thru_hole circle (at 20.32 0 90) (size 1.8796 1.8796) (drill 1.016) (layers *.Cu *.Mask)
    (solder_mask_margin 0.1016))
  (pad 10 thru_hole circle (at 22.86 0 90) (size 1.8796 1.8796) (drill 1.016) (layers *.Cu *.Mask)
    (solder_mask_margin 0.1016))
  (pad 11 thru_hole circle (at 25.4 0 90) (size 1.8796 1.8796) (drill 1.016) (layers *.Cu *.Mask)
    (solder_mask_margin 0.1016))
  (pad 12 thru_hole circle (at 27.94 0 90) (size 1.8796 1.8796) (drill 1.016) (layers *.Cu *.Mask)
    (solder_mask_margin 0.1016))
)
