(module LED-0603 (layer F.Cu) (tedit 0)
  (fp_text reference D4 (at -0.6985 0.889 90) (layer F.SilkS)
    (effects (font (size 0.38608 0.38608) (thickness 0.032512)) (justify left bottom))
  )
  (fp_text value Yellow (at 1.0795 1.016 90) (layer F.Fab)
    (effects (font (size 0.38608 0.38608) (thickness 0.032512)) (justify left bottom))
  )
  (fp_line (start 0.46 -0.17) (end 0 -0.17) (layer F.SilkS) (width 0.2032))
  (fp_line (start -0.46 -0.17) (end 0 -0.17) (layer F.SilkS) (width 0.2032))
  (fp_line (start 0 -0.17) (end 0.2338 0.14) (layer F.SilkS) (width 0.2032))
  (fp_line (start -0.0254 -0.1546) (end -0.2184 0.14) (layer F.SilkS) (width 0.2032))
  (pad C smd roundrect (at 0 -0.877) (size 1 1) (layers F.Cu F.Paste F.Mask) (roundrect_rratio 0.15)
    (solder_mask_margin 0.1016))
  (pad A smd roundrect (at 0 0.877) (size 1 1) (layers F.Cu F.Paste F.Mask) (roundrect_rratio 0.15)
    (solder_mask_margin 0.1016))
)
